Oligo	TargetCounts	BackgroundCounts	NormalizationFactor
A	31.53%	31.75%	0.993
C	18.47%	18.25%	1.012
G	18.47%	18.25%	1.012
T	31.53%	31.75%	0.993
AA	10.85%	11.68%	0.929
CA	6.65%	6.19%	1.074
GA	6.68%	6.71%	0.996
TA	7.35%	7.18%	1.023
AC	5.48%	5.31%	1.031
CC	3.56%	3.40%	1.049
GC	2.76%	2.84%	0.973
TC	6.68%	6.71%	0.996
AG	5.30%	6.00%	0.884
CG	2.95%	2.67%	1.108
GG	3.56%	3.40%	1.049
TG	6.65%	6.19%	1.074
AT	9.91%	8.76%	1.131
CT	5.30%	6.00%	0.884
GT	5.48%	5.31%	1.031
TT	10.85%	11.68%	0.929
AAA	4.31%	4.46%	0.965
CAA	2.43%	2.38%	1.021
GAA	1.92%	2.40%	0.802
TAA	2.17%	2.44%	0.891
ACA	2.17%	1.93%	1.125
CCA	1.50%	1.31%	1.145
GCA	0.91%	0.89%	1.023
TCA	2.07%	2.06%	1.005
AGA	2.44%	2.48%	0.984
CGA	0.93%	0.96%	0.970
GGA	1.23%	1.21%	1.024
TGA	2.07%	2.06%	1.005
ATA	2.82%	2.23%	1.263
CTA	1.15%	1.28%	0.899
GTA	1.20%	1.24%	0.968
TTA	2.17%	2.44%	0.891
AAC	1.55%	2.05%	0.755
CAC	1.44%	1.09%	1.316
GAC	1.30%	0.93%	1.392
TAC	1.20%	1.24%	0.968
ACC	0.96%	1.10%	0.881
CCC	0.76%	0.55%	1.382
GCC	0.61%	0.55%	1.111
TCC	1.23%	1.21%	1.024
AGC	0.81%	1.03%	0.789
CGC	0.44%	0.38%	1.170
GGC	0.61%	0.55%	1.111
TGC	0.91%	0.89%	1.023
ATC	2.11%	1.91%	1.103
CTC	1.36%	1.47%	0.927
GTC	1.30%	0.93%	1.392
TTC	1.92%	2.40%	0.802
AAG	1.96%	2.26%	0.866
CAG	0.83%	0.98%	0.848
GAG	1.36%	1.47%	0.927
TAG	1.15%	1.28%	0.899
ACG	1.10%	0.78%	1.413
CCG	0.49%	0.56%	0.875
GCG	0.44%	0.38%	1.170
TCG	0.93%	0.96%	0.970
AGG	0.81%	0.97%	0.832
CGG	0.49%	0.56%	0.875
GGG	0.76%	0.55%	1.382
TGG	1.50%	1.31%	1.145
ATG	1.95%	1.74%	1.117
CTG	0.83%	0.98%	0.848
GTG	1.44%	1.09%	1.316
TTG	2.43%	2.38%	1.021
AAT	3.04%	2.89%	1.050
CAT	1.95%	1.74%	1.117
GAT	2.11%	1.91%	1.103
TAT	2.82%	2.23%	1.263
ACT	1.25%	1.51%	0.824
CCT	0.81%	0.97%	0.832
GCT	0.81%	1.03%	0.789
TCT	2.44%	2.48%	0.984
AGT	1.25%	1.51%	0.824
CGT	1.10%	0.78%	1.413
GGT	0.96%	1.10%	0.881
TGT	2.17%	1.93%	1.125
ATT	3.04%	2.89%	1.050
CTT	1.96%	2.26%	0.866
GTT	1.55%	2.05%	0.755
TTT	4.31%	4.46%	0.965
