********************************************************************************
MEME - Motif discovery tool
********************************************************************************
MEME version 4.10.0 (Release date: Wed May 21 10:35:36 2014 +1000)

For further information on how to interpret these results or to get
a copy of the MEME software please access http://meme.nbcr.net.

This file may be used as input to the MAST algorithm for searching
sequence databases for matches to groups of motifs.  MAST is available
for interactive use and downloading at http://meme.nbcr.net.
********************************************************************************


********************************************************************************
REFERENCE
********************************************************************************
If you use this program in your research, please cite:

Timothy L. Bailey and Charles Elkan,
"Fitting a mixture model by expectation maximization to discover
motifs in biopolymers", Proceedings of the Second International
Conference on Intelligent Systems for Molecular Biology, pp. 28-36,
AAAI Press, Menlo Park, California, 1994.
********************************************************************************


********************************************************************************
TRAINING SET
********************************************************************************
DATAFILE= intermediateFiles/BindingRepression.fasta
ALPHABET= ACGT
Sequence name            Weight Length  Sequence name            Weight Length  
-------------            ------ ------  -------------            ------ ------  
Exp2_BA_peak_8070,Exp1_R 1.0000    236  Exp1_Rep2_peak_7642,Exp2 1.0000    204  
Exp2_BA_peak_1194,Exp1_R 1.0000    230  Exp1_Rep1_peak_652,Exp1_ 1.0000    283  
Exp2_BA_peak_6704,Exp1_R 1.0000    246  Exp1_Rep2_peak_5987,Exp2 1.0000    231  
Exp1_Rep2_peak_666,Exp1_ 1.0000    234  Exp2_BA_peak_2620,Exp1_R 1.0000    277  
Exp1_Rep2_peak_8211,Exp1 1.0000    393  Exp2_BA_peak_281,Exp1_Re 1.0000    253  
Exp2_BA_peak_9669,Exp1_R 1.0000    303  Exp2_BA_peak_4725,Exp1_R 1.0000    255  
Exp1_Rep1_peak_10843,Exp 1.0000    240  Exp2_BA_peak_3689,Exp1_R 1.0000    243  
Exp2_BA_peak_1656,Exp1_R 1.0000    247  Exp2_BA_peak_4305,Exp1_R 1.0000    328  
Exp1_Rep2_peak_5030,Exp2 1.0000    262  Exp2_BA_peak_4205,Exp1_R 1.0000    292  
Exp1_Rep1_peak_7445,Exp1 1.0000    264  Exp1_Rep1_peak_1207,Exp1 1.0000    288  
Exp1_Rep2_peak_3316,Exp1 1.0000    319  Exp1_Rep2_peak_7491,Exp1 1.0000    253  
Exp1_Rep2_peak_2918,Exp2 1.0000    230  Exp1_Rep1_peak_8980,Exp1 1.0000    208  
Exp2_BA_peak_7472,Exp1_R 1.0000    215  Exp1_Rep1_peak_8554,Exp1 1.0000    312  
Exp1_Rep2_peak_8088,Exp1 1.0000    239  Exp2_BA_peak_6437,Exp1_R 1.0000    222  
Exp1_Rep2_peak_3775,Exp2 1.0000    224  Exp2_BA_peak_1845,Exp1_R 1.0000    209  
Exp1_Rep2_peak_10835,Exp 1.0000    255  Exp1_Rep1_peak_7126,Exp1 1.0000    230  
Exp1_Rep1_peak_9280,Exp2 1.0000    224  Exp1_Rep1_peak_927,Exp2_ 1.0000    222  
Exp1_Rep2_peak_4936,Exp1 1.0000    211  Exp2_BA_peak_7071,Exp1_R 1.0000    223  
Exp2_BA_peak_7070,Exp1_R 1.0000    248  Exp1_Rep1_peak_11353,Exp 1.0000    230  
Exp1_Rep1_peak_11355,Exp 1.0000    234  Exp1_Rep1_peak_936,Exp1_ 1.0000    235  
Exp2_BA_peak_8989,Exp1_R 1.0000    279  Exp1_Rep1_peak_7051,Exp2 1.0000    295  
Exp1_Rep1_peak_7050,Exp1 1.0000    251  Exp1_Rep1_peak_6444,Exp2 1.0000    221  
Exp1_Rep1_peak_7323,Exp1 1.0000    237  Exp1_Rep2_peak_208,Exp1_ 1.0000    263  
Exp2_BA_peak_7970,Exp1_R 1.0000    215  Exp1_Rep1_peak_1622,Exp2 1.0000    216  
Exp1_Rep2_peak_7682,Exp1 1.0000    258  Exp2_BA_peak_2202,Exp1_R 1.0000    215  
Exp1_Rep2_peak_8394,Exp1 1.0000    213  Exp1_Rep1_peak_8967,Exp1 1.0000    238  
Exp1_Rep1_peak_5631,Exp2 1.0000    242  Exp1_Rep2_peak_6085,Exp1 1.0000    223  
Exp1_Rep2_peak_7620,Exp2 1.0000    257  Exp1_Rep1_peak_9489,Exp2 1.0000    232  
Exp1_Rep1_peak_6325,Exp1 1.0000    232  Exp1_Rep1_peak_520,Exp2_ 1.0000    240  
Exp2_BA_peak_9396,Exp1_R 1.0000    223  Exp2_BA_peak_4554,Exp1_R 1.0000    282  
Exp1_Rep2_peak_2276,Exp1 1.0000    239  Exp1_Rep2_peak_8726,Exp2 1.0000    243  
Exp1_Rep1_peak_374,Exp2_ 1.0000    217  Exp1_Rep1_peak_6960,Exp1 1.0000    276  
Exp1_Rep2_peak_7988,Exp2 1.0000    302  Exp1_Rep1_peak_4766,Exp1 1.0000    236  
Exp1_Rep2_peak_4865,Exp1 1.0000    213  Exp1_Rep2_peak_9146,Exp2 1.0000    295  
Exp1_Rep1_peak_7542,Exp2 1.0000    266  Exp1_Rep2_peak_814,Exp1_ 1.0000    221  
Exp2_BA_peak_10008,Exp1_ 1.0000    365  Exp2_BA_peak_10009,Exp1_ 1.0000    269  
Exp1_Rep1_peak_10949,Exp 1.0000    276  Exp1_Rep1_peak_6922,Exp1 1.0000    232  
Exp1_Rep1_peak_7958,Exp1 1.0000    230  Exp2_BA_peak_2795,Exp1_R 1.0000    277  
Exp2_BA_peak_8250,Exp1_R 1.0000    231  Exp2_BA_peak_6633,Exp1_R 1.0000    218  
Exp2_BA_peak_7995,Exp1_R 1.0000    244  Exp2_BA_peak_7996,Exp1_R 1.0000    246  
Exp1_Rep1_peak_10205,Exp 1.0000    262  Exp1_Rep1_peak_9603,Exp2 1.0000    297  
Exp1_Rep1_peak_1922,Exp1 1.0000    238  Exp2_BA_peak_9190,Exp1_R 1.0000    222  
Exp1_Rep2_peak_3764,Exp1 1.0000    259  Exp1_Rep1_peak_11296,Exp 1.0000    204  
Exp1_Rep2_peak_2888,Exp1 1.0000    210  Exp2_BA_peak_9400,Exp1_R 1.0000    253  
Exp1_Rep2_peak_9998,Exp1 1.0000    216  Exp1_Rep2_peak_5106,Exp1 1.0000    362  
Exp2_BA_peak_4820,Exp1_R 1.0000    267  Exp2_BA_peak_5299,Exp1_R 1.0000    230  
Exp2_BA_peak_1496,Exp1_R 1.0000    270  Exp1_Rep2_peak_2800,Exp1 1.0000    216  
Exp1_Rep1_peak_1058,Exp2 1.0000    217  Exp2_BA_peak_8776,Exp1_R 1.0000    233  
Exp2_BA_peak_3329,Exp1_R 1.0000    449  Exp1_Rep1_peak_496,Exp1_ 1.0000    273  
Exp1_Rep2_peak_577,Exp2_ 1.0000    458  Exp1_Rep1_peak_7892,Exp1 1.0000    202  
Exp1_Rep1_peak_1269,Exp2 1.0000    207  Exp1_Rep1_peak_1473,Exp2 1.0000    244  
Exp1_Rep2_peak_1581,Exp1 1.0000    284  Exp1_Rep1_peak_5897,Exp2 1.0000    254  
Exp1_Rep2_peak_4367,Exp1 1.0000    267  Exp2_BA_peak_8388,Exp1_R 1.0000    298  
Exp2_BA_peak_3930,Exp1_R 1.0000    278  Exp1_Rep2_peak_3720,Exp2 1.0000    223  
Exp1_Rep1_peak_2520,Exp2 1.0000    262  Exp1_Rep2_peak_10101,Exp 1.0000    221  
Exp1_Rep1_peak_11164,Exp 1.0000    215  Exp2_BA_peak_4084,Exp1_R 1.0000    255  
Exp1_Rep1_peak_4392,Exp2 1.0000    216  Exp2_BA_peak_3940,Exp1_R 1.0000    223  
Exp2_BA_peak_93,Exp1_Rep 1.0000    236  Exp1_Rep1_peak_8003,Exp1 1.0000    361  
Exp1_Rep2_peak_3058,Exp2 1.0000    243  Exp1_Rep2_peak_2033,Exp1 1.0000    225  
Exp1_Rep2_peak_6676,Exp2 1.0000    253  Exp2_BA_peak_6331,Exp1_R 1.0000    253  
Exp1_Rep1_peak_9883,Exp1 1.0000    249  Exp1_Rep2_peak_7127,Exp1 1.0000    233  
Exp1_Rep1_peak_10211,Exp 1.0000    279  Exp1_Rep1_peak_648,Exp2_ 1.0000    227  
Exp1_Rep2_peak_2753,Exp2 1.0000    210  Exp1_Rep1_peak_10564,Exp 1.0000    230  
Exp1_Rep1_peak_10565,Exp 1.0000    219  Exp2_BA_peak_4473,Exp1_R 1.0000    260  
Exp1_Rep2_peak_1770,Exp1 1.0000    278  Exp2_BA_peak_5517,Exp1_R 1.0000    226  
Exp2_BA_peak_7638,Exp1_R 1.0000    216  Exp2_BA_peak_369,Exp1_Re 1.0000    209  
Exp2_BA_peak_8283,Exp1_R 1.0000    244  Exp2_BA_peak_8886,Exp1_R 1.0000    214  
Exp2_BA_peak_9364,Exp1_R 1.0000    220  Exp2_BA_peak_543,Exp1_Re 1.0000    279  
Exp1_Rep2_peak_8330,Exp1 1.0000    217  Exp2_BA_peak_3199,Exp1_R 1.0000    251  
Exp2_BA_peak_5768,Exp1_R 1.0000    261  Exp2_BA_peak_5769,Exp1_R 1.0000    396  
Exp1_Rep2_peak_267,Exp1_ 1.0000    289  Exp2_BA_peak_1325,Exp1_R 1.0000    264  
Exp1_Rep1_peak_5172,Exp2 1.0000    217  Exp1_Rep1_peak_10354,Exp 1.0000    318  
Exp2_BA_peak_9088,Exp1_R 1.0000    226  Exp1_Rep2_peak_743,Exp1_ 1.0000    271  
Exp1_Rep1_peak_5493,Exp1 1.0000    241  Exp1_Rep1_peak_5494,Exp2 1.0000    247  
Exp1_Rep1_peak_4010,Exp2 1.0000    287  Exp1_Rep1_peak_117,Exp2_ 1.0000    230  
Exp1_Rep2_peak_141,Exp1_ 1.0000    219  Exp1_Rep1_peak_2416,Exp1 1.0000    223  
Exp1_Rep2_peak_4380,Exp2 1.0000    259  Exp1_Rep1_peak_1943,Exp2 1.0000    246  
Exp2_BA_peak_3857,Exp1_R 1.0000    271  Exp1_Rep1_peak_4410,Exp2 1.0000    286  
Exp1_Rep2_peak_9006,Exp2 1.0000    257  Exp1_Rep2_peak_4722,Exp1 1.0000    326  
Exp2_BA_peak_3408,Exp1_R 1.0000    251  Exp2_BA_peak_4207,Exp1_R 1.0000    238  
Exp2_BA_peak_9681,Exp1_R 1.0000    277  Exp2_BA_peak_9679,Exp1_R 1.0000    244  
Exp1_Rep1_peak_9710,Exp1 1.0000    290  Exp1_Rep1_peak_709,Exp1_ 1.0000    275  
Exp1_Rep1_peak_1528,Exp2 1.0000    223  Exp1_Rep1_peak_1419,Exp1 1.0000    218  
Exp1_Rep1_peak_11150,Exp 1.0000    209  Exp1_Rep1_peak_11148,Exp 1.0000    291  
Exp1_Rep2_peak_4356,Exp1 1.0000    255  Exp2_BA_peak_6309,Exp1_R 1.0000    258  
Exp1_Rep2_peak_7098,Exp1 1.0000    315  Exp1_Rep2_peak_9718,Exp2 1.0000    260  
Exp2_BA_peak_5378,Exp1_R 1.0000    213  Exp2_BA_peak_7410,Exp1_R 1.0000    267  
Exp1_Rep1_peak_7176,Exp2 1.0000    251  Exp1_Rep1_peak_7173,Exp1 1.0000    223  
Exp2_BA_peak_5326,Exp1_R 1.0000    435  Exp1_Rep2_peak_2652,Exp2 1.0000    210  
Exp2_BA_peak_7798,Exp1_R 1.0000    250  Exp2_BA_peak_1538,Exp1_R 1.0000    228  
Exp1_Rep2_peak_9173,Exp1 1.0000    210  Exp1_Rep2_peak_3805,Exp2 1.0000    231  
Exp1_Rep2_peak_9815,Exp2 1.0000    301  Exp1_Rep1_peak_4878,Exp2 1.0000    442  
Exp2_BA_peak_9228,Exp1_R 1.0000    260  Exp2_BA_peak_9229,Exp1_R 1.0000    228  
Exp2_BA_peak_4989,Exp1_R 1.0000    244  Exp1_Rep1_peak_7580,Exp1 1.0000    263  
Exp1_Rep2_peak_11019,Exp 1.0000    322  Exp1_Rep1_peak_3990,Exp1 1.0000    240  
Exp2_BA_peak_4661,Exp1_R 1.0000    228  Exp2_BA_peak_6605,Exp1_R 1.0000    347  
Exp2_BA_peak_4396,Exp1_R 1.0000    264  Exp2_BA_peak_223,Exp1_Re 1.0000    287  
Exp1_Rep1_peak_30,Exp1_R 1.0000    288  Exp2_BA_peak_8559,Exp1_R 1.0000    217  
Exp1_Rep1_peak_1742,Exp1 1.0000    232  Exp1_Rep2_peak_6508,Exp1 1.0000    278  
Exp1_Rep2_peak_9415,Exp2 1.0000    258  Exp1_Rep2_peak_7926,Exp2 1.0000    289  
Exp2_BA_peak_8206,Exp1_R 1.0000    236  Exp1_Rep1_peak_10456,Exp 1.0000    327  
Exp1_Rep2_peak_8723,Exp1 1.0000    282  Exp1_Rep1_peak_4499,Exp1 1.0000    249  
Exp1_Rep1_peak_2519,Exp2 1.0000    213  Exp1_Rep2_peak_3202,Exp1 1.0000    229  
Exp1_Rep2_peak_4076,Exp1 1.0000    231  Exp1_Rep1_peak_2409,Exp1 1.0000    205  
Exp1_Rep1_peak_2764,Exp1 1.0000    229  Exp2_BA_peak_5167,Exp1_R 1.0000    336  
Exp2_BA_peak_1281,Exp1_R 1.0000    254  Exp1_Rep2_peak_6398,Exp2 1.0000    233  
Exp2_BA_peak_4094,Exp1_R 1.0000    257  Exp2_BA_peak_4093,Exp1_R 1.0000    221  
Exp2_BA_peak_7033,Exp1_R 1.0000    256  Exp1_Rep1_peak_8746,Exp1 1.0000    231  
Exp2_BA_peak_7642,Exp1_R 1.0000    225  Exp1_Rep1_peak_6399,Exp1 1.0000    245  
Exp1_Rep1_peak_4924,Exp1 1.0000    310  Exp1_Rep2_peak_9431,Exp2 1.0000    267  
Exp1_Rep2_peak_11407,Exp 1.0000    286  Exp1_Rep2_peak_6269,Exp1 1.0000    224  
Exp2_BA_peak_1048,Exp1_R 1.0000    283  Exp1_Rep1_peak_274,Exp1_ 1.0000    213  
Exp2_BA_peak_9726,Exp1_R 1.0000    244  Exp1_Rep2_peak_6880,Exp2 1.0000    225  
Exp2_BA_peak_4700,Exp1_R 1.0000    240  Exp2_BA_peak_4234,Exp1_R 1.0000    229  
Exp1_Rep2_peak_10153,Exp 1.0000    255  Exp1_Rep2_peak_10154,Exp 1.0000    214  
Exp1_Rep2_peak_11704,Exp 1.0000    316  Exp1_Rep2_peak_1993,Exp1 1.0000    263  
Exp1_Rep1_peak_479,Exp2_ 1.0000    234  Exp1_Rep1_peak_9954,Exp2 1.0000    227  
Exp1_Rep1_peak_6337,Exp1 1.0000    265  Exp1_Rep2_peak_9164,Exp1 1.0000    215  
********************************************************************************

********************************************************************************
COMMAND LINE SUMMARY
********************************************************************************
This information can also be useful in the event you wish to report a
problem with the MEME software.

command: meme intermediateFiles/BindingRepression.fasta -maxsize 435600 -dna -mod zoops -cons AGAT -nmotifs 20 -minw 4 -maxw 10 -minsites 20 -evt 0.05 -oc results/Meme/MEME.BindingRepression 

model:  mod=         zoops    nmotifs=        20    evt=          0.05
object function=  E-value of product of p-values
width:  minw=            4    maxw=           10    minic=        0.00
width:  wg=             11    ws=              1    endgaps=       yes
nsites: minsites=       20    maxsites=      236    wnsites=       0.8
theta:  prob=            1    spmap=         uni    spfuzz=        0.5
global: substring=      no    branching=      no    wbranch=        no
em:     prior=   dirichlet    b=            0.01    maxiter=        50
        distance=    1e-05
data:   n=           60010    N=             236
strands: +
sample: seed=            0    seqfrac=         1
Letter frequencies in dataset:
A 0.311 C 0.202 G 0.176 T 0.311 
Background letter frequencies (from dataset with add-one prior applied):
A 0.311 C 0.202 G 0.176 T 0.311 
********************************************************************************


********************************************************************************
MOTIF  1 MEME	width =  10  sites = 108  llr = 866  E-value = 9.9e-014
********************************************************************************
--------------------------------------------------------------------------------
	Motif 1 Description
--------------------------------------------------------------------------------
Simplified        A  a6996a867a
pos.-specific     C  :1::1:2:::
probability       G  :3112::43:
matrix            T  ::::1:::::

         bits    2.5           
                 2.3           
                 2.0           
                 1.8 *         
Relative         1.5 *    *   *
Entropy          1.3 * ** **  *
(11.6 bits)      1.0 * ** *****
                 0.8 **** *****
                 0.5 **** *****
                 0.3 **********
                 0.0 ----------

Multilevel           AAAAAAAAAA
consensus             G     GG 
sequence                       
                               
--------------------------------------------------------------------------------

--------------------------------------------------------------------------------
	Motif 1 sites sorted by position p-value
--------------------------------------------------------------------------------
Sequence name             Start   P-value               Site 
-------------             ----- ---------            ----------
Exp2_BA_peak_7033,Exp1_R     17  7.50e-06 TGTTTAAAGT AAAAAAAGAA AAGAAACAAT
Exp2_BA_peak_1281,Exp1_R     34  7.50e-06 TATCTCTCTG AGAAAAAGAA TCTGGAGAAA
Exp1_Rep1_peak_7173,Exp1    154  7.50e-06 TGGGGTCCGA AAAAAAAGAA TCGGTCCCCT
Exp1_Rep1_peak_5172,Exp2     14  7.50e-06 AATAAAAAGA AGAAAAAGAA AGAGTGAAAA
Exp1_Rep2_peak_1770,Exp1    213  7.50e-06 CACTTGAAAA AAAAAAAGAA GAAAATGCAC
Exp2_BA_peak_6331,Exp1_R     38  7.50e-06 CAGATTAAAA AAAAAAAGAA AAGAGATGAT
Exp1_Rep1_peak_1269,Exp2     30  7.50e-06 AGTTGTTGAC AAAAAAAGAA TGACATCGGC
Exp1_Rep2_peak_577,Exp2_    420  7.50e-06 GCTATATTCC AAAAAAAGAA ACAATGTATT
Exp1_Rep2_peak_208,Exp1_     15  7.50e-06 TGAGTTTACC AGAAAAAGAA CACATCTTTC
Exp1_Rep1_peak_7051,Exp2     79  7.50e-06 TACTTCCAAA AAAAAAAGAA GAAGAGGAAA
Exp2_BA_peak_7472,Exp1_R     72  7.50e-06 AATAGCTGCC AAAAAAAGAA GAAGGTATAT
Exp2_BA_peak_281,Exp1_Re    199  7.50e-06 AAATGTAAAA AGAAAAAGAA TTACTGAGGA
Exp2_BA_peak_4396,Exp1_R      8  1.17e-05    TTCACTC AGAAAAAGGA TACAATAAAC
Exp2_BA_peak_3408,Exp1_R    177  1.17e-05 ATGTAGCCTA AAAAAAAGGA GTGACAATGG
Exp2_BA_peak_3857,Exp1_R     41  1.17e-05 ATTGGTTGAA AGAAAAAGGA GTTATTTGGT
Exp2_BA_peak_8283,Exp1_R      1  1.17e-05          . AAAAAAAGGA AGATAACAAG
Exp2_BA_peak_4820,Exp1_R    210  1.17e-05 CCACGACAAA AAAAAAAGGA AGATATTATT
Exp1_Rep2_peak_5987,Exp2      3  1.17e-05         TT AGAAAAAGGA TTAAAATGCA
Exp1_Rep1_peak_6337,Exp1    227  2.50e-05 CTTTAACAAC AAAAAAAAAA ATCACAGAGA
Exp1_Rep1_peak_8746,Exp1      5  2.50e-05       AGGA AGAAAAAAAA TCAGATATAG
Exp1_Rep1_peak_10456,Exp    243  2.50e-05 TCTCCTTTTT AAAAAAAAAA ATAATTTTTT
Exp2_BA_peak_9190,Exp1_R     40  2.50e-05 TGATGCAGAG AGAAAAAAAA GATAGGGAGG
Exp1_Rep1_peak_7958,Exp1     31  2.50e-05 GATATTTGTC AAAAAAAAAA AAAGTGCGCA
Exp2_BA_peak_10008,Exp1_    152  2.50e-05 TGTTAGGGAC AGAAAAAAAA TTAAAAAAAA
Exp1_Rep1_peak_6960,Exp1    232  2.50e-05 ACGGCTCCAT AAAAAAAAAA AATATTCATT
Exp2_BA_peak_4725,Exp1_R     27  2.50e-05 TTAAAAAAAT AAAAAAAAAA TAAAGAGGGG
Exp2_BA_peak_9364,Exp1_R     25  3.25e-05 AAAAAATGAA AGAAAAAAGA GTGGACCCAT
Exp2_BA_peak_5768,Exp1_R     95  3.67e-05 TAGTGATGAG AGAAGAAGAA GGGAGCATCT
Exp1_Rep1_peak_5897,Exp2     49  3.67e-05 CAGAGAATAA AGAAGAAGAA AAAATCTCAA
Exp1_Rep2_peak_1581,Exp1      5  3.67e-05       AAGG AGAAGAAGAA AGATGGAAAG
Exp1_Rep2_peak_5106,Exp1     89  3.67e-05 CGGCGGAGGA AGAAGAAGAA GAAGAAGGAG
Exp1_Rep2_peak_7682,Exp1     96  3.67e-05 GAAAGAATCT AGAAGAAGAA ACAAACAACA
Exp1_Rep2_peak_743,Exp1_    125  3.91e-05 TAACCAAATC AAAAGAAGGA ATAATTTGGA
Exp1_Rep2_peak_814,Exp1_    115  3.91e-05 GGGGTAAGAG AAAAGAAGGA CAGGCAGAGA
Exp1_Rep2_peak_4722,Exp1     63  4.67e-05 CTGCTTTGTC AGAAGAAAAA GAGCAAGTGG
Exp1_Rep2_peak_7988,Exp2     14  4.67e-05 GAAAATAAGG AAAAGAAAAA GACTATTCGT
Exp2_BA_peak_5326,Exp1_R    388  5.09e-05 TGGCAAGAAG AAAAGAAAGA AAAATGTCAA
Exp1_Rep1_peak_5494,Exp2    226  5.09e-05 AATTGTTATA AAAAGAAAGA AAGTGTAATT
Exp2_BA_peak_3930,Exp1_R     10  5.09e-05  GGAGGGTAC AAAAGAAAGA CCGAAGCTGA
Exp2_BA_peak_7996,Exp1_R     60  5.09e-05 CAAAATGTAA AAAAGAAAGA AAAAAGCTTA
Exp1_Rep1_peak_4010,Exp2     64  5.58e-05 AAAGGATAAC AAAACAAGAA AAAGCACAAA
Exp2_BA_peak_8886,Exp1_R    124  5.58e-05 GAGAGGAAGC AAAACAAGAA AGATGCTCTC
Exp1_Rep1_peak_2764,Exp1      2  5.85e-05          A AGAACAAGGA AGACAAAGAG
Exp1_Rep1_peak_10843,Exp    125  5.85e-05 TTCTTCCCAC AGAACAAGGA AGACATTTGT
Exp1_Rep2_peak_10154,Exp     40  7.20e-05 AATAATAAAA AGAACAAAAA ATTACTTGAG
Exp2_BA_peak_6605,Exp1_R    234  7.20e-05 GATTTAAAAG AAAACAAAAA GAATCCATGC
Exp1_Rep1_peak_1528,Exp2     56  7.20e-05 AACAAAACCA AAAACAAAAA ATTGTCCAGC
Exp1_Rep2_peak_141,Exp1_     60  7.20e-05 ACTCCATATT AAAACAAAAA CGCGGATAAA
Exp1_Rep1_peak_10564,Exp     74  7.20e-05 CTCATGTAAA AAAACAAAAA CATTCTTGAT
Exp1_Rep1_peak_374,Exp2_      3  7.20e-05         TG AAAACAAAAA ATCAAAATCC
Exp1_Rep1_peak_1622,Exp2     94  7.20e-05 TGGGAGGATA AGAAAACGAA TTGATGGGTT
Exp1_Rep1_peak_9280,Exp2     52  7.20e-05 TATAAAACCA AAAACAAAAA CAAATCCAAA
Exp2_BA_peak_1656,Exp1_R    198  7.20e-05 CGATGATGTT AAAAAACGAA GGATCTTGTG
Exp1_Rep2_peak_7642,Exp2    185  7.20e-05 ACAACATATC AAAACAAAAA CCAAGTGGAG
Exp1_Rep1_peak_10205,Exp    220  8.39e-05 ATCTGTCCAA AAGAAAAGAA TTTGTCACAT
Exp1_Rep1_peak_6325,Exp1     22  8.39e-05 TAGTTATATA AAAAAACGGA ATATTTGTCA
Exp1_Rep1_peak_5493,Exp1     33  9.49e-05 TAATCTTCAA AAAAAACAAA CAATATATGG
Exp2_BA_peak_5769,Exp1_R     27  9.49e-05 TAACAACAAT AAAAAACAAA ATTAGCTGAA
Exp1_Rep1_peak_8003,Exp1     54  9.49e-05 GCCAACAAGT AAAAAACAAA ATCAGAGTAT
Exp1_Rep1_peak_7892,Exp1     33  9.49e-05 TTATTTGTGG AGAAAACAAA TCGAATCTAG
Exp2_BA_peak_8776,Exp1_R     35  9.49e-05 AACAAAAGAG AAAAAACAAA CCCAACATGA
Exp1_Rep1_peak_5631,Exp2     56  9.49e-05 CTGCTAACTC AGGAAAAGGA CCACCTTCGG
Exp1_Rep2_peak_3775,Exp2     93  9.49e-05 GTTTCTATTA AAAAAACAAA TCTCTCAAGC
Exp1_Rep2_peak_2918,Exp2     93  9.49e-05 TTGTCTCTTT AGGAAAAGGA CACAGACAGA
Exp1_Rep2_peak_10153,Exp      2  1.07e-04          G AAGAAAAAAA CAAAATAGCA
Exp2_BA_peak_2795,Exp1_R     10  1.07e-04  CTCTCAGGT AAGAAAAAAA CGTAGATACA
Exp1_Rep1_peak_7580,Exp1    170  1.16e-04 ATGAGTCAGC AAGAAAAAGA GAGAGAGAGA
Exp1_Rep1_peak_7126,Exp1    133  1.16e-04 TAACACGGAG AGAGAAAGAA TCAGACAGCT
Exp1_Rep2_peak_7926,Exp2      4  1.24e-04        TAA AGAAGACGAA TAACTTTCAA
Exp1_Rep2_peak_11704,Exp    172  1.53e-04 CTAATGGAGG AGAGAAAAGA CATGTCAACA
Exp1_Rep2_peak_8723,Exp1    156  1.53e-04 ACACATCATT AAAGAAAAGA GTTTAACCAT
Exp1_Rep1_peak_709,Exp1_    167  1.53e-04 TCTCTTAACG ACAAAAAAAA ACTTGAAAAA
Exp1_Rep1_peak_4392,Exp2     76  1.53e-04 AAAAGAAGTA ACAAAAAAAA CGTGTTGCCG
Exp1_Rep2_peak_3764,Exp1    201  1.53e-04 CATAATCACA AAAAGACAAA ACAAATCCAA
Exp1_Rep2_peak_3202,Exp1    202  1.71e-04 GCGCCTCCGC AAAATAAGAA GAAATTGAAT
Exp2_BA_peak_1496,Exp1_R     15  1.71e-04 GAACATTTAA AGAAGACAGA CAAATCCCAC
Exp1_Rep1_peak_11353,Exp    182  1.71e-04 TACGAAAACG ACAAAAAAGA CACATCGACG
Exp2_BA_peak_7070,Exp1_R    193  1.71e-04 TATTAGTGGA AAAAGACAGA CTTCCTTAAT
Exp1_Rep2_peak_5030,Exp2     29  1.71e-04 AAGGTGCATT AAAATAAGAA ACAAATACTA
Exp1_Rep2_peak_1993,Exp1    254  2.04e-04 AAGTTGTAAG AAAATAAAAA           
Exp2_BA_peak_4094,Exp1_R     24  2.04e-04 AAACAAATTC AAAATAAAAA CTGCCATGTG
Exp1_Rep1_peak_11148,Exp    275  2.04e-04 CTATGGAAGG AAAGGAAGGA ACCTTCC   
Exp1_Rep2_peak_4367,Exp1    186  2.04e-04 ATAAATTGGA AAAATAAAAA GTGTACATAG
Exp2_BA_peak_9400,Exp1_R     46  2.04e-04 TGTGGTTGAC AAAATAAAAA CAACCTACAG
Exp1_Rep1_peak_7445,Exp1     92  2.04e-04 TAACAAAATA ACAAGAAGAA GATAACAAAT
Exp1_Rep2_peak_6398,Exp2     90  2.24e-04 GGTGTGGAAA AAAATAAAGA TGTGCCTTTC
Exp2_BA_peak_223,Exp1_Re     13  2.24e-04 TGGAATTGGG AGAATAAAGA CGAAAATCCA
Exp1_Rep2_peak_8330,Exp1      5  2.24e-04       AAAT AAAATAAAGA TCAACAATCC
Exp1_Rep2_peak_8211,Exp1     15  2.24e-04 TTTCGGCCAT AAAGGAAAAA GCCCAATTAA
Exp1_Rep2_peak_6676,Exp2    158  2.40e-04 TCCAACTTGT AAGACAAAAA TAAAAGCCAA
Exp1_Rep2_peak_9173,Exp1    100  2.49e-04 ACACGTGTAA AGGACAAAGA GAGCAAGTGT
Exp2_BA_peak_8070,Exp1_R    152  2.49e-04 TGGTCCGACC AGGACAAAGA CATTTCATCT
Exp1_Rep2_peak_9815,Exp2    290  2.57e-04 TTGATGTGGA AGGAAACAAA GT        
Exp1_Rep1_peak_2519,Exp2    199  2.94e-04 GCATATGACA AAAGAACAAA ATGTG     
Exp1_Rep2_peak_4076,Exp1    210  3.11e-04 AAATCAAAAA AGGGAAAAAA TGAAGAAATA
Exp2_BA_peak_4989,Exp1_R    207  3.11e-04 CCCATGCGTC ACAAAACAAA CAAAACGTTT
Exp2_BA_peak_4207,Exp1_R    170  3.11e-04 TGTAAGTTGC AGGGAAAAAA GAGTGAGACT
Exp2_BA_peak_369,Exp1_Re     32  3.11e-04 ATGAAAACAA ACAAAACAAA ACTGAGACGA
Exp1_Rep1_peak_520,Exp2_    103  3.11e-04 TGTTATATCC ACAAAACAAA TATCGAAATA
Exp2_BA_peak_7970,Exp1_R     83  3.11e-04 TACTAATAGG AAGGAAAAAA TAATTCGAGA
Exp1_Rep1_peak_1473,Exp2     42  3.28e-04 TGGGGATTGA AAAAAAAGGG ATTTTTTCGT
Exp1_Rep2_peak_6085,Exp1     35  3.28e-04 AAGTTGGCGG AGGGAAAAGA GGAGCGTGGA
Exp1_Rep2_peak_9998,Exp1     39  3.71e-04 TATTGCCAAT AGAAAAAAGG TAGCAATCAA
Exp1_Rep2_peak_9006,Exp2     39  3.97e-04 AAAAAGTTCA AGGGGAAGGA GCAGCCAGAG
Exp1_Rep1_peak_10211,Exp     28  3.97e-04 ACTACATTAT ACAGAAAAAA ATATAAGAAT
Exp1_Rep1_peak_9710,Exp1     93  4.22e-04 AAGAGACATG AAAAAGAGGA CAATGACCAA
Exp1_Rep1_peak_3990,Exp1    184  4.44e-04 AAATACATTG AAAAAGAAAA TACCAGTTTT
Exp1_Rep1_peak_2416,Exp1     92  5.05e-04 CAAAACGGAC AAAACAAGAG TAGCTGGAAA
--------------------------------------------------------------------------------

--------------------------------------------------------------------------------
	Motif 1 block diagrams
--------------------------------------------------------------------------------
SEQUENCE NAME            POSITION P-VALUE  MOTIF DIAGRAM
-------------            ----------------  -------------
Exp2_BA_peak_7033,Exp1_R          7.5e-06  16_[+1]_230
Exp2_BA_peak_1281,Exp1_R          7.5e-06  33_[+1]_211
Exp1_Rep1_peak_7173,Exp1          7.5e-06  153_[+1]_60
Exp1_Rep1_peak_5172,Exp2          7.5e-06  13_[+1]_194
Exp1_Rep2_peak_1770,Exp1          7.5e-06  212_[+1]_56
Exp2_BA_peak_6331,Exp1_R          7.5e-06  37_[+1]_206
Exp1_Rep1_peak_1269,Exp2          7.5e-06  29_[+1]_168
Exp1_Rep2_peak_577,Exp2_          7.5e-06  419_[+1]_29
Exp1_Rep2_peak_208,Exp1_          7.5e-06  14_[+1]_239
Exp1_Rep1_peak_7051,Exp2          7.5e-06  78_[+1]_207
Exp2_BA_peak_7472,Exp1_R          7.5e-06  71_[+1]_134
Exp2_BA_peak_281,Exp1_Re          7.5e-06  198_[+1]_45
Exp2_BA_peak_4396,Exp1_R          1.2e-05  7_[+1]_247
Exp2_BA_peak_3408,Exp1_R          1.2e-05  176_[+1]_65
Exp2_BA_peak_3857,Exp1_R          1.2e-05  40_[+1]_221
Exp2_BA_peak_8283,Exp1_R          1.2e-05  [+1]_234
Exp2_BA_peak_4820,Exp1_R          1.2e-05  209_[+1]_48
Exp1_Rep2_peak_5987,Exp2          1.2e-05  2_[+1]_219
Exp1_Rep1_peak_6337,Exp1          2.5e-05  226_[+1]_29
Exp1_Rep1_peak_8746,Exp1          2.5e-05  4_[+1]_217
Exp1_Rep1_peak_10456,Exp          2.5e-05  242_[+1]_75
Exp2_BA_peak_9190,Exp1_R          2.5e-05  39_[+1]_173
Exp1_Rep1_peak_7958,Exp1          2.5e-05  30_[+1]_190
Exp2_BA_peak_10008,Exp1_          2.5e-05  151_[+1]_204
Exp1_Rep1_peak_6960,Exp1          2.5e-05  231_[+1]_35
Exp2_BA_peak_4725,Exp1_R          2.5e-05  26_[+1]_219
Exp2_BA_peak_9364,Exp1_R          3.3e-05  24_[+1]_186
Exp2_BA_peak_5768,Exp1_R          3.7e-05  94_[+1]_157
Exp1_Rep1_peak_5897,Exp2          3.7e-05  48_[+1]_196
Exp1_Rep2_peak_1581,Exp1          3.7e-05  4_[+1]_270
Exp1_Rep2_peak_5106,Exp1          3.7e-05  88_[+1]_264
Exp1_Rep2_peak_7682,Exp1          3.7e-05  95_[+1]_153
Exp1_Rep2_peak_743,Exp1_          3.9e-05  124_[+1]_137
Exp1_Rep2_peak_814,Exp1_          3.9e-05  114_[+1]_97
Exp1_Rep2_peak_4722,Exp1          4.7e-05  62_[+1]_254
Exp1_Rep2_peak_7988,Exp2          4.7e-05  13_[+1]_279
Exp2_BA_peak_5326,Exp1_R          5.1e-05  387_[+1]_38
Exp1_Rep1_peak_5494,Exp2          5.1e-05  225_[+1]_12
Exp2_BA_peak_3930,Exp1_R          5.1e-05  9_[+1]_259
Exp2_BA_peak_7996,Exp1_R          5.1e-05  59_[+1]_177
Exp1_Rep1_peak_4010,Exp2          5.6e-05  63_[+1]_214
Exp2_BA_peak_8886,Exp1_R          5.6e-05  123_[+1]_81
Exp1_Rep1_peak_2764,Exp1          5.9e-05  1_[+1]_218
Exp1_Rep1_peak_10843,Exp          5.9e-05  124_[+1]_106
Exp1_Rep2_peak_10154,Exp          7.2e-05  39_[+1]_165
Exp2_BA_peak_6605,Exp1_R          7.2e-05  233_[+1]_104
Exp1_Rep1_peak_1528,Exp2          7.2e-05  55_[+1]_158
Exp1_Rep2_peak_141,Exp1_          7.2e-05  59_[+1]_150
Exp1_Rep1_peak_10564,Exp          7.2e-05  73_[+1]_147
Exp1_Rep1_peak_374,Exp2_          7.2e-05  2_[+1]_205
Exp1_Rep1_peak_1622,Exp2          7.2e-05  93_[+1]_113
Exp1_Rep1_peak_9280,Exp2          7.2e-05  51_[+1]_163
Exp2_BA_peak_1656,Exp1_R          7.2e-05  197_[+1]_40
Exp1_Rep2_peak_7642,Exp2          7.2e-05  184_[+1]_10
Exp1_Rep1_peak_10205,Exp          8.4e-05  219_[+1]_33
Exp1_Rep1_peak_6325,Exp1          8.4e-05  21_[+1]_201
Exp1_Rep1_peak_5493,Exp1          9.5e-05  32_[+1]_199
Exp2_BA_peak_5769,Exp1_R          9.5e-05  26_[+1]_360
Exp1_Rep1_peak_8003,Exp1          9.5e-05  53_[+1]_298
Exp1_Rep1_peak_7892,Exp1          9.5e-05  32_[+1]_160
Exp2_BA_peak_8776,Exp1_R          9.5e-05  34_[+1]_189
Exp1_Rep1_peak_5631,Exp2          9.5e-05  55_[+1]_177
Exp1_Rep2_peak_3775,Exp2          9.5e-05  92_[+1]_122
Exp1_Rep2_peak_2918,Exp2          9.5e-05  92_[+1]_128
Exp1_Rep2_peak_10153,Exp          0.00011  1_[+1]_244
Exp2_BA_peak_2795,Exp1_R          0.00011  9_[+1]_258
Exp1_Rep1_peak_7580,Exp1          0.00012  169_[+1]_84
Exp1_Rep1_peak_7126,Exp1          0.00012  132_[+1]_88
Exp1_Rep2_peak_7926,Exp2          0.00012  3_[+1]_276
Exp1_Rep2_peak_11704,Exp          0.00015  171_[+1]_135
Exp1_Rep2_peak_8723,Exp1          0.00015  155_[+1]_117
Exp1_Rep1_peak_709,Exp1_          0.00015  166_[+1]_99
Exp1_Rep1_peak_4392,Exp2          0.00015  75_[+1]_131
Exp1_Rep2_peak_3764,Exp1          0.00015  200_[+1]_49
Exp1_Rep2_peak_3202,Exp1          0.00017  201_[+1]_18
Exp2_BA_peak_1496,Exp1_R          0.00017  14_[+1]_246
Exp1_Rep1_peak_11353,Exp          0.00017  181_[+1]_39
Exp2_BA_peak_7070,Exp1_R          0.00017  192_[+1]_46
Exp1_Rep2_peak_5030,Exp2          0.00017  28_[+1]_224
Exp1_Rep2_peak_1993,Exp1           0.0002  253_[+1]
Exp2_BA_peak_4094,Exp1_R           0.0002  23_[+1]_224
Exp1_Rep1_peak_11148,Exp           0.0002  274_[+1]_7
Exp1_Rep2_peak_4367,Exp1           0.0002  185_[+1]_72
Exp2_BA_peak_9400,Exp1_R           0.0002  45_[+1]_198
Exp1_Rep1_peak_7445,Exp1           0.0002  91_[+1]_163
Exp1_Rep2_peak_6398,Exp2          0.00022  89_[+1]_134
Exp2_BA_peak_223,Exp1_Re          0.00022  12_[+1]_265
Exp1_Rep2_peak_8330,Exp1          0.00022  4_[+1]_203
Exp1_Rep2_peak_8211,Exp1          0.00022  14_[+1]_369
Exp1_Rep2_peak_6676,Exp2          0.00024  157_[+1]_86
Exp1_Rep2_peak_9173,Exp1          0.00025  99_[+1]_101
Exp2_BA_peak_8070,Exp1_R          0.00025  151_[+1]_75
Exp1_Rep2_peak_9815,Exp2          0.00026  289_[+1]_2
Exp1_Rep1_peak_2519,Exp2          0.00029  198_[+1]_5
Exp1_Rep2_peak_4076,Exp1          0.00031  209_[+1]_12
Exp2_BA_peak_4989,Exp1_R          0.00031  206_[+1]_28
Exp2_BA_peak_4207,Exp1_R          0.00031  169_[+1]_59
Exp2_BA_peak_369,Exp1_Re          0.00031  31_[+1]_168
Exp1_Rep1_peak_520,Exp2_          0.00031  102_[+1]_128
Exp2_BA_peak_7970,Exp1_R          0.00031  82_[+1]_123
Exp1_Rep1_peak_1473,Exp2          0.00033  41_[+1]_193
Exp1_Rep2_peak_6085,Exp1          0.00033  34_[+1]_179
Exp1_Rep2_peak_9998,Exp1          0.00037  38_[+1]_168
Exp1_Rep2_peak_9006,Exp2           0.0004  38_[+1]_209
Exp1_Rep1_peak_10211,Exp           0.0004  27_[+1]_242
Exp1_Rep1_peak_9710,Exp1          0.00042  92_[+1]_188
Exp1_Rep1_peak_3990,Exp1          0.00044  183_[+1]_47
Exp1_Rep1_peak_2416,Exp1          0.00051  91_[+1]_122
--------------------------------------------------------------------------------

--------------------------------------------------------------------------------
	Motif 1 in BLOCKS format
--------------------------------------------------------------------------------
BL   MOTIF 1 width=10 seqs=108
Exp2_BA_peak_7033,Exp1_R (   17) AAAAAAAGAA  1 
Exp2_BA_peak_1281,Exp1_R (   34) AGAAAAAGAA  1 
Exp1_Rep1_peak_7173,Exp1 (  154) AAAAAAAGAA  1 
Exp1_Rep1_peak_5172,Exp2 (   14) AGAAAAAGAA  1 
Exp1_Rep2_peak_1770,Exp1 (  213) AAAAAAAGAA  1 
Exp2_BA_peak_6331,Exp1_R (   38) AAAAAAAGAA  1 
Exp1_Rep1_peak_1269,Exp2 (   30) AAAAAAAGAA  1 
Exp1_Rep2_peak_577,Exp2_ (  420) AAAAAAAGAA  1 
Exp1_Rep2_peak_208,Exp1_ (   15) AGAAAAAGAA  1 
Exp1_Rep1_peak_7051,Exp2 (   79) AAAAAAAGAA  1 
Exp2_BA_peak_7472,Exp1_R (   72) AAAAAAAGAA  1 
Exp2_BA_peak_281,Exp1_Re (  199) AGAAAAAGAA  1 
Exp2_BA_peak_4396,Exp1_R (    8) AGAAAAAGGA  1 
Exp2_BA_peak_3408,Exp1_R (  177) AAAAAAAGGA  1 
Exp2_BA_peak_3857,Exp1_R (   41) AGAAAAAGGA  1 
Exp2_BA_peak_8283,Exp1_R (    1) AAAAAAAGGA  1 
Exp2_BA_peak_4820,Exp1_R (  210) AAAAAAAGGA  1 
Exp1_Rep2_peak_5987,Exp2 (    3) AGAAAAAGGA  1 
Exp1_Rep1_peak_6337,Exp1 (  227) AAAAAAAAAA  1 
Exp1_Rep1_peak_8746,Exp1 (    5) AGAAAAAAAA  1 
Exp1_Rep1_peak_10456,Exp (  243) AAAAAAAAAA  1 
Exp2_BA_peak_9190,Exp1_R (   40) AGAAAAAAAA  1 
Exp1_Rep1_peak_7958,Exp1 (   31) AAAAAAAAAA  1 
Exp2_BA_peak_10008,Exp1_ (  152) AGAAAAAAAA  1 
Exp1_Rep1_peak_6960,Exp1 (  232) AAAAAAAAAA  1 
Exp2_BA_peak_4725,Exp1_R (   27) AAAAAAAAAA  1 
Exp2_BA_peak_9364,Exp1_R (   25) AGAAAAAAGA  1 
Exp2_BA_peak_5768,Exp1_R (   95) AGAAGAAGAA  1 
Exp1_Rep1_peak_5897,Exp2 (   49) AGAAGAAGAA  1 
Exp1_Rep2_peak_1581,Exp1 (    5) AGAAGAAGAA  1 
Exp1_Rep2_peak_5106,Exp1 (   89) AGAAGAAGAA  1 
Exp1_Rep2_peak_7682,Exp1 (   96) AGAAGAAGAA  1 
Exp1_Rep2_peak_743,Exp1_ (  125) AAAAGAAGGA  1 
Exp1_Rep2_peak_814,Exp1_ (  115) AAAAGAAGGA  1 
Exp1_Rep2_peak_4722,Exp1 (   63) AGAAGAAAAA  1 
Exp1_Rep2_peak_7988,Exp2 (   14) AAAAGAAAAA  1 
Exp2_BA_peak_5326,Exp1_R (  388) AAAAGAAAGA  1 
Exp1_Rep1_peak_5494,Exp2 (  226) AAAAGAAAGA  1 
Exp2_BA_peak_3930,Exp1_R (   10) AAAAGAAAGA  1 
Exp2_BA_peak_7996,Exp1_R (   60) AAAAGAAAGA  1 
Exp1_Rep1_peak_4010,Exp2 (   64) AAAACAAGAA  1 
Exp2_BA_peak_8886,Exp1_R (  124) AAAACAAGAA  1 
Exp1_Rep1_peak_2764,Exp1 (    2) AGAACAAGGA  1 
Exp1_Rep1_peak_10843,Exp (  125) AGAACAAGGA  1 
Exp1_Rep2_peak_10154,Exp (   40) AGAACAAAAA  1 
Exp2_BA_peak_6605,Exp1_R (  234) AAAACAAAAA  1 
Exp1_Rep1_peak_1528,Exp2 (   56) AAAACAAAAA  1 
Exp1_Rep2_peak_141,Exp1_ (   60) AAAACAAAAA  1 
Exp1_Rep1_peak_10564,Exp (   74) AAAACAAAAA  1 
Exp1_Rep1_peak_374,Exp2_ (    3) AAAACAAAAA  1 
Exp1_Rep1_peak_1622,Exp2 (   94) AGAAAACGAA  1 
Exp1_Rep1_peak_9280,Exp2 (   52) AAAACAAAAA  1 
Exp2_BA_peak_1656,Exp1_R (  198) AAAAAACGAA  1 
Exp1_Rep2_peak_7642,Exp2 (  185) AAAACAAAAA  1 
Exp1_Rep1_peak_10205,Exp (  220) AAGAAAAGAA  1 
Exp1_Rep1_peak_6325,Exp1 (   22) AAAAAACGGA  1 
Exp1_Rep1_peak_5493,Exp1 (   33) AAAAAACAAA  1 
Exp2_BA_peak_5769,Exp1_R (   27) AAAAAACAAA  1 
Exp1_Rep1_peak_8003,Exp1 (   54) AAAAAACAAA  1 
Exp1_Rep1_peak_7892,Exp1 (   33) AGAAAACAAA  1 
Exp2_BA_peak_8776,Exp1_R (   35) AAAAAACAAA  1 
Exp1_Rep1_peak_5631,Exp2 (   56) AGGAAAAGGA  1 
Exp1_Rep2_peak_3775,Exp2 (   93) AAAAAACAAA  1 
Exp1_Rep2_peak_2918,Exp2 (   93) AGGAAAAGGA  1 
Exp1_Rep2_peak_10153,Exp (    2) AAGAAAAAAA  1 
Exp2_BA_peak_2795,Exp1_R (   10) AAGAAAAAAA  1 
Exp1_Rep1_peak_7580,Exp1 (  170) AAGAAAAAGA  1 
Exp1_Rep1_peak_7126,Exp1 (  133) AGAGAAAGAA  1 
Exp1_Rep2_peak_7926,Exp2 (    4) AGAAGACGAA  1 
Exp1_Rep2_peak_11704,Exp (  172) AGAGAAAAGA  1 
Exp1_Rep2_peak_8723,Exp1 (  156) AAAGAAAAGA  1 
Exp1_Rep1_peak_709,Exp1_ (  167) ACAAAAAAAA  1 
Exp1_Rep1_peak_4392,Exp2 (   76) ACAAAAAAAA  1 
Exp1_Rep2_peak_3764,Exp1 (  201) AAAAGACAAA  1 
Exp1_Rep2_peak_3202,Exp1 (  202) AAAATAAGAA  1 
Exp2_BA_peak_1496,Exp1_R (   15) AGAAGACAGA  1 
Exp1_Rep1_peak_11353,Exp (  182) ACAAAAAAGA  1 
Exp2_BA_peak_7070,Exp1_R (  193) AAAAGACAGA  1 
Exp1_Rep2_peak_5030,Exp2 (   29) AAAATAAGAA  1 
Exp1_Rep2_peak_1993,Exp1 (  254) AAAATAAAAA  1 
Exp2_BA_peak_4094,Exp1_R (   24) AAAATAAAAA  1 
Exp1_Rep1_peak_11148,Exp (  275) AAAGGAAGGA  1 
Exp1_Rep2_peak_4367,Exp1 (  186) AAAATAAAAA  1 
Exp2_BA_peak_9400,Exp1_R (   46) AAAATAAAAA  1 
Exp1_Rep1_peak_7445,Exp1 (   92) ACAAGAAGAA  1 
Exp1_Rep2_peak_6398,Exp2 (   90) AAAATAAAGA  1 
Exp2_BA_peak_223,Exp1_Re (   13) AGAATAAAGA  1 
Exp1_Rep2_peak_8330,Exp1 (    5) AAAATAAAGA  1 
Exp1_Rep2_peak_8211,Exp1 (   15) AAAGGAAAAA  1 
Exp1_Rep2_peak_6676,Exp2 (  158) AAGACAAAAA  1 
Exp1_Rep2_peak_9173,Exp1 (  100) AGGACAAAGA  1 
Exp2_BA_peak_8070,Exp1_R (  152) AGGACAAAGA  1 
Exp1_Rep2_peak_9815,Exp2 (  290) AGGAAACAAA  1 
Exp1_Rep1_peak_2519,Exp2 (  199) AAAGAACAAA  1 
Exp1_Rep2_peak_4076,Exp1 (  210) AGGGAAAAAA  1 
Exp2_BA_peak_4989,Exp1_R (  207) ACAAAACAAA  1 
Exp2_BA_peak_4207,Exp1_R (  170) AGGGAAAAAA  1 
Exp2_BA_peak_369,Exp1_Re (   32) ACAAAACAAA  1 
Exp1_Rep1_peak_520,Exp2_ (  103) ACAAAACAAA  1 
Exp2_BA_peak_7970,Exp1_R (   83) AAGGAAAAAA  1 
Exp1_Rep1_peak_1473,Exp2 (   42) AAAAAAAGGG  1 
Exp1_Rep2_peak_6085,Exp1 (   35) AGGGAAAAGA  1 
Exp1_Rep2_peak_9998,Exp1 (   39) AGAAAAAAGG  1 
Exp1_Rep2_peak_9006,Exp2 (   39) AGGGGAAGGA  1 
Exp1_Rep1_peak_10211,Exp (   28) ACAGAAAAAA  1 
Exp1_Rep1_peak_9710,Exp1 (   93) AAAAAGAGGA  1 
Exp1_Rep1_peak_3990,Exp1 (  184) AAAAAGAAAA  1 
Exp1_Rep1_peak_2416,Exp1 (   92) AAAACAAGAG  1 
//

--------------------------------------------------------------------------------

--------------------------------------------------------------------------------
	Motif 1 position-specific scoring matrix
--------------------------------------------------------------------------------
log-odds matrix: alength= 4 w= 10 n= 57886 bayes= 10.5873 E= 9.9e-014 
   169  -1340  -1340  -1340 
    91   -145     96  -1340 
   147  -1340    -34  -1340 
   152  -1340    -67  -1340 
    89    -45     14   -190 
   166  -1340   -325  -1340 
   142    -28  -1340  -1340 
    91  -1340    124  -1340 
   112  -1340     88  -1340 
   165  -1340   -266  -1340 
--------------------------------------------------------------------------------

--------------------------------------------------------------------------------
	Motif 1 position-specific probability matrix
--------------------------------------------------------------------------------
letter-probability matrix: alength= 4 w= 10 nsites= 108 E= 9.9e-014 
 1.000000  0.000000  0.000000  0.000000 
 0.583333  0.074074  0.342593  0.000000 
 0.861111  0.000000  0.138889  0.000000 
 0.888889  0.000000  0.111111  0.000000 
 0.574074  0.148148  0.194444  0.083333 
 0.981481  0.000000  0.018519  0.000000 
 0.833333  0.166667  0.000000  0.000000 
 0.583333  0.000000  0.416667  0.000000 
 0.675926  0.000000  0.324074  0.000000 
 0.972222  0.000000  0.027778  0.000000 
--------------------------------------------------------------------------------

--------------------------------------------------------------------------------
	Motif 1 regular expression
--------------------------------------------------------------------------------
A[AG]AAAAA[AG][AG]A
--------------------------------------------------------------------------------




Time  5.20 secs.

********************************************************************************


********************************************************************************
MOTIF  2 MEME	width =  10  sites =  60  llr = 571  E-value = 3.8e-019
********************************************************************************
--------------------------------------------------------------------------------
	Motif 2 Description
--------------------------------------------------------------------------------
Simplified        A  14:a:1:::4
pos.-specific     C  36a:a:::15
probability       G  5::::7:a41
matrix            T  1::::1a:51

         bits    2.5           
                 2.3     *  *  
                 2.0   * *  *  
                 1.8   ***  *  
Relative         1.5   *** **  
Entropy          1.3   *** **  
(13.7 bits)      1.0  *******  
                 0.8  ******** 
                 0.5 ********* 
                 0.3 **********
                 0.0 ----------

Multilevel           GCCACGTGTC
consensus            CA      GA
sequence                       
                               
--------------------------------------------------------------------------------

--------------------------------------------------------------------------------
	Motif 2 sites sorted by position p-value
--------------------------------------------------------------------------------
Sequence name             Start   P-value               Site 
-------------             ----- ---------            ----------
Exp2_BA_peak_4820,Exp1_R     65  1.55e-07 TCCAATGTTG GCCACGTGGC GGACAAAGTT
Exp1_Rep1_peak_11296,Exp    108  1.55e-07 GCCTCTGTCT GCCACGTGGC ATCTTCCTCC
Exp2_BA_peak_9229,Exp1_R    214  4.28e-07 GAAACCATCT GCCACGTGTC TTTCG     
Exp1_Rep2_peak_7098,Exp1    152  4.28e-07 CTGACAATTC GCCACGTGTC GGTCATCCTG
Exp1_Rep2_peak_9146,Exp2     63  4.28e-07 CATGTATTCC GCCACGTGTC GTGGTTTCAC
Exp1_Rep1_peak_4499,Exp1    134  8.43e-07 AAAACCACGC GCCACGTGGA AAACCAAGAA
Exp2_BA_peak_1325,Exp1_R    129  8.43e-07 ATCAGACAAC GCCACGTGGA CACCTTAGAC
Exp1_Rep2_peak_2888,Exp1    199  8.43e-07 GCTATAATTT CCCACGTGGC AA        
Exp1_Rep1_peak_11150,Exp     43  1.08e-06 ATGTGAGTAA GACACGTGGC ATAGTAGTGA
Exp2_BA_peak_4554,Exp1_R    134  1.08e-06 TGGTCAACTC GACACGTGGC ATCATCTCAA
Exp2_BA_peak_4234,Exp1_R     23  1.81e-06 ACAATAGAAA CCCACGTGTC ATCCACATGA
Exp1_Rep1_peak_3990,Exp1     94  1.81e-06 ACAGTTTTAC GCCACGTGTA AATAAAAATC
Exp2_BA_peak_9396,Exp1_R    124  1.81e-06 ATCTTCTTCC GCCACGTGTA TATATTCACA
Exp2_BA_peak_6704,Exp1_R     97  1.81e-06 CTGAGTAACT GCCACGTGTA AAACAAAATC
Exp1_Rep2_peak_267,Exp1_    135  2.09e-06 CTGGTCTTGT CCCACGTGGA ACATTTCACC
Exp1_Rep2_peak_6269,Exp1      4  2.51e-06        GGG GACACGTGTC GGATACAAAG
Exp1_Rep2_peak_2276,Exp1    156  2.51e-06 CAAATCCTTT GACACGTGTC GTTTTCTCAA
Exp1_Rep1_peak_2519,Exp2     90  3.28e-06 TGGTCCTGTC GACACGTGGA ACGAGATCAT
Exp1_Rep2_peak_9173,Exp1     89  5.82e-06 ATAAATGTCA GACACGTGTA AAGGACAAAG
Exp2_BA_peak_4205,Exp1_R     16  5.82e-06 CGGTAATTAT CACACGTGTC GTGTAGTCAA
Exp1_Rep2_peak_5987,Exp2     31  5.82e-06 CAAGAACATA ACCACGTGGC GTCATGTTGA
Exp1_Rep1_peak_10843,Exp    209  6.09e-06 CTACACGCTT TCCACGTGGC ATCCTCTCGT
Exp2_BA_peak_7970,Exp1_R    177  6.67e-06 CCGTTTATTT CCCACGTGGG CGATAACAAC
Exp2_BA_peak_4725,Exp1_R    108  6.67e-06 GCAACTCCAT CACACGTGGA CCATAAGGTC
Exp2_BA_peak_8283,Exp1_R    175  1.10e-05 TCTCACACAA CACACGTGTA GTATTTTAAT
Exp1_Rep1_peak_4392,Exp2     35  1.27e-05 AACTTGAATT GCCACTTGTC AGGGAATATT
Exp1_Rep1_peak_1419,Exp1    127  1.58e-05 AGCGTCGGTT GACACGTGTG GGAGGTCAAG
Exp1_Rep1_peak_520,Exp2_     45  1.58e-05 CCACGGAAAT CCCACGTGTT ACTCACAGCT
Exp1_Rep2_peak_9415,Exp2    114  1.72e-05 CATATGTCCC ACCACGTGTA CGGTCTGGAT
Exp2_BA_peak_9088,Exp1_R     67  2.39e-05 TCACAGCGTC GCCACTTGTA ACTTGTAATT
Exp2_BA_peak_3199,Exp1_R    137  2.39e-05 ACATATCAGT CCCACATGTC TGCCCAAAAC
Exp1_Rep2_peak_3764,Exp1    151  2.39e-05 TGTCATTGTC CCCACTTGTC GTTCAAACTT
Exp2_BA_peak_7798,Exp1_R     56  2.51e-05 TACCCACCAT TACACGTGTC AGTTCAAAAA
Exp1_Rep2_peak_8330,Exp1     26  2.51e-05 CAACAATCCG TACACGTGTC AACCTATCAA
Exp1_Rep2_peak_9431,Exp2     16  2.74e-05 AGATATGTTT AACACGTGGA CCAATGAAAG
Exp2_BA_peak_6633,Exp1_R     63  2.74e-05 GATCCCACAT CCCACATGGA TATGATTGGA
Exp1_Rep1_peak_927,Exp2_    151  2.74e-05 TTTATAACAT AACACGTGGA TCCCACTTCT
Exp1_Rep1_peak_8554,Exp1    153  2.74e-05 CATTAAAACG CACACGTGTG CTGTTGTGTA
Exp2_BA_peak_1194,Exp1_R    188  3.50e-05 GAAGTATTCA GACACTTGGA TGTCGTTTTA
Exp1_Rep1_peak_8980,Exp1    193  3.94e-05 GACTTCCACA AACACGTGTA CCAAGT    
Exp1_Rep1_peak_479,Exp2_     81  4.20e-05 TCGGTAGCGC GTCACGTGGC ATGTCTCGTC
Exp1_Rep1_peak_7050,Exp1    144  4.20e-05 CCCTTTTGTC GCCACATGCC ATGGCGTTGG
Exp1_Rep1_peak_8967,Exp1     56  4.28e-05 TAATGGAGAA GCCACATGGT CCAACTATGG
Exp1_Rep2_peak_11704,Exp    245  5.09e-05 CGTTGCTGAT GCCACCTGTC TCCTCCTCCT
Exp1_Rep1_peak_7323,Exp1     67  5.09e-05 ACCACATAGA ACCACTTGGC CTCAGTTACA
Exp1_Rep1_peak_1742,Exp1    143  5.75e-05 CGATTAGAGC CACACATGGA AATAATTAAA
Exp1_Rep2_peak_11019,Exp    156  5.75e-05 TTTGTCTTAT CCTACGTGGC CATTAAATCG
Exp1_Rep2_peak_9718,Exp2    128  5.75e-05 ATCATGGGAG TCCACGTGCA ATAAATGCCA
Exp2_BA_peak_4700,Exp1_R    163  6.00e-05 GATATGACAG TACACGTGGG CCAATGAGAA
Exp1_Rep2_peak_6880,Exp2    149  6.00e-05 TTTACTCTCA GCCACATGTT TAGATACGGC
Exp1_Rep2_peak_577,Exp2_    160  6.00e-05 TCACATGCAC GACACGTGCT TTGCGTGCTC
Exp1_Rep2_peak_8394,Exp1     55  6.00e-05 CTCTAAGCTC GCCACTTGTT TCCTCATTAC
Exp1_Rep2_peak_11407,Exp    116  6.52e-05 CACTACAACT CCCACGCGTC ACTCTCTCTT
Exp1_Rep1_peak_9489,Exp2    111  6.52e-05 TGCCTCAGCC CCCACATGCC ACATCGCGAC
Exp1_Rep1_peak_8003,Exp1    165  7.04e-05 TTATTATTGG TCCACTTGTC AGTGTGAATG
Exp1_Rep1_peak_7173,Exp1     64  7.92e-05 AGAAATCAGA CCCACATGTG ATTAGAACAT
Exp1_Rep2_peak_208,Exp1_    128  9.39e-05 GCAACTATTC CCCACTTGTT CTTTCTACTC
Exp1_Rep2_peak_10154,Exp    105  1.03e-04 CAAGAAGACG GCCACGTTGA AAGCTTTGAA
Exp1_Rep2_peak_4865,Exp1    195  1.03e-04 CCCACTTCTT AACACGTGCA CTTCTTCAT 
Exp1_Rep1_peak_6960,Exp1     70  1.09e-04 TCGACGATAA GATACGTGGA GTCATACCAC
--------------------------------------------------------------------------------

--------------------------------------------------------------------------------
	Motif 2 block diagrams
--------------------------------------------------------------------------------
SEQUENCE NAME            POSITION P-VALUE  MOTIF DIAGRAM
-------------            ----------------  -------------
Exp2_BA_peak_4820,Exp1_R          1.5e-07  64_[+2]_193
Exp1_Rep1_peak_11296,Exp          1.5e-07  107_[+2]_87
Exp2_BA_peak_9229,Exp1_R          4.3e-07  213_[+2]_5
Exp1_Rep2_peak_7098,Exp1          4.3e-07  151_[+2]_154
Exp1_Rep2_peak_9146,Exp2          4.3e-07  62_[+2]_223
Exp1_Rep1_peak_4499,Exp1          8.4e-07  133_[+2]_106
Exp2_BA_peak_1325,Exp1_R          8.4e-07  128_[+2]_126
Exp1_Rep2_peak_2888,Exp1          8.4e-07  198_[+2]_2
Exp1_Rep1_peak_11150,Exp          1.1e-06  42_[+2]_157
Exp2_BA_peak_4554,Exp1_R          1.1e-06  133_[+2]_139
Exp2_BA_peak_4234,Exp1_R          1.8e-06  22_[+2]_197
Exp1_Rep1_peak_3990,Exp1          1.8e-06  93_[+2]_137
Exp2_BA_peak_9396,Exp1_R          1.8e-06  123_[+2]_90
Exp2_BA_peak_6704,Exp1_R          1.8e-06  96_[+2]_140
Exp1_Rep2_peak_267,Exp1_          2.1e-06  134_[+2]_145
Exp1_Rep2_peak_6269,Exp1          2.5e-06  3_[+2]_211
Exp1_Rep2_peak_2276,Exp1          2.5e-06  155_[+2]_74
Exp1_Rep1_peak_2519,Exp2          3.3e-06  89_[+2]_114
Exp1_Rep2_peak_9173,Exp1          5.8e-06  88_[+2]_112
Exp2_BA_peak_4205,Exp1_R          5.8e-06  15_[+2]_267
Exp1_Rep2_peak_5987,Exp2          5.8e-06  30_[+2]_191
Exp1_Rep1_peak_10843,Exp          6.1e-06  208_[+2]_22
Exp2_BA_peak_7970,Exp1_R          6.7e-06  176_[+2]_29
Exp2_BA_peak_4725,Exp1_R          6.7e-06  107_[+2]_138
Exp2_BA_peak_8283,Exp1_R          1.1e-05  174_[+2]_60
Exp1_Rep1_peak_4392,Exp2          1.3e-05  34_[+2]_172
Exp1_Rep1_peak_1419,Exp1          1.6e-05  126_[+2]_82
Exp1_Rep1_peak_520,Exp2_          1.6e-05  44_[+2]_186
Exp1_Rep2_peak_9415,Exp2          1.7e-05  113_[+2]_135
Exp2_BA_peak_9088,Exp1_R          2.4e-05  66_[+2]_150
Exp2_BA_peak_3199,Exp1_R          2.4e-05  136_[+2]_105
Exp1_Rep2_peak_3764,Exp1          2.4e-05  150_[+2]_99
Exp2_BA_peak_7798,Exp1_R          2.5e-05  55_[+2]_185
Exp1_Rep2_peak_8330,Exp1          2.5e-05  25_[+2]_182
Exp1_Rep2_peak_9431,Exp2          2.7e-05  15_[+2]_242
Exp2_BA_peak_6633,Exp1_R          2.7e-05  62_[+2]_146
Exp1_Rep1_peak_927,Exp2_          2.7e-05  150_[+2]_62
Exp1_Rep1_peak_8554,Exp1          2.7e-05  152_[+2]_150
Exp2_BA_peak_1194,Exp1_R          3.5e-05  187_[+2]_33
Exp1_Rep1_peak_8980,Exp1          3.9e-05  192_[+2]_6
Exp1_Rep1_peak_479,Exp2_          4.2e-05  80_[+2]_144
Exp1_Rep1_peak_7050,Exp1          4.2e-05  143_[+2]_98
Exp1_Rep1_peak_8967,Exp1          4.3e-05  55_[+2]_173
Exp1_Rep2_peak_11704,Exp          5.1e-05  244_[+2]_62
Exp1_Rep1_peak_7323,Exp1          5.1e-05  66_[+2]_161
Exp1_Rep1_peak_1742,Exp1          5.8e-05  142_[+2]_80
Exp1_Rep2_peak_11019,Exp          5.8e-05  155_[+2]_157
Exp1_Rep2_peak_9718,Exp2          5.8e-05  127_[+2]_123
Exp2_BA_peak_4700,Exp1_R            6e-05  162_[+2]_68
Exp1_Rep2_peak_6880,Exp2            6e-05  148_[+2]_67
Exp1_Rep2_peak_577,Exp2_            6e-05  159_[+2]_289
Exp1_Rep2_peak_8394,Exp1            6e-05  54_[+2]_149
Exp1_Rep2_peak_11407,Exp          6.5e-05  115_[+2]_161
Exp1_Rep1_peak_9489,Exp2          6.5e-05  110_[+2]_112
Exp1_Rep1_peak_8003,Exp1            7e-05  164_[+2]_187
Exp1_Rep1_peak_7173,Exp1          7.9e-05  63_[+2]_150
Exp1_Rep2_peak_208,Exp1_          9.4e-05  127_[+2]_126
Exp1_Rep2_peak_10154,Exp           0.0001  104_[+2]_100
Exp1_Rep2_peak_4865,Exp1           0.0001  194_[+2]_9
Exp1_Rep1_peak_6960,Exp1          0.00011  69_[+2]_197
--------------------------------------------------------------------------------

--------------------------------------------------------------------------------
	Motif 2 in BLOCKS format
--------------------------------------------------------------------------------
BL   MOTIF 2 width=10 seqs=60
Exp2_BA_peak_4820,Exp1_R (   65) GCCACGTGGC  1 
Exp1_Rep1_peak_11296,Exp (  108) GCCACGTGGC  1 
Exp2_BA_peak_9229,Exp1_R (  214) GCCACGTGTC  1 
Exp1_Rep2_peak_7098,Exp1 (  152) GCCACGTGTC  1 
Exp1_Rep2_peak_9146,Exp2 (   63) GCCACGTGTC  1 
Exp1_Rep1_peak_4499,Exp1 (  134) GCCACGTGGA  1 
Exp2_BA_peak_1325,Exp1_R (  129) GCCACGTGGA  1 
Exp1_Rep2_peak_2888,Exp1 (  199) CCCACGTGGC  1 
Exp1_Rep1_peak_11150,Exp (   43) GACACGTGGC  1 
Exp2_BA_peak_4554,Exp1_R (  134) GACACGTGGC  1 
Exp2_BA_peak_4234,Exp1_R (   23) CCCACGTGTC  1 
Exp1_Rep1_peak_3990,Exp1 (   94) GCCACGTGTA  1 
Exp2_BA_peak_9396,Exp1_R (  124) GCCACGTGTA  1 
Exp2_BA_peak_6704,Exp1_R (   97) GCCACGTGTA  1 
Exp1_Rep2_peak_267,Exp1_ (  135) CCCACGTGGA  1 
Exp1_Rep2_peak_6269,Exp1 (    4) GACACGTGTC  1 
Exp1_Rep2_peak_2276,Exp1 (  156) GACACGTGTC  1 
Exp1_Rep1_peak_2519,Exp2 (   90) GACACGTGGA  1 
Exp1_Rep2_peak_9173,Exp1 (   89) GACACGTGTA  1 
Exp2_BA_peak_4205,Exp1_R (   16) CACACGTGTC  1 
Exp1_Rep2_peak_5987,Exp2 (   31) ACCACGTGGC  1 
Exp1_Rep1_peak_10843,Exp (  209) TCCACGTGGC  1 
Exp2_BA_peak_7970,Exp1_R (  177) CCCACGTGGG  1 
Exp2_BA_peak_4725,Exp1_R (  108) CACACGTGGA  1 
Exp2_BA_peak_8283,Exp1_R (  175) CACACGTGTA  1 
Exp1_Rep1_peak_4392,Exp2 (   35) GCCACTTGTC  1 
Exp1_Rep1_peak_1419,Exp1 (  127) GACACGTGTG  1 
Exp1_Rep1_peak_520,Exp2_ (   45) CCCACGTGTT  1 
Exp1_Rep2_peak_9415,Exp2 (  114) ACCACGTGTA  1 
Exp2_BA_peak_9088,Exp1_R (   67) GCCACTTGTA  1 
Exp2_BA_peak_3199,Exp1_R (  137) CCCACATGTC  1 
Exp1_Rep2_peak_3764,Exp1 (  151) CCCACTTGTC  1 
Exp2_BA_peak_7798,Exp1_R (   56) TACACGTGTC  1 
Exp1_Rep2_peak_8330,Exp1 (   26) TACACGTGTC  1 
Exp1_Rep2_peak_9431,Exp2 (   16) AACACGTGGA  1 
Exp2_BA_peak_6633,Exp1_R (   63) CCCACATGGA  1 
Exp1_Rep1_peak_927,Exp2_ (  151) AACACGTGGA  1 
Exp1_Rep1_peak_8554,Exp1 (  153) CACACGTGTG  1 
Exp2_BA_peak_1194,Exp1_R (  188) GACACTTGGA  1 
Exp1_Rep1_peak_8980,Exp1 (  193) AACACGTGTA  1 
Exp1_Rep1_peak_479,Exp2_ (   81) GTCACGTGGC  1 
Exp1_Rep1_peak_7050,Exp1 (  144) GCCACATGCC  1 
Exp1_Rep1_peak_8967,Exp1 (   56) GCCACATGGT  1 
Exp1_Rep2_peak_11704,Exp (  245) GCCACCTGTC  1 
Exp1_Rep1_peak_7323,Exp1 (   67) ACCACTTGGC  1 
Exp1_Rep1_peak_1742,Exp1 (  143) CACACATGGA  1 
Exp1_Rep2_peak_11019,Exp (  156) CCTACGTGGC  1 
Exp1_Rep2_peak_9718,Exp2 (  128) TCCACGTGCA  1 
Exp2_BA_peak_4700,Exp1_R (  163) TACACGTGGG  1 
Exp1_Rep2_peak_6880,Exp2 (  149) GCCACATGTT  1 
Exp1_Rep2_peak_577,Exp2_ (  160) GACACGTGCT  1 
Exp1_Rep2_peak_8394,Exp1 (   55) GCCACTTGTT  1 
Exp1_Rep2_peak_11407,Exp (  116) CCCACGCGTC  1 
Exp1_Rep1_peak_9489,Exp2 (  111) CCCACATGCC  1 
Exp1_Rep1_peak_8003,Exp1 (  165) TCCACTTGTC  1 
Exp1_Rep1_peak_7173,Exp1 (   64) CCCACATGTG  1 
Exp1_Rep2_peak_208,Exp1_ (  128) CCCACTTGTT  1 
Exp1_Rep2_peak_10154,Exp (  105) GCCACGTTGA  1 
Exp1_Rep2_peak_4865,Exp1 (  195) AACACGTGCA  1 
Exp1_Rep1_peak_6960,Exp1 (   70) GATACGTGGA  1 
//

--------------------------------------------------------------------------------

--------------------------------------------------------------------------------
	Motif 2 position-specific scoring matrix
--------------------------------------------------------------------------------
log-odds matrix: alength= 4 w= 10 n= 57886 bayes= 11.0129 E= 3.8e-019 
  -141     57    146   -163 
    24    161  -1255   -422 
 -1255    226  -1255   -322 
   169  -1255  -1255  -1255 
 -1255    230  -1255  -1255 
  -122   -360    202   -122 
 -1255   -360  -1255    166 
 -1255  -1255    248   -422 
 -1255   -128    124     69 
    24    115   -108   -163 
--------------------------------------------------------------------------------

--------------------------------------------------------------------------------
	Motif 2 position-specific probability matrix
--------------------------------------------------------------------------------
letter-probability matrix: alength= 4 w= 10 nsites= 60 E= 3.8e-019 
 0.116667  0.300000  0.483333  0.100000 
 0.366667  0.616667  0.000000  0.016667 
 0.000000  0.966667  0.000000  0.033333 
 1.000000  0.000000  0.000000  0.000000 
 0.000000  1.000000  0.000000  0.000000 
 0.133333  0.016667  0.716667  0.133333 
 0.000000  0.016667  0.000000  0.983333 
 0.000000  0.000000  0.983333  0.016667 
 0.000000  0.083333  0.416667  0.500000 
 0.366667  0.450000  0.083333  0.100000 
--------------------------------------------------------------------------------

--------------------------------------------------------------------------------
	Motif 2 regular expression
--------------------------------------------------------------------------------
[GC][CA]CACGTG[TG][CA]
--------------------------------------------------------------------------------




Time 55.94 secs.

********************************************************************************


********************************************************************************
MOTIF  3 MEME	width =  10  sites = 117  llr = 922  E-value = 2.4e-015
********************************************************************************
--------------------------------------------------------------------------------
	Motif 3 Description
--------------------------------------------------------------------------------
Simplified        A  ::::::::::
pos.-specific     C  :5142417:2
probability       G  :::2:1::::
matrix            T  a594859398

         bits    2.5           
                 2.3           
                 2.0           
                 1.8 *         
Relative         1.5 *         
Entropy          1.3 * *   *** 
(11.4 bits)      1.0 *** * ****
                 0.8 *** ******
                 0.5 **********
                 0.3 **********
                 0.0 ----------

Multilevel           TCTTTTTCTT
consensus             T C C T C
sequence                       
                               
--------------------------------------------------------------------------------

--------------------------------------------------------------------------------
	Motif 3 sites sorted by position p-value
--------------------------------------------------------------------------------
Sequence name             Start   P-value               Site 
-------------             ----- ---------            ----------
Exp1_Rep2_peak_11407,Exp    201  1.51e-06 TCTCTCTCTC TCTCTCTCTT TTGCCGCAGC
Exp1_Rep2_peak_9431,Exp2    155  1.51e-06 TTCTTTGTCT TCTCTCTCTT TCCTCCTTCG
Exp2_BA_peak_4094,Exp1_R    135  1.51e-06 CATCTCCCTC TCTCTCTCTT TTTCTCTCTC
Exp2_BA_peak_3408,Exp1_R     17  1.51e-06 TTTCTTTCTC TCTCTCTCTT AGTAGGATAT
Exp2_BA_peak_8388,Exp1_R    151  1.51e-06 TGACCAACGA TCTCTCTCTT AAACCTGACT
Exp1_Rep2_peak_6085,Exp1    157  1.51e-06 CGACAACACT TCTCTCTCTT CCTTTAACCC
Exp2_BA_peak_8886,Exp1_R    204  3.83e-06 CATTACTCTT TCTCTTTCTT C         
Exp2_BA_peak_8989,Exp1_R     41  3.83e-06 ATTGAAGCTG TCTCTTTCTT TCACCATCAC
Exp2_BA_peak_7070,Exp1_R     93  3.83e-06 TCTGATTTAT TCTCTTTCTT CTACAAAAAA
Exp2_BA_peak_8559,Exp1_R    153  6.15e-06 AAGTCAGTGC TCTTTCTCTT TGTGGGGTTT
Exp1_Rep1_peak_7958,Exp1    218  6.15e-06 TGGACCACAC TCTTTCTCTT CTT       
Exp1_Rep1_peak_2764,Exp1    159  1.20e-05 TCTGTCTTTG TCTTTTTCTT AAAGCCTTTT
Exp1_Rep1_peak_10354,Exp    144  1.20e-05 CACCTCTATT TTTCTCTCTT ATTATGTTAT
Exp2_BA_peak_8283,Exp1_R    128  1.20e-05 TACGCACCTG TCTTTTTCTT GTAAGTATCG
Exp1_Rep2_peak_10101,Exp    197  1.20e-05 ATCGCAATTA TTTCTCTCTT TAAGCGTTGA
Exp2_BA_peak_3930,Exp1_R    131  1.20e-05 TCCTCATTTT TCTTTTTCTT TTTGGGGCTA
Exp1_Rep1_peak_374,Exp2_    206  1.20e-05 TCACTCTCTC TTTCTCTCTT CG        
Exp1_Rep2_peak_2276,Exp1     54  1.20e-05 TATTATTCGG TTTCTCTCTT CAGGTCCGAC
Exp1_Rep1_peak_9280,Exp2    138  1.20e-05 ACACTGCGAC TCTTTTTCTT CGCTTCCTCT
Exp2_BA_peak_7642,Exp1_R    181  1.66e-05 TTTCTCAGAC TCTCTCTCTC TCGGCTTGGG
Exp2_BA_peak_9228,Exp1_R    217  1.66e-05 TGACCCGACT TTTCTTTCTT TAAACAACTT
Exp1_Rep1_peak_9710,Exp1    204  1.66e-05 TTTTTTCTCC TCTCTCTCTC TCTCTCAAAA
Exp1_Rep2_peak_267,Exp1_    200  1.66e-05 ATTACGTAAC TTTCTTTCTT TCTATGAATA
Exp1_Rep2_peak_1581,Exp1    173  1.66e-05 CACGAACACT TCTCTCTCTC TCTCCTCACT
Exp1_Rep1_peak_1622,Exp2    156  1.66e-05 TCTTGACCAC TCTCTCTCTC TCCCTTTCTC
Exp1_Rep1_peak_7051,Exp2    137  1.66e-05 AATGTTTTGC TCTCTCTCTC TCTCTCTCTC
Exp1_Rep2_peak_4380,Exp2    201  1.81e-05 AACTTGTAAC TCTCTTTCTC TATTTCTTCT
Exp1_Rep1_peak_10565,Exp    166  1.81e-05 TCTCTCCCCC TCTCTTTCTC CTCTCCTCTC
Exp1_Rep1_peak_10564,Exp    188  1.81e-05 AGTTGCTCCC TCTCTTTCTC TCCCACTCCA
Exp2_BA_peak_10009,Exp1_    143  1.81e-05 ACGGCTAAGA TCTCTTTCTC CCCCCATACT
Exp2_BA_peak_223,Exp1_Re    174  2.60e-05 TTCGTTTCGA TTTTTCTCTT TTGGTTCTGT
Exp2_BA_peak_5769,Exp1_R    330  2.60e-05 TAACACGGCA TCTCCCTCTT TAGTAAGCTT
Exp2_BA_peak_1496,Exp1_R    193  2.60e-05 CAGCTTTCTT TTTTTCTCTT TAACAATTTT
Exp2_BA_peak_9726,Exp1_R    180  3.58e-05 CATAATTGTT TTTTTTTCTT CAATTCAACA
Exp1_Rep1_peak_709,Exp1_     96  3.58e-05 CTTCTTCTTC TCTCCTTCTT TCCGAAATGT
Exp1_Rep1_peak_1943,Exp2    226  3.58e-05 TTCACAGCGA TCTCCTTCTT CCACATCGCA
Exp2_BA_peak_6633,Exp1_R    168  3.58e-05 TTTAGTCCTT TTTTTTTCTT CATTATTTCA
Exp1_Rep2_peak_7988,Exp2    142  3.58e-05 TCTTTCCTTT TTTTTTTCTT TAATACGGAA
Exp1_Rep2_peak_2888,Exp1     88  4.78e-05 GTGAACTTTG TTTGTCTCTT ATCGAGGAAC
Exp1_Rep1_peak_11353,Exp     45  4.78e-05 GTTTCGTGAT TTTGTCTCTT TAACTTCTTA
Exp1_Rep2_peak_2918,Exp2     82  4.78e-05 AAGGGGCAAA TTTGTCTCTT TAGGAAAAGG
Exp1_Rep2_peak_7491,Exp1    172  4.78e-05 GTGGTTAAGG TTTGTCTCTT GAGCACATGT
Exp1_Rep2_peak_11704,Exp    298  6.12e-05 CAAACCAATT TCTTCTTCTT CTTCTCTCA 
Exp1_Rep1_peak_496,Exp1_     72  6.12e-05 TGAATATCTT TCTTTGTCTT TTGTTACGGG
Exp2_BA_peak_5299,Exp1_R    159  6.12e-05 TACACAACTC TCTTCTTCTT CTTCTATAAA
Exp1_Rep1_peak_5631,Exp2    233  6.12e-05 TCATCTTCTT TCTTCTTCTT           
Exp1_Rep1_peak_8967,Exp1      4  6.12e-05        TTA TCTTTGTCTT CTTGCTTAAA
Exp1_Rep1_peak_7323,Exp1     26  6.12e-05 GATAATTACT TTTGTTTCTT ACAAACTTAA
Exp1_Rep2_peak_8211,Exp1    250  6.12e-05 AATACCTTTG TTTCCCTCTT CTTCTCCTTC
Exp1_Rep2_peak_7926,Exp2    148  6.98e-05 CTACACATCA TTTCCTTCTT GATTTGACTC
Exp1_Rep2_peak_7682,Exp1    193  6.98e-05 CTCACATCAC TTTTTCTCTC ATTCTCAATT
Exp2_BA_peak_4989,Exp1_R     15  7.52e-05 AACTTAAGAT TCTCTGTCTC TATCAACTAA
Exp2_BA_peak_4205,Exp1_R     90  7.52e-05 TCAATTAGCG TTTTTTTCTC ATTGGTGGGT
Exp1_Rep2_peak_6398,Exp2     14  9.44e-05 TGATTTCTTT TCTTTTTTTT GAGAAATGTG
Exp1_Rep2_peak_9998,Exp1     62  9.44e-05 CAATCAATGA TCTCTCCCTT GGAATCAACA
Exp1_Rep2_peak_814,Exp1_      5  9.44e-05       AGTG TCTTTTTTTT TTTTTTGGCT
Exp1_Rep1_peak_7126,Exp1     68  9.44e-05 GTCCCACTAT TTTTCCTCTT AACTAAAAGG
Exp2_BA_peak_6605,Exp1_R      2  1.13e-04          C TTTTCTTCTT GTAGCGACGA
Exp2_BA_peak_543,Exp1_Re    156  1.13e-04 GTCCACTATT TTTCTTTTTT CATTTTCCTT
Exp2_BA_peak_5517,Exp1_R     24  1.13e-04 AAAACTATCT TCTCTCTTTC ACACTTCTTC
Exp2_BA_peak_3940,Exp1_R     12  1.13e-04 TATTTTGAGA TTTTTGTCTT TTATACTTGG
Exp1_Rep1_peak_6922,Exp1     36  1.13e-04 ACAATAGAGA TTTCTTTTTT TGCTAATTAT
Exp2_BA_peak_9190,Exp1_R    193  1.22e-04 TTAAGTTTTA TCTTCTTCTC CTTCATCATT
Exp2_BA_peak_1048,Exp1_R    242  1.28e-04 ATTTGCAAAT TCTGTCTTTT ACTTTTATTT
Exp1_Rep1_peak_8746,Exp1    172  1.41e-04 GTCGATATCA TTTTTCTTTT TGTCTGATAA
Exp2_BA_peak_9229,Exp1_R     12  1.41e-04 GTCCCTCTGG TTTTTCTTTT GGAACTGAGT
Exp1_Rep2_peak_3058,Exp2    209  1.41e-04 TTATTACTAT TTTTTCTTTT GTCATTAGTA
Exp2_BA_peak_10008,Exp1_    332  1.41e-04 TGGTTCATGT TCTTTCCCTT ATACGCATGT
Exp1_Rep2_peak_208,Exp1_     43  1.41e-04 TCTTTATTGT TTTGCCTCTT TGGCTCTTTC
Exp2_BA_peak_7033,Exp1_R    184  1.67e-04 CCTTGTTTGG TTTTTTTTTT GTTTATTTTG
Exp1_Rep2_peak_8723,Exp1    216  1.67e-04 CGCGACCCAA TTTTTTTTTT TTTGTGGCGT
Exp1_Rep1_peak_10456,Exp    233  1.67e-04 TTAATGACCC TCTCCTTTTT AAAAAAAAAA
Exp1_Rep1_peak_4410,Exp2    254  1.67e-04 ATATACTTCT TCTTTTCCTT CCGACCCGGC
Exp1_Rep1_peak_7892,Exp1    166  1.67e-04 TACTAGCAGG TCTTTTCCTT GTTCTGTACG
Exp1_Rep2_peak_5106,Exp1      8  1.67e-04    CTCGCGG TCTCTCTCGT CTCGACGAGC
Exp2_BA_peak_7995,Exp1_R    223  1.67e-04 TTTCATATAA TTTTTTTTTT TTTTTTGGGT
Exp1_Rep1_peak_9489,Exp2     56  1.67e-04 ACACGTACTT TCTCCTTTTT CACATTTCTA
Exp1_Rep1_peak_7050,Exp1    181  1.67e-04 CTGGATAGCC TTTTTTTTTT TTTCGTTTGG
Exp1_Rep1_peak_6337,Exp1    148  1.83e-04 ACGTGTTTCC TCCTTCTCTT TTAAACTGAT
Exp1_Rep2_peak_577,Exp2_    194  1.83e-04 CTTCATTAAA TTTCTCTTTC GTTTGGGTCT
Exp1_Rep1_peak_10949,Exp    238  1.83e-04 TGTTACCGGT TTTCTCTTTC CCACCACCGT
Exp1_Rep1_peak_274,Exp1_    103  1.96e-04 TACTCCGACA TCCTTTTCTT GCGGCCCACA
Exp2_BA_peak_5326,Exp1_R     84  1.96e-04 AAAGATATTT TTTTTGTCTC ATTGAAAAAG
Exp2_BA_peak_1845,Exp1_R    153  1.96e-04 AAGGTCAGTC TTTTTGTCTC CTCCTTCGAC
Exp2_BA_peak_9679,Exp1_R    220  2.05e-04 ATGTTTAGGA TTCCTTTCTT TATATAGCCA
Exp1_Rep2_peak_4356,Exp1    193  2.28e-04 TTCAGCATCA TCTTCTTTTT TTGAAATCAA
Exp2_BA_peak_369,Exp1_Re    125  2.28e-04 GCATGACATG TTTGTTTTTT AGGTGGATTT
Exp1_Rep1_peak_10211,Exp    117  2.28e-04 CCATTGAATT TCTTCTTTTT GCACCATACA
Exp2_BA_peak_6331,Exp1_R    185  2.28e-04 GAATATGTTT TTTGTTTTTT TCTGTTATGA
Exp2_BA_peak_9400,Exp1_R    132  2.28e-04 ATAATTGTAT TTTGTTTTTT GGGAAACAAA
Exp1_Rep2_peak_7620,Exp2    224  2.28e-04 AATATTAAAA TTTGTTTTTT TTGTTTTGGT
Exp1_Rep2_peak_3316,Exp1     45  2.28e-04 TATACGTTTA TTTGTTTTTT TCTGATACAA
Exp1_Rep1_peak_1207,Exp1    219  2.28e-04 ATGTCGTTGC TCTTTGTTTT AGTCAAATGT
Exp1_Rep2_peak_6508,Exp1    240  2.54e-04 TCGTGTAATC TTTTTTCCTT TAAGATAGGG
Exp2_BA_peak_7798,Exp1_R    241  2.54e-04 GATTTTTTAA TTTCCTTTTT           
Exp2_BA_peak_7410,Exp1_R    132  2.54e-04 GATTTTCTTG TCTTTTTCGT TTCATACTTT
Exp2_BA_peak_9088,Exp1_R    178  2.76e-04 AAGAATGACC TTTCTTTCGT ATATTAACCC
Exp1_Rep1_peak_11296,Exp    176  2.76e-04 TTCGCCACGT TCTCTCTCCT TATTTCCCGA
Exp2_BA_peak_9396,Exp1_R     10  2.89e-04  TTTAAGTTA TTCTTTTCTT AAATTTGGTT
Exp2_BA_peak_5167,Exp1_R    126  3.33e-04 CCTACGACTT TTTTTGTTTT CGCCTTTTGG
Exp2_BA_peak_1325,Exp1_R     72  3.33e-04 AAATTCCAAT TCTGTCCCTC CCTTTCCCCA
Exp1_Rep1_peak_9954,Exp2    124  3.59e-04 ACTCTCAGTA TCTCTGTCGT CTTCTCTTTA
Exp1_Rep2_peak_6880,Exp2     29  3.59e-04 ATTGTGTGTC TCTTCTTTTC TCGAACACTA
Exp1_Rep2_peak_7098,Exp1    208  3.59e-04 CGAATCATTA TCTCCCCCTC GCTCACTCGC
Exp1_Rep2_peak_8088,Exp1     23  3.59e-04 GCGTAGTTCT TCTTTGTTTC AACTTAAGAT
Exp1_Rep1_peak_1419,Exp1    168  3.83e-04 CGAGACCCAC TTCGTTTCTT CTCATTGGTC
Exp1_Rep2_peak_4865,Exp1    124  3.83e-04 GTGTGGCCCC TCTCCTCCTC CCTCCACTCT
Exp1_Rep2_peak_11019,Exp    248  3.98e-04 GATGGTGTGG TCCGTTTCTC TTTAAAGGTT
Exp1_Rep1_peak_11355,Exp     63  3.98e-04 AACGTCATTG TCTCTCTCCC AATCGAAACA
Exp1_Rep1_peak_11150,Exp    180  4.23e-04 GGGCTCTCTC TTTGCTTTTT GTCGTTTTGT
Exp1_Rep1_peak_927,Exp2_    168  4.23e-04 GGATCCCACT TCTGCTCCTT CCTCCACAAC
Exp1_Rep2_peak_3775,Exp2    194  4.23e-04 TTCTCAGGGT TTTGTGTTTT TTGGATGGTG
Exp2_BA_peak_1194,Exp1_R    216  4.52e-04 TATCAAGTAT TCTTTGTCGT TTTGT     
Exp2_BA_peak_9681,Exp1_R    250  4.85e-04 GACGTATTAC TCTCTTCTTC CTCCACTTTA
Exp1_Rep1_peak_30,Exp1_R    175  5.09e-04 GAGCGTTACT TCCTCCTCTC CATCTTCGGT
Exp1_Rep2_peak_5987,Exp2    160  5.59e-04 CCACTTTCAG TTCCTGTCTC TATCTTAATT
Exp1_Rep1_peak_3990,Exp1    163  6.80e-04 TAAAATCTTG TTTTTTTCCC AAAATACATT
--------------------------------------------------------------------------------

--------------------------------------------------------------------------------
	Motif 3 block diagrams
--------------------------------------------------------------------------------
SEQUENCE NAME            POSITION P-VALUE  MOTIF DIAGRAM
-------------            ----------------  -------------
Exp1_Rep2_peak_11407,Exp          1.5e-06  200_[+3]_76
Exp1_Rep2_peak_9431,Exp2          1.5e-06  154_[+3]_103
Exp2_BA_peak_4094,Exp1_R          1.5e-06  134_[+3]_113
Exp2_BA_peak_3408,Exp1_R          1.5e-06  16_[+3]_225
Exp2_BA_peak_8388,Exp1_R          1.5e-06  150_[+3]_138
Exp1_Rep2_peak_6085,Exp1          1.5e-06  156_[+3]_57
Exp2_BA_peak_8886,Exp1_R          3.8e-06  203_[+3]_1
Exp2_BA_peak_8989,Exp1_R          3.8e-06  40_[+3]_229
Exp2_BA_peak_7070,Exp1_R          3.8e-06  92_[+3]_146
Exp2_BA_peak_8559,Exp1_R          6.1e-06  152_[+3]_55
Exp1_Rep1_peak_7958,Exp1          6.1e-06  217_[+3]_3
Exp1_Rep1_peak_2764,Exp1          1.2e-05  158_[+3]_61
Exp1_Rep1_peak_10354,Exp          1.2e-05  143_[+3]_165
Exp2_BA_peak_8283,Exp1_R          1.2e-05  127_[+3]_107
Exp1_Rep2_peak_10101,Exp          1.2e-05  196_[+3]_15
Exp2_BA_peak_3930,Exp1_R          1.2e-05  130_[+3]_138
Exp1_Rep1_peak_374,Exp2_          1.2e-05  205_[+3]_2
Exp1_Rep2_peak_2276,Exp1          1.2e-05  53_[+3]_176
Exp1_Rep1_peak_9280,Exp2          1.2e-05  137_[+3]_77
Exp2_BA_peak_7642,Exp1_R          1.7e-05  180_[+3]_35
Exp2_BA_peak_9228,Exp1_R          1.7e-05  216_[+3]_34
Exp1_Rep1_peak_9710,Exp1          1.7e-05  203_[+3]_77
Exp1_Rep2_peak_267,Exp1_          1.7e-05  199_[+3]_80
Exp1_Rep2_peak_1581,Exp1          1.7e-05  172_[+3]_102
Exp1_Rep1_peak_1622,Exp2          1.7e-05  155_[+3]_51
Exp1_Rep1_peak_7051,Exp2          1.7e-05  136_[+3]_149
Exp1_Rep2_peak_4380,Exp2          1.8e-05  200_[+3]_49
Exp1_Rep1_peak_10565,Exp          1.8e-05  165_[+3]_44
Exp1_Rep1_peak_10564,Exp          1.8e-05  187_[+3]_33
Exp2_BA_peak_10009,Exp1_          1.8e-05  142_[+3]_117
Exp2_BA_peak_223,Exp1_Re          2.6e-05  173_[+3]_104
Exp2_BA_peak_5769,Exp1_R          2.6e-05  329_[+3]_57
Exp2_BA_peak_1496,Exp1_R          2.6e-05  192_[+3]_68
Exp2_BA_peak_9726,Exp1_R          3.6e-05  179_[+3]_55
Exp1_Rep1_peak_709,Exp1_          3.6e-05  95_[+3]_170
Exp1_Rep1_peak_1943,Exp2          3.6e-05  225_[+3]_11
Exp2_BA_peak_6633,Exp1_R          3.6e-05  167_[+3]_41
Exp1_Rep2_peak_7988,Exp2          3.6e-05  141_[+3]_151
Exp1_Rep2_peak_2888,Exp1          4.8e-05  87_[+3]_113
Exp1_Rep1_peak_11353,Exp          4.8e-05  44_[+3]_176
Exp1_Rep2_peak_2918,Exp2          4.8e-05  81_[+3]_139
Exp1_Rep2_peak_7491,Exp1          4.8e-05  171_[+3]_72
Exp1_Rep2_peak_11704,Exp          6.1e-05  297_[+3]_9
Exp1_Rep1_peak_496,Exp1_          6.1e-05  71_[+3]_192
Exp2_BA_peak_5299,Exp1_R          6.1e-05  158_[+3]_62
Exp1_Rep1_peak_5631,Exp2          6.1e-05  232_[+3]
Exp1_Rep1_peak_8967,Exp1          6.1e-05  3_[+3]_225
Exp1_Rep1_peak_7323,Exp1          6.1e-05  25_[+3]_202
Exp1_Rep2_peak_8211,Exp1          6.1e-05  249_[+3]_134
Exp1_Rep2_peak_7926,Exp2            7e-05  147_[+3]_132
Exp1_Rep2_peak_7682,Exp1            7e-05  192_[+3]_56
Exp2_BA_peak_4989,Exp1_R          7.5e-05  14_[+3]_220
Exp2_BA_peak_4205,Exp1_R          7.5e-05  89_[+3]_193
Exp1_Rep2_peak_6398,Exp2          9.4e-05  13_[+3]_210
Exp1_Rep2_peak_9998,Exp1          9.4e-05  61_[+3]_145
Exp1_Rep2_peak_814,Exp1_          9.4e-05  4_[+3]_207
Exp1_Rep1_peak_7126,Exp1          9.4e-05  67_[+3]_153
Exp2_BA_peak_6605,Exp1_R          0.00011  1_[+3]_336
Exp2_BA_peak_543,Exp1_Re          0.00011  155_[+3]_114
Exp2_BA_peak_5517,Exp1_R          0.00011  23_[+3]_193
Exp2_BA_peak_3940,Exp1_R          0.00011  11_[+3]_202
Exp1_Rep1_peak_6922,Exp1          0.00011  35_[+3]_187
Exp2_BA_peak_9190,Exp1_R          0.00012  192_[+3]_20
Exp2_BA_peak_1048,Exp1_R          0.00013  241_[+3]_32
Exp1_Rep1_peak_8746,Exp1          0.00014  171_[+3]_50
Exp2_BA_peak_9229,Exp1_R          0.00014  11_[+3]_207
Exp1_Rep2_peak_3058,Exp2          0.00014  208_[+3]_25
Exp2_BA_peak_10008,Exp1_          0.00014  331_[+3]_24
Exp1_Rep2_peak_208,Exp1_          0.00014  42_[+3]_211
Exp2_BA_peak_7033,Exp1_R          0.00017  183_[+3]_63
Exp1_Rep2_peak_8723,Exp1          0.00017  215_[+3]_57
Exp1_Rep1_peak_10456,Exp          0.00017  232_[+3]_85
Exp1_Rep1_peak_4410,Exp2          0.00017  253_[+3]_23
Exp1_Rep1_peak_7892,Exp1          0.00017  165_[+3]_27
Exp1_Rep2_peak_5106,Exp1          0.00017  7_[+3]_345
Exp2_BA_peak_7995,Exp1_R          0.00017  222_[+3]_12
Exp1_Rep1_peak_9489,Exp2          0.00017  55_[+3]_167
Exp1_Rep1_peak_7050,Exp1          0.00017  180_[+3]_61
Exp1_Rep1_peak_6337,Exp1          0.00018  147_[+3]_108
Exp1_Rep2_peak_577,Exp2_          0.00018  193_[+3]_255
Exp1_Rep1_peak_10949,Exp          0.00018  237_[+3]_29
Exp1_Rep1_peak_274,Exp1_           0.0002  102_[+3]_101
Exp2_BA_peak_5326,Exp1_R           0.0002  83_[+3]_342
Exp2_BA_peak_1845,Exp1_R           0.0002  152_[+3]_47
Exp2_BA_peak_9679,Exp1_R          0.00021  219_[+3]_15
Exp1_Rep2_peak_4356,Exp1          0.00023  192_[+3]_53
Exp2_BA_peak_369,Exp1_Re          0.00023  124_[+3]_75
Exp1_Rep1_peak_10211,Exp          0.00023  116_[+3]_153
Exp2_BA_peak_6331,Exp1_R          0.00023  184_[+3]_59
Exp2_BA_peak_9400,Exp1_R          0.00023  131_[+3]_112
Exp1_Rep2_peak_7620,Exp2          0.00023  223_[+3]_24
Exp1_Rep2_peak_3316,Exp1          0.00023  44_[+3]_265
Exp1_Rep1_peak_1207,Exp1          0.00023  218_[+3]_60
Exp1_Rep2_peak_6508,Exp1          0.00025  239_[+3]_29
Exp2_BA_peak_7798,Exp1_R          0.00025  240_[+3]
Exp2_BA_peak_7410,Exp1_R          0.00025  131_[+3]_126
Exp2_BA_peak_9088,Exp1_R          0.00028  177_[+3]_39
Exp1_Rep1_peak_11296,Exp          0.00028  175_[+3]_19
Exp2_BA_peak_9396,Exp1_R          0.00029  9_[+3]_204
Exp2_BA_peak_5167,Exp1_R          0.00033  125_[+3]_201
Exp2_BA_peak_1325,Exp1_R          0.00033  71_[+3]_183
Exp1_Rep1_peak_9954,Exp2          0.00036  123_[+3]_94
Exp1_Rep2_peak_6880,Exp2          0.00036  28_[+3]_187
Exp1_Rep2_peak_7098,Exp1          0.00036  207_[+3]_98
Exp1_Rep2_peak_8088,Exp1          0.00036  22_[+3]_207
Exp1_Rep1_peak_1419,Exp1          0.00038  167_[+3]_41
Exp1_Rep2_peak_4865,Exp1          0.00038  123_[+3]_80
Exp1_Rep2_peak_11019,Exp           0.0004  247_[+3]_65
Exp1_Rep1_peak_11355,Exp           0.0004  62_[+3]_162
Exp1_Rep1_peak_11150,Exp          0.00042  179_[+3]_20
Exp1_Rep1_peak_927,Exp2_          0.00042  167_[+3]_45
Exp1_Rep2_peak_3775,Exp2          0.00042  193_[+3]_21
Exp2_BA_peak_1194,Exp1_R          0.00045  215_[+3]_5
Exp2_BA_peak_9681,Exp1_R          0.00048  249_[+3]_18
Exp1_Rep1_peak_30,Exp1_R          0.00051  174_[+3]_104
Exp1_Rep2_peak_5987,Exp2          0.00056  159_[+3]_62
Exp1_Rep1_peak_3990,Exp1          0.00068  162_[+3]_68
--------------------------------------------------------------------------------

--------------------------------------------------------------------------------
	Motif 3 in BLOCKS format
--------------------------------------------------------------------------------
BL   MOTIF 3 width=10 seqs=117
Exp1_Rep2_peak_11407,Exp (  201) TCTCTCTCTT  1 
Exp1_Rep2_peak_9431,Exp2 (  155) TCTCTCTCTT  1 
Exp2_BA_peak_4094,Exp1_R (  135) TCTCTCTCTT  1 
Exp2_BA_peak_3408,Exp1_R (   17) TCTCTCTCTT  1 
Exp2_BA_peak_8388,Exp1_R (  151) TCTCTCTCTT  1 
Exp1_Rep2_peak_6085,Exp1 (  157) TCTCTCTCTT  1 
Exp2_BA_peak_8886,Exp1_R (  204) TCTCTTTCTT  1 
Exp2_BA_peak_8989,Exp1_R (   41) TCTCTTTCTT  1 
Exp2_BA_peak_7070,Exp1_R (   93) TCTCTTTCTT  1 
Exp2_BA_peak_8559,Exp1_R (  153) TCTTTCTCTT  1 
Exp1_Rep1_peak_7958,Exp1 (  218) TCTTTCTCTT  1 
Exp1_Rep1_peak_2764,Exp1 (  159) TCTTTTTCTT  1 
Exp1_Rep1_peak_10354,Exp (  144) TTTCTCTCTT  1 
Exp2_BA_peak_8283,Exp1_R (  128) TCTTTTTCTT  1 
Exp1_Rep2_peak_10101,Exp (  197) TTTCTCTCTT  1 
Exp2_BA_peak_3930,Exp1_R (  131) TCTTTTTCTT  1 
Exp1_Rep1_peak_374,Exp2_ (  206) TTTCTCTCTT  1 
Exp1_Rep2_peak_2276,Exp1 (   54) TTTCTCTCTT  1 
Exp1_Rep1_peak_9280,Exp2 (  138) TCTTTTTCTT  1 
Exp2_BA_peak_7642,Exp1_R (  181) TCTCTCTCTC  1 
Exp2_BA_peak_9228,Exp1_R (  217) TTTCTTTCTT  1 
Exp1_Rep1_peak_9710,Exp1 (  204) TCTCTCTCTC  1 
Exp1_Rep2_peak_267,Exp1_ (  200) TTTCTTTCTT  1 
Exp1_Rep2_peak_1581,Exp1 (  173) TCTCTCTCTC  1 
Exp1_Rep1_peak_1622,Exp2 (  156) TCTCTCTCTC  1 
Exp1_Rep1_peak_7051,Exp2 (  137) TCTCTCTCTC  1 
Exp1_Rep2_peak_4380,Exp2 (  201) TCTCTTTCTC  1 
Exp1_Rep1_peak_10565,Exp (  166) TCTCTTTCTC  1 
Exp1_Rep1_peak_10564,Exp (  188) TCTCTTTCTC  1 
Exp2_BA_peak_10009,Exp1_ (  143) TCTCTTTCTC  1 
Exp2_BA_peak_223,Exp1_Re (  174) TTTTTCTCTT  1 
Exp2_BA_peak_5769,Exp1_R (  330) TCTCCCTCTT  1 
Exp2_BA_peak_1496,Exp1_R (  193) TTTTTCTCTT  1 
Exp2_BA_peak_9726,Exp1_R (  180) TTTTTTTCTT  1 
Exp1_Rep1_peak_709,Exp1_ (   96) TCTCCTTCTT  1 
Exp1_Rep1_peak_1943,Exp2 (  226) TCTCCTTCTT  1 
Exp2_BA_peak_6633,Exp1_R (  168) TTTTTTTCTT  1 
Exp1_Rep2_peak_7988,Exp2 (  142) TTTTTTTCTT  1 
Exp1_Rep2_peak_2888,Exp1 (   88) TTTGTCTCTT  1 
Exp1_Rep1_peak_11353,Exp (   45) TTTGTCTCTT  1 
Exp1_Rep2_peak_2918,Exp2 (   82) TTTGTCTCTT  1 
Exp1_Rep2_peak_7491,Exp1 (  172) TTTGTCTCTT  1 
Exp1_Rep2_peak_11704,Exp (  298) TCTTCTTCTT  1 
Exp1_Rep1_peak_496,Exp1_ (   72) TCTTTGTCTT  1 
Exp2_BA_peak_5299,Exp1_R (  159) TCTTCTTCTT  1 
Exp1_Rep1_peak_5631,Exp2 (  233) TCTTCTTCTT  1 
Exp1_Rep1_peak_8967,Exp1 (    4) TCTTTGTCTT  1 
Exp1_Rep1_peak_7323,Exp1 (   26) TTTGTTTCTT  1 
Exp1_Rep2_peak_8211,Exp1 (  250) TTTCCCTCTT  1 
Exp1_Rep2_peak_7926,Exp2 (  148) TTTCCTTCTT  1 
Exp1_Rep2_peak_7682,Exp1 (  193) TTTTTCTCTC  1 
Exp2_BA_peak_4989,Exp1_R (   15) TCTCTGTCTC  1 
Exp2_BA_peak_4205,Exp1_R (   90) TTTTTTTCTC  1 
Exp1_Rep2_peak_6398,Exp2 (   14) TCTTTTTTTT  1 
Exp1_Rep2_peak_9998,Exp1 (   62) TCTCTCCCTT  1 
Exp1_Rep2_peak_814,Exp1_ (    5) TCTTTTTTTT  1 
Exp1_Rep1_peak_7126,Exp1 (   68) TTTTCCTCTT  1 
Exp2_BA_peak_6605,Exp1_R (    2) TTTTCTTCTT  1 
Exp2_BA_peak_543,Exp1_Re (  156) TTTCTTTTTT  1 
Exp2_BA_peak_5517,Exp1_R (   24) TCTCTCTTTC  1 
Exp2_BA_peak_3940,Exp1_R (   12) TTTTTGTCTT  1 
Exp1_Rep1_peak_6922,Exp1 (   36) TTTCTTTTTT  1 
Exp2_BA_peak_9190,Exp1_R (  193) TCTTCTTCTC  1 
Exp2_BA_peak_1048,Exp1_R (  242) TCTGTCTTTT  1 
Exp1_Rep1_peak_8746,Exp1 (  172) TTTTTCTTTT  1 
Exp2_BA_peak_9229,Exp1_R (   12) TTTTTCTTTT  1 
Exp1_Rep2_peak_3058,Exp2 (  209) TTTTTCTTTT  1 
Exp2_BA_peak_10008,Exp1_ (  332) TCTTTCCCTT  1 
Exp1_Rep2_peak_208,Exp1_ (   43) TTTGCCTCTT  1 
Exp2_BA_peak_7033,Exp1_R (  184) TTTTTTTTTT  1 
Exp1_Rep2_peak_8723,Exp1 (  216) TTTTTTTTTT  1 
Exp1_Rep1_peak_10456,Exp (  233) TCTCCTTTTT  1 
Exp1_Rep1_peak_4410,Exp2 (  254) TCTTTTCCTT  1 
Exp1_Rep1_peak_7892,Exp1 (  166) TCTTTTCCTT  1 
Exp1_Rep2_peak_5106,Exp1 (    8) TCTCTCTCGT  1 
Exp2_BA_peak_7995,Exp1_R (  223) TTTTTTTTTT  1 
Exp1_Rep1_peak_9489,Exp2 (   56) TCTCCTTTTT  1 
Exp1_Rep1_peak_7050,Exp1 (  181) TTTTTTTTTT  1 
Exp1_Rep1_peak_6337,Exp1 (  148) TCCTTCTCTT  1 
Exp1_Rep2_peak_577,Exp2_ (  194) TTTCTCTTTC  1 
Exp1_Rep1_peak_10949,Exp (  238) TTTCTCTTTC  1 
Exp1_Rep1_peak_274,Exp1_ (  103) TCCTTTTCTT  1 
Exp2_BA_peak_5326,Exp1_R (   84) TTTTTGTCTC  1 
Exp2_BA_peak_1845,Exp1_R (  153) TTTTTGTCTC  1 
Exp2_BA_peak_9679,Exp1_R (  220) TTCCTTTCTT  1 
Exp1_Rep2_peak_4356,Exp1 (  193) TCTTCTTTTT  1 
Exp2_BA_peak_369,Exp1_Re (  125) TTTGTTTTTT  1 
Exp1_Rep1_peak_10211,Exp (  117) TCTTCTTTTT  1 
Exp2_BA_peak_6331,Exp1_R (  185) TTTGTTTTTT  1 
Exp2_BA_peak_9400,Exp1_R (  132) TTTGTTTTTT  1 
Exp1_Rep2_peak_7620,Exp2 (  224) TTTGTTTTTT  1 
Exp1_Rep2_peak_3316,Exp1 (   45) TTTGTTTTTT  1 
Exp1_Rep1_peak_1207,Exp1 (  219) TCTTTGTTTT  1 
Exp1_Rep2_peak_6508,Exp1 (  240) TTTTTTCCTT  1 
Exp2_BA_peak_7798,Exp1_R (  241) TTTCCTTTTT  1 
Exp2_BA_peak_7410,Exp1_R (  132) TCTTTTTCGT  1 
Exp2_BA_peak_9088,Exp1_R (  178) TTTCTTTCGT  1 
Exp1_Rep1_peak_11296,Exp (  176) TCTCTCTCCT  1 
Exp2_BA_peak_9396,Exp1_R (   10) TTCTTTTCTT  1 
Exp2_BA_peak_5167,Exp1_R (  126) TTTTTGTTTT  1 
Exp2_BA_peak_1325,Exp1_R (   72) TCTGTCCCTC  1 
Exp1_Rep1_peak_9954,Exp2 (  124) TCTCTGTCGT  1 
Exp1_Rep2_peak_6880,Exp2 (   29) TCTTCTTTTC  1 
Exp1_Rep2_peak_7098,Exp1 (  208) TCTCCCCCTC  1 
Exp1_Rep2_peak_8088,Exp1 (   23) TCTTTGTTTC  1 
Exp1_Rep1_peak_1419,Exp1 (  168) TTCGTTTCTT  1 
Exp1_Rep2_peak_4865,Exp1 (  124) TCTCCTCCTC  1 
Exp1_Rep2_peak_11019,Exp (  248) TCCGTTTCTC  1 
Exp1_Rep1_peak_11355,Exp (   63) TCTCTCTCCC  1 
Exp1_Rep1_peak_11150,Exp (  180) TTTGCTTTTT  1 
Exp1_Rep1_peak_927,Exp2_ (  168) TCTGCTCCTT  1 
Exp1_Rep2_peak_3775,Exp2 (  194) TTTGTGTTTT  1 
Exp2_BA_peak_1194,Exp1_R (  216) TCTTTGTCGT  1 
Exp2_BA_peak_9681,Exp1_R (  250) TCTCTTCTTC  1 
Exp1_Rep1_peak_30,Exp1_R (  175) TCCTCCTCTC  1 
Exp1_Rep2_peak_5987,Exp2 (  160) TTCCTGTCTC  1 
Exp1_Rep1_peak_3990,Exp1 (  163) TTTTTTTCCC  1 
//

--------------------------------------------------------------------------------

--------------------------------------------------------------------------------
	Motif 3 position-specific scoring matrix
--------------------------------------------------------------------------------
log-odds matrix: alength= 4 w= 10 n= 57886 bayes= 10.5198 E= 2.4e-015 
 -1351  -1351  -1351    169 
 -1351    143  -1351     54 
 -1351   -157  -1351    158 
 -1351    105    -20     46 
 -1351     -4  -1351    137 
 -1351     89    -67     72 
 -1351   -124  -1351    156 
 -1351    184  -1351    -18 
 -1351   -298   -204    158 
 -1351     29  -1351    128 
--------------------------------------------------------------------------------

--------------------------------------------------------------------------------
	Motif 3 position-specific probability matrix
--------------------------------------------------------------------------------
letter-probability matrix: alength= 4 w= 10 nsites= 117 E= 2.4e-015 
 0.000000  0.000000  0.000000  1.000000 
 0.000000  0.547009  0.000000  0.452991 
 0.000000  0.068376  0.000000  0.931624 
 0.000000  0.418803  0.153846  0.427350 
 0.000000  0.196581  0.000000  0.803419 
 0.000000  0.376068  0.111111  0.512821 
 0.000000  0.085470  0.000000  0.914530 
 0.000000  0.726496  0.000000  0.273504 
 0.000000  0.025641  0.042735  0.931624 
 0.000000  0.247863  0.000000  0.752137 
--------------------------------------------------------------------------------

--------------------------------------------------------------------------------
	Motif 3 regular expression
--------------------------------------------------------------------------------
T[CT]T[TC]T[TC]T[CT]T[TC]
--------------------------------------------------------------------------------




Time 106.47 secs.

********************************************************************************


********************************************************************************
SUMMARY OF MOTIFS
********************************************************************************

--------------------------------------------------------------------------------
	Combined block diagrams: non-overlapping sites with p-value < 0.0001
--------------------------------------------------------------------------------
SEQUENCE NAME            COMBINED P-VALUE  MOTIF DIAGRAM
-------------            ----------------  -------------
Exp2_BA_peak_8070,Exp1_R         5.35e-02  236
Exp1_Rep2_peak_7642,Exp2         5.02e-02  184_[+1(7.20e-05)]_10
Exp2_BA_peak_1194,Exp1_R         4.47e-03  187_[+2(3.50e-05)]_33
Exp1_Rep1_peak_652,Exp1_         3.83e-01  283
Exp2_BA_peak_6704,Exp1_R         1.99e-03  96_[+2(1.81e-06)]_65_[+2(4.18e-06)]_\
    65
Exp1_Rep2_peak_5987,Exp2         4.89e-05  2_[+1(1.17e-05)]_18_[+2(5.82e-06)]_\
    191
Exp1_Rep2_peak_666,Exp1_         5.74e-01  234
Exp2_BA_peak_2620,Exp1_R         8.44e-01  277
Exp1_Rep2_peak_8211,Exp1         9.74e-03  74_[+3(7.52e-05)]_165_\
    [+3(6.12e-05)]_134
Exp2_BA_peak_281,Exp1_Re         2.01e-02  198_[+1(7.50e-06)]_45
Exp2_BA_peak_9669,Exp1_R         3.22e-02  [+1(2.50e-05)]_293
Exp2_BA_peak_4725,Exp1_R         3.12e-04  26_[+1(2.50e-05)]_31_[+2(2.39e-05)]_\
    30_[+2(6.67e-06)]_37_[+2(4.20e-05)]_91
Exp1_Rep1_peak_10843,Exp         3.34e-04  124_[+1(5.85e-05)]_74_\
    [+2(6.09e-06)]_22
Exp2_BA_peak_3689,Exp1_R         4.97e-01  243
Exp2_BA_peak_1656,Exp1_R         1.41e-01  197_[+1(7.20e-05)]_40
Exp2_BA_peak_4305,Exp1_R         8.48e-01  328
Exp1_Rep2_peak_5030,Exp2         2.53e-01  262
Exp2_BA_peak_4205,Exp1_R         2.14e-03  15_[+2(5.82e-06)]_64_[+3(7.52e-05)]_\
    193
Exp1_Rep1_peak_7445,Exp1         2.51e-01  264
Exp1_Rep1_peak_1207,Exp1         3.02e-01  288
Exp1_Rep2_peak_3316,Exp1         2.67e-01  319
Exp1_Rep2_peak_7491,Exp1         3.82e-02  171_[+3(4.78e-05)]_72
Exp1_Rep2_peak_2918,Exp2         6.80e-03  81_[+3(4.78e-05)]_1_[+1(9.49e-05)]_\
    128
Exp1_Rep1_peak_8980,Exp1         4.18e-02  192_[+2(3.94e-05)]_6
Exp2_BA_peak_7472,Exp1_R         3.83e-02  71_[+1(7.50e-06)]_134
Exp1_Rep1_peak_8554,Exp1         1.56e-02  152_[+2(2.74e-05)]_150
Exp1_Rep2_peak_8088,Exp1         1.47e-01  239
Exp2_BA_peak_6437,Exp1_R         2.17e-01  222
Exp1_Rep2_peak_3775,Exp2         4.20e-02  92_[+1(9.49e-05)]_122
Exp2_BA_peak_1845,Exp1_R         2.71e-01  209
Exp1_Rep2_peak_10835,Exp         7.56e-01  255
Exp1_Rep1_peak_7126,Exp1         1.16e-02  67_[+3(9.44e-05)]_153
Exp1_Rep1_peak_9280,Exp2         1.06e-03  51_[+1(7.20e-05)]_76_[+3(1.20e-05)]_\
    77
Exp1_Rep1_peak_927,Exp2_         6.20e-03  150_[+2(2.74e-05)]_62
Exp1_Rep2_peak_4936,Exp1         3.97e-01  211
Exp2_BA_peak_7071,Exp1_R         6.44e-01  223
Exp2_BA_peak_7070,Exp1_R         3.88e-04  92_[+3(3.83e-06)]_146
Exp1_Rep1_peak_11353,Exp         1.63e-03  44_[+3(4.78e-05)]_176
Exp1_Rep1_peak_11355,Exp         1.11e-01  234
Exp1_Rep1_peak_936,Exp1_         3.64e-01  235
Exp2_BA_peak_8989,Exp1_R         1.12e-02  40_[+3(3.83e-06)]_68_[+3(3.83e-06)]_\
    151
Exp1_Rep1_peak_7051,Exp2         7.43e-05  12_[+3(2.60e-05)]_56_[+1(7.50e-06)]_\
    48_[+3(1.66e-05)]_[+3(1.66e-05)]_139
Exp1_Rep1_peak_7050,Exp1         6.29e-03  143_[+2(4.20e-05)]_98
Exp1_Rep1_peak_6444,Exp2         9.46e-01  221
Exp1_Rep1_peak_7323,Exp1         6.15e-03  25_[+3(6.12e-05)]_31_[+2(5.09e-05)]_\
    161
Exp1_Rep2_peak_208,Exp1_         1.64e-04  14_[+1(7.50e-06)]_103_\
    [+2(9.39e-05)]_126
Exp2_BA_peak_7970,Exp1_R         1.33e-03  176_[+2(6.67e-06)]_29
Exp1_Rep1_peak_1622,Exp2         3.12e-04  93_[+1(7.20e-05)]_52_[+3(1.66e-05)]_\
    51
Exp1_Rep2_peak_7682,Exp1         3.25e-03  50_[+1(9.49e-05)]_35_[+1(3.67e-05)]_\
    87_[+3(6.98e-05)]_56
Exp2_BA_peak_2202,Exp1_R         2.82e-01  215
Exp1_Rep2_peak_8394,Exp1         1.31e-01  54_[+2(6.00e-05)]_149
Exp1_Rep1_peak_8967,Exp1         6.58e-03  3_[+3(6.12e-05)]_42_[+2(4.28e-05)]_\
    173
Exp1_Rep1_peak_5631,Exp2         7.01e-03  55_[+1(9.49e-05)]_167_\
    [+3(6.12e-05)]
Exp1_Rep2_peak_6085,Exp1         7.78e-05  156_[+3(1.51e-06)]_57
Exp1_Rep2_peak_7620,Exp2         1.21e-01  257
Exp1_Rep1_peak_9489,Exp2         1.57e-02  110_[+2(6.52e-05)]_112
Exp1_Rep1_peak_6325,Exp1         7.88e-02  21_[+1(8.39e-05)]_201
Exp1_Rep1_peak_520,Exp2_         9.62e-03  44_[+2(1.58e-05)]_186
Exp2_BA_peak_9396,Exp1_R         5.95e-04  123_[+2(1.81e-06)]_90
Exp2_BA_peak_4554,Exp1_R         5.42e-03  133_[+2(1.08e-06)]_139
Exp1_Rep2_peak_2276,Exp1         1.62e-04  53_[+3(1.20e-05)]_92_[+2(2.51e-06)]_\
    74
Exp1_Rep2_peak_8726,Exp2         1.43e-01  243
Exp1_Rep1_peak_374,Exp2_         1.27e-03  2_[+1(7.20e-05)]_78_[+3(7.52e-05)]_\
    105_[+3(1.20e-05)]_2
Exp1_Rep1_peak_6960,Exp1         7.90e-03  231_[+1(2.50e-05)]_35
Exp1_Rep2_peak_7988,Exp2         8.53e-04  13_[+1(4.67e-05)]_118_\
    [+3(3.58e-05)]_151
Exp1_Rep1_peak_4766,Exp1         6.09e-01  236
Exp1_Rep2_peak_4865,Exp1         4.37e-02  213
Exp1_Rep2_peak_9146,Exp2         4.61e-03  62_[+2(4.28e-07)]_223
Exp1_Rep1_peak_7542,Exp2         3.19e-01  266
Exp1_Rep2_peak_814,Exp1_         5.05e-04  4_[+3(9.44e-05)]_100_[+1(3.91e-05)]_\
    97
Exp2_BA_peak_10008,Exp1_         1.75e-03  151_[+1(2.50e-05)]_204
Exp2_BA_peak_10009,Exp1_         2.92e-02  142_[+3(1.81e-05)]_117
Exp1_Rep1_peak_10949,Exp         4.74e-02  276
Exp1_Rep1_peak_6922,Exp1         6.89e-02  232
Exp1_Rep1_peak_7958,Exp1         2.33e-04  30_[+1(2.50e-05)]_177_\
    [+3(6.15e-06)]_3
Exp2_BA_peak_2795,Exp1_R         1.15e-01  277
Exp2_BA_peak_8250,Exp1_R         8.46e-01  231
Exp2_BA_peak_6633,Exp1_R         2.62e-03  62_[+2(2.74e-05)]_95_[+3(3.58e-05)]_\
    41
Exp2_BA_peak_7995,Exp1_R         9.72e-02  244
Exp2_BA_peak_7996,Exp1_R         1.44e-01  59_[+1(5.09e-05)]_177
Exp1_Rep1_peak_10205,Exp         1.24e-01  219_[+1(8.39e-05)]_33
Exp1_Rep1_peak_9603,Exp2         6.47e-01  297
Exp1_Rep1_peak_1922,Exp1         9.46e-01  238
Exp2_BA_peak_9190,Exp1_R         2.83e-03  39_[+1(2.50e-05)]_173
Exp1_Rep2_peak_3764,Exp1         7.38e-03  150_[+2(2.39e-05)]_99
Exp1_Rep1_peak_11296,Exp         1.64e-04  107_[+2(1.55e-07)]_87
Exp1_Rep2_peak_2888,Exp1         6.94e-05  87_[+3(4.78e-05)]_101_\
    [+2(8.43e-07)]_2
Exp2_BA_peak_9400,Exp1_R         3.95e-02  253
Exp1_Rep2_peak_9998,Exp1         2.29e-02  61_[+3(9.44e-05)]_145
Exp1_Rep2_peak_5106,Exp1         2.12e-02  88_[+1(3.67e-05)]_264
Exp2_BA_peak_4820,Exp1_R         1.37e-05  64_[+2(1.55e-07)]_135_\
    [+1(1.17e-05)]_48
Exp2_BA_peak_5299,Exp1_R         4.47e-02  158_[+3(6.12e-05)]_62
Exp2_BA_peak_1496,Exp1_R         9.62e-03  148_[+3(6.98e-05)]_34_\
    [+3(2.60e-05)]_68
Exp1_Rep2_peak_2800,Exp1         1.79e-01  216
Exp1_Rep1_peak_1058,Exp2         9.84e-01  217
Exp2_BA_peak_8776,Exp1_R         1.03e-01  34_[+1(9.49e-05)]_189
Exp2_BA_peak_3329,Exp1_R         9.99e-01  449
Exp1_Rep1_peak_496,Exp1_         6.42e-03  71_[+3(6.12e-05)]_192
Exp1_Rep2_peak_577,Exp2_         5.86e-04  159_[+2(6.00e-05)]_250_\
    [+1(7.50e-06)]_29
Exp1_Rep1_peak_7892,Exp1         1.79e-02  32_[+1(9.49e-05)]_160
Exp1_Rep1_peak_1269,Exp2         1.08e-02  29_[+1(7.50e-06)]_168
Exp1_Rep1_peak_1473,Exp2         3.64e-01  244
Exp1_Rep2_peak_1581,Exp1         2.20e-03  4_[+1(3.67e-05)]_158_[+3(1.66e-05)]_\
    18_[+3(3.58e-05)]_74
Exp1_Rep1_peak_5897,Exp2         2.53e-02  48_[+1(3.67e-05)]_196
Exp1_Rep2_peak_4367,Exp1         5.10e-02  267
Exp2_BA_peak_8388,Exp1_R         1.76e-03  150_[+3(1.51e-06)]_138
Exp2_BA_peak_3930,Exp1_R         2.60e-03  9_[+1(5.09e-05)]_111_[+3(1.20e-05)]_\
    138
Exp1_Rep2_peak_3720,Exp2         8.99e-01  223
Exp1_Rep1_peak_2520,Exp2         2.95e-01  262
Exp1_Rep2_peak_10101,Exp         6.09e-03  196_[+3(1.20e-05)]_15
Exp1_Rep1_peak_11164,Exp         5.39e-01  215
Exp2_BA_peak_4084,Exp1_R         1.54e-01  255
Exp1_Rep1_peak_4392,Exp2         1.34e-03  34_[+2(1.27e-05)]_172
Exp2_BA_peak_3940,Exp1_R         9.78e-02  223
Exp2_BA_peak_93,Exp1_Rep         4.98e-01  236
Exp1_Rep1_peak_8003,Exp1         2.52e-02  53_[+1(9.49e-05)]_101_\
    [+2(7.04e-05)]_187
Exp1_Rep2_peak_3058,Exp2         3.16e-02  243
Exp1_Rep2_peak_2033,Exp1         2.82e-01  225
Exp1_Rep2_peak_6676,Exp2         1.54e-01  253
Exp2_BA_peak_6331,Exp1_R         4.70e-03  37_[+1(7.50e-06)]_206
Exp1_Rep1_peak_9883,Exp1         7.46e-01  249
Exp1_Rep2_peak_7127,Exp1         3.55e-01  233
Exp1_Rep1_peak_10211,Exp         2.26e-02  279
Exp1_Rep1_peak_648,Exp2_         2.33e-01  227
Exp1_Rep2_peak_2753,Exp2         7.79e-01  210
Exp1_Rep1_peak_10564,Exp         6.41e-04  73_[+1(7.20e-05)]_104_\
    [+3(1.81e-05)]_33
Exp1_Rep1_peak_10565,Exp         3.27e-02  151_[+3(6.12e-05)]_4_[+3(1.81e-05)]_\
    44
Exp2_BA_peak_4473,Exp1_R         1.47e-01  260
Exp1_Rep2_peak_1770,Exp1         2.65e-02  212_[+1(7.50e-06)]_56
Exp2_BA_peak_5517,Exp1_R         1.94e-01  226
Exp2_BA_peak_7638,Exp1_R         6.35e-02  216
Exp2_BA_peak_369,Exp1_Re         3.23e-02  209
Exp2_BA_peak_8283,Exp1_R         3.53e-06  [+1(1.17e-05)]_117_[+3(1.20e-05)]_\
    37_[+2(1.10e-05)]_60
Exp2_BA_peak_8886,Exp1_R         6.59e-04  123_[+1(5.58e-05)]_70_\
    [+3(3.83e-06)]_1
Exp2_BA_peak_9364,Exp1_R         4.50e-03  24_[+1(3.25e-05)]_186
Exp2_BA_peak_543,Exp1_Re         1.11e-01  279
Exp1_Rep2_peak_8330,Exp1         2.11e-03  25_[+2(2.51e-05)]_182
Exp2_BA_peak_3199,Exp1_R         3.07e-02  136_[+2(2.39e-05)]_105
Exp2_BA_peak_5768,Exp1_R         1.63e-02  94_[+1(3.67e-05)]_157
Exp2_BA_peak_5769,Exp1_R         1.45e-02  26_[+1(9.49e-05)]_293_\
    [+3(2.60e-05)]_57
Exp1_Rep2_peak_267,Exp1_         6.99e-05  134_[+2(2.09e-06)]_55_\
    [+3(1.66e-05)]_80
Exp2_BA_peak_1325,Exp1_R         8.29e-04  128_[+2(8.43e-07)]_126
Exp1_Rep1_peak_5172,Exp2         1.19e-03  13_[+1(7.50e-06)]_194
Exp1_Rep1_peak_10354,Exp         3.74e-02  143_[+3(1.20e-05)]_165
Exp2_BA_peak_9088,Exp1_R         1.14e-02  66_[+2(2.39e-05)]_150
Exp1_Rep2_peak_743,Exp1_         9.90e-02  124_[+1(3.91e-05)]_137
Exp1_Rep1_peak_5493,Exp1         1.40e-01  32_[+1(9.49e-05)]_199
Exp1_Rep1_peak_5494,Exp2         4.64e-02  225_[+1(5.09e-05)]_12
Exp1_Rep1_peak_4010,Exp2         1.16e-01  63_[+1(5.58e-05)]_214
Exp1_Rep1_peak_117,Exp2_         3.76e-01  230
Exp1_Rep2_peak_141,Exp1_         6.32e-02  59_[+1(7.20e-05)]_150
Exp1_Rep1_peak_2416,Exp1         1.98e-01  223
Exp1_Rep2_peak_4380,Exp2         2.77e-02  200_[+3(1.81e-05)]_49
Exp1_Rep1_peak_1943,Exp2         4.49e-02  225_[+3(3.58e-05)]_11
Exp2_BA_peak_3857,Exp1_R         2.43e-02  40_[+1(1.17e-05)]_221
Exp1_Rep1_peak_4410,Exp2         3.37e-02  286
Exp1_Rep2_peak_9006,Exp2         8.37e-02  257
Exp1_Rep2_peak_4722,Exp1         8.33e-03  62_[+1(4.67e-05)]_254
Exp2_BA_peak_3408,Exp1_R         1.05e-04  16_[+3(1.51e-06)]_150_\
    [+1(1.17e-05)]_65
Exp2_BA_peak_4207,Exp1_R         1.12e-01  238
Exp2_BA_peak_9681,Exp1_R         3.09e-01  277
Exp2_BA_peak_9679,Exp1_R         2.98e-02  244
Exp1_Rep1_peak_9710,Exp1         5.44e-03  203_[+3(1.66e-05)]_77
Exp1_Rep1_peak_709,Exp1_         1.05e-02  84_[+3(6.12e-05)]_1_[+3(3.58e-05)]_\
    170
Exp1_Rep1_peak_1528,Exp2         1.73e-02  55_[+1(7.20e-05)]_158
Exp1_Rep1_peak_1419,Exp1         5.03e-03  126_[+2(1.58e-05)]_82
Exp1_Rep1_peak_11150,Exp         1.15e-03  42_[+2(1.08e-06)]_157
Exp1_Rep1_peak_11148,Exp         1.15e-01  291
Exp1_Rep2_peak_4356,Exp1         7.13e-02  255
Exp2_BA_peak_6309,Exp1_R         5.78e-01  258
Exp1_Rep2_peak_7098,Exp1         3.14e-04  151_[+2(4.28e-07)]_154
Exp1_Rep2_peak_9718,Exp2         9.55e-02  127_[+2(5.75e-05)]_123
Exp2_BA_peak_5378,Exp1_R         2.46e-01  213
Exp2_BA_peak_7410,Exp1_R         2.09e-01  267
Exp1_Rep1_peak_7176,Exp2         1.90e-01  251
Exp1_Rep1_peak_7173,Exp1         6.14e-04  63_[+2(7.92e-05)]_80_[+1(7.50e-06)]_\
    60
Exp2_BA_peak_5326,Exp1_R         3.98e-02  387_[+1(5.09e-05)]_38
Exp1_Rep2_peak_2652,Exp2         6.93e-01  210
Exp2_BA_peak_7798,Exp1_R         1.41e-02  55_[+2(2.51e-05)]_185
Exp2_BA_peak_1538,Exp1_R         2.10e-01  228
Exp1_Rep2_peak_9173,Exp1         9.14e-04  88_[+2(5.82e-06)]_112
Exp1_Rep2_peak_3805,Exp2         2.68e-01  231
Exp1_Rep2_peak_9815,Exp2         2.62e-01  301
Exp1_Rep1_peak_4878,Exp2         9.92e-01  442
Exp2_BA_peak_9228,Exp1_R         4.80e-02  69_[+3(3.58e-05)]_137_\
    [+3(1.66e-05)]_34
Exp2_BA_peak_9229,Exp1_R         8.86e-05  213_[+2(4.28e-07)]_5
Exp2_BA_peak_4989,Exp1_R         3.20e-03  14_[+3(7.52e-05)]_220
Exp1_Rep1_peak_7580,Exp1         9.65e-02  263
Exp1_Rep2_peak_11019,Exp         1.07e-02  155_[+2(5.75e-05)]_157
Exp1_Rep1_peak_3990,Exp1         5.08e-04  93_[+2(1.81e-06)]_137
Exp2_BA_peak_4661,Exp1_R         6.19e-01  228
Exp2_BA_peak_6605,Exp1_R         2.52e-02  233_[+1(7.20e-05)]_104
Exp2_BA_peak_4396,Exp1_R         1.42e-02  7_[+1(1.17e-05)]_247
Exp2_BA_peak_223,Exp1_Re         1.59e-02  173_[+3(2.60e-05)]_104
Exp1_Rep1_peak_30,Exp1_R         5.41e-01  288
Exp2_BA_peak_8559,Exp1_R         7.08e-03  152_[+3(6.15e-06)]_55
Exp1_Rep1_peak_1742,Exp1         8.15e-02  142_[+2(5.75e-05)]_80
Exp1_Rep2_peak_6508,Exp1         1.80e-01  278
Exp1_Rep2_peak_9415,Exp2         7.96e-02  113_[+2(1.72e-05)]_135
Exp1_Rep2_peak_7926,Exp2         1.62e-02  147_[+3(6.98e-05)]_132
Exp2_BA_peak_8206,Exp1_R         4.47e-01  236
Exp1_Rep1_peak_10456,Exp         2.01e-03  242_[+1(2.50e-05)]_75
Exp1_Rep2_peak_8723,Exp1         1.18e-02  282
Exp1_Rep1_peak_4499,Exp1         4.45e-03  133_[+2(8.43e-07)]_106
Exp1_Rep1_peak_2519,Exp2         2.44e-03  89_[+2(3.28e-06)]_114
Exp1_Rep2_peak_3202,Exp1         2.24e-01  229
Exp1_Rep2_peak_4076,Exp1         3.69e-02  231
Exp1_Rep1_peak_2409,Exp1         4.33e-01  205
Exp1_Rep1_peak_2764,Exp1         8.18e-04  1_[+1(5.85e-05)]_147_[+3(1.20e-05)]_\
    29_[+3(6.98e-05)]_22
Exp2_BA_peak_5167,Exp1_R         2.46e-02  336
Exp2_BA_peak_1281,Exp1_R         8.67e-03  33_[+1(7.50e-06)]_211
Exp1_Rep2_peak_6398,Exp2         9.13e-03  13_[+3(9.44e-05)]_210
Exp2_BA_peak_4094,Exp1_R         1.06e-04  44_[+3(3.83e-06)]_5_[+3(3.96e-05)]_\
    65_[+3(1.51e-06)]_[+3(3.96e-05)]_103
Exp2_BA_peak_4093,Exp1_R         2.50e-01  221
Exp2_BA_peak_7033,Exp1_R         4.05e-03  16_[+1(7.50e-06)]_230
Exp1_Rep1_peak_8746,Exp1         3.77e-03  4_[+1(2.50e-05)]_217
Exp2_BA_peak_7642,Exp1_R         6.60e-02  88_[+3(6.12e-05)]_48_[+3(4.78e-05)]_\
    24_[+3(1.66e-05)]_35
Exp1_Rep1_peak_6399,Exp1         8.96e-01  245
Exp1_Rep1_peak_4924,Exp1         8.19e-02  310
Exp1_Rep2_peak_9431,Exp2         1.19e-04  15_[+2(2.74e-05)]_129_\
    [+3(1.51e-06)]_103
Exp1_Rep2_peak_11407,Exp         2.70e-04  115_[+2(6.52e-05)]_61_\
    [+3(1.66e-05)]_4_[+3(1.51e-06)]_14_[+3(1.51e-06)]_2_[+3(1.66e-05)]_40
Exp1_Rep2_peak_6269,Exp1         1.55e-03  3_[+2(2.51e-06)]_138_[+2(5.09e-05)]_\
    63
Exp2_BA_peak_1048,Exp1_R         1.30e-01  283
Exp1_Rep1_peak_274,Exp1_         1.33e-01  213
Exp2_BA_peak_9726,Exp1_R         5.94e-02  179_[+3(3.58e-05)]_55
Exp1_Rep2_peak_6880,Exp2         2.44e-02  148_[+2(6.00e-05)]_67
Exp2_BA_peak_4700,Exp1_R         6.12e-02  162_[+2(6.00e-05)]_68
Exp2_BA_peak_4234,Exp1_R         4.00e-03  22_[+2(1.81e-06)]_62_[+2(1.97e-05)]_\
    125
Exp1_Rep2_peak_10153,Exp         6.72e-02  5_[+1(9.49e-05)]_240
Exp1_Rep2_peak_10154,Exp         1.28e-02  39_[+1(7.20e-05)]_165
Exp1_Rep2_peak_11704,Exp         9.99e-04  244_[+2(5.09e-05)]_43_\
    [+3(6.12e-05)]_9
Exp1_Rep2_peak_1993,Exp1         2.16e-01  263
Exp1_Rep1_peak_479,Exp2_         1.29e-01  80_[+2(4.20e-05)]_144
Exp1_Rep1_peak_9954,Exp2         3.62e-02  227
Exp1_Rep1_peak_6337,Exp1         7.16e-03  226_[+1(2.50e-05)]_17_\
    [+1(3.67e-05)]_2
Exp1_Rep2_peak_9164,Exp1         1.23e-01  215
--------------------------------------------------------------------------------

********************************************************************************


********************************************************************************
Stopped because motif E-value > 5.00e-02.
********************************************************************************

CPU: reg-10-23-250-83.uncc.edu

********************************************************************************
