AGI	symbol	logFC	AveExpr	P.Value	adj.P.Val	ps	unique	redundant	descr
AT1G74890	ARR15	3.90121785697135	5.98542904284529	6.12615665849127e-11	1.39737633380186e-06	262212_at	TRUE	FALSE	response regulator 15
AT3G48100	ARR5|RR5|ATRR2|IBC6	3.52401635569479	7.25013034478363	1.33106244717661e-09	1.51807672100493e-05	252374_at	TRUE	FALSE	response regulator 5
AT2G40670	ARR16|RR16	2.81970518058019	6.24440813391881	4.23231802416577e-07	0.00120673967664027	266078_at	TRUE	FALSE	response regulator 16
AT5G62920	ARR6	2.53290042852733	7.61129156570123	2.68266433536756e-08	0.000152978933724335	247406_at	TRUE	FALSE	response regulator 6
AT1G19050	ARR7	2.30847960603595	9.59814118163853	1.69547366003482e-08	0.000128912513951314	259466_at	TRUE	FALSE	response regulator 7
AT4G29740	CKX4|ATCKX4	2.21877620989546	7.86850462939348	1.38056771328789e-07	0.000493165288703352	253696_at	TRUE	FALSE	cytokinin oxidase 4
AT2G46310	CRF5	2.08703459635667	7.19527632781057	6.40150545753032e-07	0.00135947127183799	266606_at	TRUE	FALSE	cytokinin response factor 5
AT5G47980	AT5G47980	1.96776551194819	5.21231468782554	9.06500310164858e-07	0.00172310600623837	248725_at	TRUE	FALSE	HXXXD-type acyl-transferase family protein
AT1G16530	ASL9|LBD3	1.88882959630518	6.69018478618554	3.39073687135039e-05	0.0179866762873261	262704_at	TRUE	FALSE	ASYMMETRIC LEAVES 2-like 9
AT5G05860	UGT76C2	1.86225320935248	7.94435477634063	5.75844741773815e-07	0.00135947127183799	250753_at	TRUE	FALSE	UDP-glucosyl transferase 76C2
AT2G01830	ATCRE1|CRE1|WOL1|AHK4|WOL	1.84805196944504	6.21046307168008	1.51344016699845e-07	0.000493165288703352	263599_at	TRUE	FALSE	CHASE domain containing histidine kinase protein
AT1G13420	ATST4B|ST4B	1.84605597613169	5.21345372119748	1.22686483768611e-05	0.0096499265336621	259388_at	TRUE	FALSE	sulfotransferase 4B
AT1G10470	ATRR1|MEE7|ARR4|IBC7	1.80587333470755	9.97719345066679	3.85931084321316e-06	0.0044015440166846	263236_at	TRUE	FALSE	response regulator 4
AT4G15680	AT4G15680	1.76662284189539	6.64963332866835	2.57265766449377e-06	0.00349500756749231	245392_at	TRUE	FALSE	Thioredoxin superfamily protein
AT5G19260	AT5G19260	1.6888579765856	6.59159718839546	1.74050455804046e-06	0.00264672726459353	249920_at	TRUE	FALSE	Protein of unknown function (DUF3049)
AT4G23750	CRF2|TMO3	1.65665413237845	8.55661824941652	1.179604484048e-06	0.00192191273436678	254235_at	TRUE	FALSE	cytokinin response factor 2
AT3G06020	AT3G06020	1.63610052108083	6.19645255345306	6.96999014249997e-05	0.0257676487293904	258560_at	TRUE	FALSE	Protein of unknown function (DUF3049)
AT5G46230	AT5G46230	1.63480383537973	7.62407407502527	1.01620393681724e-07	0.000463592235976025	248889_at	TRUE	FALSE	Protein of unknown function, DUF538
AT4G15230	PDR2|ATPDR2	1.61716007992028	6.44334079467214	9.39779073642331e-06	0.00824475410376214	245540_at	TRUE	TRUE	pleiotropic drug resistance 2
AT2G41310	ATRR3|RR3|ARR8	1.53946632874153	5.24434335410269	1.95139214789145e-05	0.0120300688901092	266372_at	TRUE	FALSE	response regulator 3
AT3G57010	AT3G57010	1.44817469476549	6.25789842820208	6.55597719869263e-07	0.00135947127183799	251668_at	TRUE	FALSE	Calcium-dependent phosphotriesterase superfamily protein
AT5G50915	AT5G50915	1.44714825099357	7.24930100250744	2.60478424582943e-06	0.00349500756749231	248460_at	TRUE	FALSE	basic helix-loop-helix (bHLH) DNA-binding superfamily protein
AT3G57040	ATRR4|ARR9	1.36804344480298	7.99920811146433	1.01884004726992e-06	0.00178767242140207	251665_at	TRUE	FALSE	response regulator 9
AT4G15660	AT4G15660	1.31327623853885	6.19934178174051	1.86826681216653e-05	0.0118375461070885	245504_at	TRUE	FALSE	Thioredoxin superfamily protein
AT5G40390	SIP1	1.29493956106911	8.45455216785007	0.000145834515488867	0.0380403469805286	249411_at	TRUE	FALSE	Raffinose synthase family protein
AT2G36870	XTH32	1.26855567741093	7.93420601038093	5.16386908667252e-06	0.0055007434221413	263841_at	TRUE	FALSE	xyloglucan endotransglucosylase/hydrolase 32
AT1G69040	ACR4	1.24308665979657	8.70098791075218	2.42127793422118e-05	0.0138073374198963	257516_at	TRUE	FALSE	ACT domain repeat 4
AT1G58170	AT1G58170	1.21771624031503	6.0376066436368	5.6312450913139e-05	0.025689740106574	246395_at	TRUE	FALSE	Disease resistance-responsive (dirigent-like protein) family protein
AT4G21760	BGLU47	1.17469491007732	4.71293436476229	7.61335962721314e-05	0.0267170358610356	254371_at	TRUE	FALSE	beta-glucosidase 47
AT1G75440	UBC16	1.17115896072808	8.53571181848968	6.73886208283525e-05	0.0257676487293904	261110_at	TRUE	FALSE	ubiquitin-conjugating enzyme 16
AT4G03610	AT4G03610	1.15301965674079	4.70010829556533	0.00017797882906785	0.0418525473302852	255385_at	TRUE	FALSE	Metallo-hydrolase/oxidoreductase superfamily protein
AT2G30540	AT2G30540	1.14087827582619	8.10979458302538	6.74007355624326e-06	0.00668439468773516	267497_at	TRUE	FALSE	Thioredoxin superfamily protein
AT3G15720	AT3G15720	1.12298365087545	4.03571337272715	5.30540794770314e-06	0.0055007434221413	258252_at	TRUE	FALSE	Pectin lyase-like superfamily protein
AT5G48000	CYP708 A2|THAH|CYP708A2|THAH1	1.10967083136494	6.87172196170749	8.47489645528312e-05	0.0284282923742659	248728_at	TRUE	FALSE	cytochrome P450, family 708, subfamily A, polypeptide 2
AT1G56430	ATNAS4|NAS4	1.08847241562162	7.58814551670724	3.16263259742007e-06	0.0040077583081751	259632_at	TRUE	FALSE	nicotianamine synthase 4
AT2G25160	CYP82F1	1.07359032288005	4.63174307581686	3.05330310598605e-05	0.0169018939623848	264404_at	TRUE	FALSE	cytochrome P450, family 82, subfamily F, polypeptide 1
AT2G39920	AT2G39920	1.0646280626405	4.71677200090583	4.42552513492982e-05	0.0219448322451629	267361_at	TRUE	FALSE	HAD superfamily, subfamily IIIB acid phosphatase
AT4G02850	AT4G02850	1.04617435577867	6.69321023676523	3.90779309028821e-05	0.0202583546339714	255450_at	TRUE	FALSE	phenazine biosynthesis PhzC/PhzF family protein
AT3G50700	AtIDD2|IDD2	1.03521346175516	7.53816490332343	2.20926707919084e-05	0.0132614163358798	252175_at	TRUE	FALSE	indeterminate(ID)-domain 2
AT4G16780	ATHB2|ATHB-2|HAT4|HB-2	1.02899875291975	5.83815491099981	1.55626261294306e-05	0.0109661453998576	245276_at	TRUE	FALSE	homeobox protein 2
AT4G29720	ATPAO5|PAO5	0.991336443814264	7.54303546927956	6.62098939486429e-05	0.0257676487293904	253692_at	TRUE	FALSE	polyamine oxidase 5
AT3G62930	AT3G62930	0.989624187047971	7.44923495741033	9.91465967119522e-05	0.0301537849466617	251195_at	TRUE	FALSE	Thioredoxin superfamily protein
AT5G04770	CAT6|ATCAT6	0.986868859359288	5.57415493462261	0.000180295293935802	0.0419646495375065	250860_at	TRUE	FALSE	cationic amino acid transporter 6
AT1G67110	CYP735A2	0.984997834872931	4.82748480578718	8.10209687902818e-05	0.0277503136945431	264470_at	TRUE	FALSE	cytochrome P450, family 735, subfamily A, polypeptide 2
AT4G34588	CPuORF2	0.978497563688244	8.934206426454	0.000126038606416317	0.0350602513701973	253245_at	FALSE	NA	conserved peptide upstream open reading frame 2
AT4G34590	BZIP11|ATB2|GBF6|AtbZIP11	0.978497563688244	8.934206426454	0.000126038606416317	0.0350602513701973	253245_at	FALSE	NA	G-box binding factor 6
AT5G14070	ROXY2	0.9702802699981	5.10491095988812	7.05051059235579e-05	0.0257676487293904	250223_at	TRUE	FALSE	Thioredoxin superfamily protein
AT1G18400	BEE1	0.9369685100901	8.38066359845616	0.000204495448076475	0.0450030588108168	261717_at	TRUE	FALSE	BR enhanced expression 1
AT1G03850	AT1G03850	0.932628712244837	8.20805519617959	0.00015548131278229	0.0389728433468576	265067_at	TRUE	FALSE	Glutaredoxin family protein
AT1G13740	AFP2	0.921414738594866	8.20619259306523	1.18143282663996e-05	0.0096499265336621	256069_at	TRUE	FALSE	ABI five binding protein 2
AT3G16870	GATA17	0.907243346410702	6.95858576411513	0.000248914607244121	0.0486443739675453	257571_at	TRUE	FALSE	GATA transcription factor 17
AT1G68360	AT1G68360	0.88629123625416	5.23677856658164	0.00025005922328382	0.0486443739675453	260484_at	TRUE	FALSE	C2H2 and C2HC zinc fingers superfamily protein
AT5G11420	AT5G11420	0.883497031433491	11.3325042396671	1.45160512864848e-05	0.0106810041885393	250366_at	TRUE	FALSE	Protein of unknown function, DUF642
AT2G01890	ATPAP8|PAP8	0.880141408100996	7.45157230674403	0.000117921560222942	0.0344844972908371	263595_at	TRUE	FALSE	purple acid phosphatase 8
AT3G29670	AT3G29670	0.879036940518907	6.22131767428104	6.12910091735266e-05	0.0257676487293904	257288_at	TRUE	FALSE	HXXXD-type acyl-transferase family protein
AT1G72140	AT1G72140	0.875109533466713	6.3169676798222	0.000215511663753542	0.0463756702850782	259846_at	TRUE	FALSE	Major facilitator superfamily protein
AT2G32680	AtRLP23|RLP23	0.872349995938615	5.29439648431165	5.28064992826519e-05	0.0245819642579039	267546_at	TRUE	FALSE	receptor like protein 23
AT1G64390	AtGH9C2|GH9C2	0.871042113984821	8.40954308801493	0.00024700908945168	0.0486443739675453	259736_at	TRUE	FALSE	glycosyl hydrolase 9C2
AT4G34610	BLH6	0.868342820601149	7.75462130504856	0.000257011602999456	0.0488536222034799	253247_at	TRUE	FALSE	BEL1-like homeodomain 6
AT2G34510	AT2G34510	0.851438534502627	10.8291453273927	6.43577628722044e-05	0.0257676487293904	266956_at	TRUE	FALSE	Protein of unknown function, DUF642
AT5G14050	AT5G14050	0.833297221388911	7.68436491138107	8.82835259352914e-05	0.0287712694019876	250222_at	TRUE	FALSE	Transducin/WD40 repeat-like superfamily protein
AT5G15310	MYB16|ATMIXTA|ATMYB16	0.803844588685591	6.91014886073959	7.07242168205341e-05	0.0257676487293904	250167_at	TRUE	FALSE	myb domain protein 16
AT4G37750	ANT|CKC1|DRG|CKC	0.799428714230367	7.63559030298758	0.000131126802192375	0.0360361729880492	253010_at	TRUE	FALSE	Integrase-type DNA-binding superfamily protein
AT1G15550	GA4|ATGA3OX1|GA3OX1	0.795047037658451	6.45423442526737	0.000146758024300154	0.0380403469805286	261768_at	TRUE	FALSE	gibberellin 3-oxidase 1
AT3G54720	COP2|MFO1|AMP1|PT|HPT	0.790718835607534	5.80360313195615	0.00014904921180411	0.038200140688222	251856_at	TRUE	FALSE	Peptidase M28 family protein
AT1G79460	KS|GA2|KS1|ATKS|ATKS1	0.769370295864924	5.83987432749432	0.00019895581557206	0.0450030588108168	262891_at	TRUE	FALSE	Terpenoid cyclases/Protein prenyltransferases superfamily protein
AT1G78580	TPS1|ATTPS1	0.762737246873153	7.45908439127302	0.000171952562168991	0.0409119854551099	263136_at	TRUE	FALSE	trehalose-6-phosphate synthase
AT4G13260	YUC2	0.742304202045587	5.32071239668589	8.15112239164572e-05	0.0277503136945431	254758_at	TRUE	FALSE	Flavin-binding monooxygenase family protein
AT4G22570	APT3	0.728653458944869	9.45524791323402	0.000219741884980172	0.0464102999666456	254328_at	TRUE	FALSE	adenine phosphoribosyl transferase 3
AT2G38170	RCI4|ATCAX1|CAX1	0.711642096239116	11.5983589364192	0.000242783101818581	0.0486443739675453	267093_at	TRUE	FALSE	cation exchanger 1
AT4G34760	AT4G34760	0.710942355481154	8.18697453035826	0.000243928211063157	0.0486443739675453	253255_at	TRUE	FALSE	SAUR-like auxin-responsive protein family
AT1G03170	AT1G03170	0.708294190081001	4.12301483019169	0.000112573755603118	0.033786939017199	264363_at	TRUE	FALSE	Protein of unknown function (DUF3049)
AT3G13380	BRL3	0.707704271255452	5.47627655877554	9.75012201008597e-05	0.0300540923040623	256981_at	TRUE	FALSE	BRI1-like 3
AT4G38850	SAUR15|SAUR-AC1|ATSAUR15|SAUR_AC1	0.683544633099635	5.1524242906685	0.000124159738650967	0.0350602513701973	252970_at	TRUE	FALSE	SAUR-like auxin-responsive protein family
AT3G13360	WIP3	0.682254399896489	7.50602201435553	9.01957515357168e-05	0.0287712694019876	257660_at	TRUE	FALSE	WPP domain interacting protein 3
AT5G64620	ATC/VIF2|C/VIF2	0.673445416851207	9.90849141036405	0.00020284843517407	0.0450030588108168	247246_at	TRUE	FALSE	cell wall / vacuolar inhibitor of fructosidase 2
AT1G04520	PDLP2	0.670248027950839	5.86829088628834	0.000125509733033673	0.0350602513701973	263677_at	TRUE	FALSE	plasmodesmata-located protein 2
AT3G13620	AT3G13620	0.654314388539529	5.96551292143492	0.000242853027157308	0.0486443739675453	256650_at	TRUE	FALSE	Amino acid permease family protein
AT4G00880	AT4G00880	0.640024035809312	7.88411530654699	0.000192628780668869	0.0443824493642111	255645_at	TRUE	FALSE	SAUR-like auxin-responsive protein family
AT3G55130	ATWBC19|WBC19	-0.628061130101971	7.77411336938627	0.00025686929223258	0.0488536222034799	251785_at	TRUE	FALSE	white-brown complex homolog 19
AT1G49210	AT1G49210	-0.64040092838231	5.55891677950236	0.000219076211571414	0.0464102999666456	260748_at	TRUE	FALSE	RING/U-box superfamily protein
AT1G56150	AT1G56150	-0.640690868053379	6.11364965124853	0.00016972632982618	0.0409119854551099	262092_at	TRUE	FALSE	SAUR-like auxin-responsive protein family
AT4G36410	UBC17	-0.688409548230662	6.33485957877639	0.000151683626328207	0.0384433724060712	246195_at	TRUE	FALSE	ubiquitin-conjugating enzyme 17
AT4G12300	CYP706A4	-0.691883710747781	6.63605536224285	0.000138947993510388	0.0372871027290817	254834_at	TRUE	FALSE	cytochrome P450, family 706, subfamily A, polypeptide 4
AT1G32700	AT1G32700	-0.721942202454782	9.08320640752369	0.000171094458498686	0.0409119854551099	261711_at	TRUE	FALSE	PLATZ transcription factor family protein
AT4G30270	MERI5B|XTH24|MERI-5|SEN4	-0.727127813925669	11.4384693455983	7.0573976613467e-05	0.0257676487293904	253666_at	TRUE	FALSE	xyloglucan endotransglucosylase/hydrolase 24
AT1G80440	AT1G80440	-0.736868913104191	9.95601495950101	8.91368375061368e-05	0.0287712694019876	260287_at	TRUE	FALSE	Galactose oxidase/kelch repeat superfamily protein
AT3G18560	AT3G18560	-0.738010635034639	6.14496368668746	0.000138637934785387	0.0372871027290817	256799_at	TRUE	FALSE	unknown protein; BEST Arabidopsis thaliana protein match is: unknown protein (TAIR:AT1G49000.1); Has 95 Blast hits to 95 proteins in 13 species: Archae - 0; Bacteria - 0; Metazoa - 0; Fungi - 0; Plants - 95; Viruses - 0; Other Eukaryotes - 0 (source: NCBI BLink).
AT5G42680	AT5G42680	-0.74774979605017	7.44026279222824	0.000122920299244957	0.0350602513701973	249211_at	TRUE	FALSE	Protein of unknown function, DUF617
AT1G19530	AT1G19530	-0.753408130255381	4.57928493583855	0.000231995000369118	0.0481073268947236	260668_at	TRUE	FALSE	unknown protein; FUNCTIONS IN: molecular_function unknown; INVOLVED IN: N-terminal protein myristoylation, anaerobic respiration; LOCATED IN: cellular_component unknown; EXPRESSED IN: leaf apex, inflorescence meristem, hypocotyl, root, flower; EXPRESSED DURING: petal differentiation and expansion stage; Has 47 Blast hits to 47 proteins in 13 species: Archae - 0; Bacteria - 0; Metazoa - 0; Fungi - 0; Plants - 47; Viruses - 0; Other Eukaryotes - 0 (source: NCBI BLink).
AT3G56400	ATWRKY70|WRKY70	-0.76316243880788	8.52310125486156	0.00011420566873243	0.0338315753738536	251705_at	TRUE	FALSE	WRKY DNA-binding protein 70
AT1G78270	AtUGT85A4|UGT85A4	-0.767227641959255	7.61005956199149	9.20781528428363e-05	0.0287712694019876	260799_at	TRUE	FALSE	UDP-glucosyl transferase 85A4
AT3G11340	AT3G11340	-0.786437743556278	4.96845767037368	6.29868651620333e-05	0.0257676487293904	256252_at	TRUE	FALSE	UDP-Glycosyltransferase superfamily protein
AT5G57785	AT5G57785	-0.80294529711643	7.95848165160102	0.000225544951957361	0.0471989023316276	247882_at	TRUE	FALSE	unknown protein; Has 30201 Blast hits to 17322 proteins in 780 species: Archae - 12; Bacteria - 1396; Metazoa - 17338; Fungi - 3422; Plants - 5037; Viruses - 0; Other Eukaryotes - 2996 (source: NCBI BLink).
AT3G09020	AT3G09020	-0.81488127211688	3.79876176430239	6.52801780265507e-05	0.0257676487293904	259211_at	TRUE	FALSE	alpha 1,4-glycosyltransferase family protein
AT1G74940	AT1G74940	-0.816742066497185	7.71867495258356	2.33356415571105e-05	0.0136483585619921	262170_at	TRUE	FALSE	Protein of unknown function (DUF581)
AT1G76800	AT1G76800	-0.830214444609571	5.71529200572474	9.20551143142192e-05	0.0287712694019876	259871_at	TRUE	FALSE	Vacuolar iron transporter (VIT) family protein
AT4G23700	ATCHX17|CHX17	-0.835068944878582	4.9716948606233	0.000205187116016	0.0450030588108168	254215_at	TRUE	FALSE	cation/H+ exchanger 17
AT1G80920	J8	-0.849363055963874	10.3066620051874	0.000210567556941941	0.0457432949890064	261901_at	TRUE	FALSE	Chaperone DnaJ-domain superfamily protein
AT2G44130	AT2G44130	-0.884818201892305	6.72826028193452	0.000199311050455672	0.0450030588108168	267238_at	TRUE	FALSE	Galactose oxidase/kelch repeat superfamily protein
AT1G06160	ORA59	-0.908874725286725	8.07472807086251	6.50501078419402e-05	0.0257676487293904	260783_at	TRUE	FALSE	octadecanoid-responsive Arabidopsis AP2/ERF 59
AT5G07100	WRKY26	-0.946198272776525	6.3573838882359	0.000250352048666347	0.0486443739675453	250666_at	TRUE	FALSE	WRKY DNA-binding protein 26
AT1G23390	AT1G23390	-0.949495654354449	9.70878226934687	0.000251645599656744	0.0486443739675453	262986_at	TRUE	FALSE	Kelch repeat-containing F-box family protein
AT1G69490	NAP|ATNAP|ANAC029	-0.998468047317551	5.84072828359325	6.32836194760551e-05	0.0257676487293904	256300_at	TRUE	FALSE	NAC-like, activated by AP3/PI
AT2G01900	AT2G01900	-1.01007408722399	4.28646636384818	0.00017218547144632	0.0409119854551099	263596_at	TRUE	FALSE	DNAse I-like superfamily protein
AT5G22270	AT5G22270	-1.02644802760576	9.29210430542146	5.15958220864159e-05	0.0245819642579039	249941_at	TRUE	FALSE	unknown protein; BEST Arabidopsis thaliana protein match is: unknown protein (TAIR:AT3G11600.1); Has 136 Blast hits to 136 proteins in 15 species: Archae - 0; Bacteria - 0; Metazoa - 0; Fungi - 0; Plants - 136; Viruses - 0; Other Eukaryotes - 0 (source: NCBI BLink).
AT5G18130	AT5G18130	-1.03045506338175	7.30258944815111	7.11688675998069e-05	0.0257676487293904	250028_at	TRUE	FALSE	unknown protein; BEST Arabidopsis thaliana protein match is: unknown protein (TAIR:AT3G03870.2); Has 1807 Blast hits to 1807 proteins in 277 species: Archae - 0; Bacteria - 0; Metazoa - 736; Fungi - 347; Plants - 385; Viruses - 0; Other Eukaryotes - 339 (source: NCBI BLink).
AT4G12480	pEARLI 1	-1.03073631404289	7.91267134569101	7.42561562571838e-05	0.0264653581910369	254805_at	TRUE	FALSE	Bifunctional inhibitor/lipid-transfer protein/seed storage 2S albumin superfamily protein
AT4G12470	AZI1	-1.05653343475379	9.53762505726274	4.24170302865764e-05	0.0215007213519291	254818_at	TRUE	FALSE	azelaic acid induced 1
AT5G50760	AT5G50760	-1.12749668936545	4.93797423237283	1.58650941777861e-05	0.0109661453998576	248528_at	TRUE	FALSE	SAUR-like auxin-responsive protein family
AT4G14130	XTR7|XTH15	-1.17149715273308	7.12658171098079	9.2156198083214e-06	0.00824475410376214	245325_at	TRUE	FALSE	xyloglucan endotransglucosylase/hydrolase 15
AT5G45070	AtPP2-A8|PP2-A8	-1.17797570408047	5.84129306088499	0.000158786351322347	0.039368659496334	248978_at	TRUE	FALSE	phloem protein 2-A8
AT2G26560	PLA IIA|PLP2|PLA2A	-1.2238646169856	8.54151760435397	5.17909765027746e-05	0.0245819642579039	245038_at	TRUE	FALSE	phospholipase A 2A
AT3G13760	AT3G13760	-1.26811249921854	5.24840802688897	1.65252358220495e-05	0.0110864890912044	256774_at	TRUE	FALSE	Cysteine/Histidine-rich C1 domain family protein
AT5G54040	AT5G54040	-1.27982516968186	5.19347661604206	7.40907604797492e-06	0.00704170936059616	248183_at	TRUE	FALSE	Cysteine/Histidine-rich C1 domain family protein
AT1G78000	SULTR1;2|SEL1	-1.35067502009349	8.37294859232526	1.8415271110241e-05	0.0118375461070885	262133_at	TRUE	FALSE	sulfate transporter 1;2
AT3G04070	NAC047|anac047	-1.36183420009778	5.7824589782785	3.11214180806735e-05	0.0169018939623848	258809_at	TRUE	FALSE	NAC domain containing protein 47
AT1G77330	AT1G77330	-1.36395440387029	5.9173812251082	1.21492140272318e-05	0.0096499265336621	246390_at	TRUE	FALSE	2-oxoglutarate (2OG) and Fe(II)-dependent oxygenase superfamily protein
AT1G71030	ATMYBL2|MYBL2	-1.38715097122536	7.66796570571582	1.31431695417379e-05	0.00999318990823471	259751_at	TRUE	FALSE	MYB-like 2
AT3G01190	AT3G01190	-1.57667191645131	5.61911179615681	0.000143623391134889	0.0380403469805286	259276_at	TRUE	FALSE	Peroxidase superfamily protein
AT5G61160	AACT1	-1.88232120933094	5.25456540500582	3.8131121209264e-06	0.0044015440166846	247573_at	TRUE	FALSE	anthocyanin 5-aromatic acyltransferase 1
