INFO  @ Wed, 13 Aug 2014 14:39:55: 
# Command line: callpeak -f BAM -B -g 119667750 -q 0.01 --keep-dup auto -t Exp2_Mock_IP.bam -c Exp2_Mock_Input.bam -n Exp2_Mock
# ARGUMENTS LIST:
# name = Exp2_Mock
# format = BAM
# ChIP-seq file = ['Exp2_Mock_IP.bam']
# control file = ['Exp2_Mock_Input.bam']
# effective genome size = 1.20e+08
# band width = 300
# model fold = [5, 50]
# qvalue cutoff = 1.00e-02
# Larger dataset will be scaled towards smaller dataset.
# Range for calculating regional lambda is: 1000 bps and 10000 bps
# Broad region calling is off
 
INFO  @ Wed, 13 Aug 2014 14:39:55: #1 read tag files... 
INFO  @ Wed, 13 Aug 2014 14:39:55: #1 read treatment tags... 
INFO  @ Wed, 13 Aug 2014 14:39:58:  1000000 
INFO  @ Wed, 13 Aug 2014 14:40:01:  2000000 
INFO  @ Wed, 13 Aug 2014 14:40:03:  3000000 
INFO  @ Wed, 13 Aug 2014 14:40:06:  4000000 
INFO  @ Wed, 13 Aug 2014 14:40:08:  5000000 
INFO  @ Wed, 13 Aug 2014 14:40:11:  6000000 
INFO  @ Wed, 13 Aug 2014 14:40:14:  7000000 
INFO  @ Wed, 13 Aug 2014 14:40:16:  8000000 
INFO  @ Wed, 13 Aug 2014 14:40:19:  9000000 
INFO  @ Wed, 13 Aug 2014 14:40:22:  10000000 
INFO  @ Wed, 13 Aug 2014 14:40:24:  11000000 
INFO  @ Wed, 13 Aug 2014 14:40:26:  12000000 
INFO  @ Wed, 13 Aug 2014 14:40:29:  13000000 
INFO  @ Wed, 13 Aug 2014 14:40:31:  14000000 
INFO  @ Wed, 13 Aug 2014 14:40:33:  15000000 
INFO  @ Wed, 13 Aug 2014 14:40:35:  16000000 
INFO  @ Wed, 13 Aug 2014 14:40:37: #1.2 read input tags... 
INFO  @ Wed, 13 Aug 2014 14:40:39:  1000000 
INFO  @ Wed, 13 Aug 2014 14:40:42:  2000000 
INFO  @ Wed, 13 Aug 2014 14:40:44:  3000000 
INFO  @ Wed, 13 Aug 2014 14:40:47:  4000000 
INFO  @ Wed, 13 Aug 2014 14:40:50:  5000000 
INFO  @ Wed, 13 Aug 2014 14:40:52:  6000000 
INFO  @ Wed, 13 Aug 2014 14:40:55:  7000000 
INFO  @ Wed, 13 Aug 2014 14:40:57:  8000000 
INFO  @ Wed, 13 Aug 2014 14:41:00:  9000000 
INFO  @ Wed, 13 Aug 2014 14:41:02:  10000000 
INFO  @ Wed, 13 Aug 2014 14:41:05:  11000000 
INFO  @ Wed, 13 Aug 2014 14:41:07:  12000000 
INFO  @ Wed, 13 Aug 2014 14:41:10:  13000000 
INFO  @ Wed, 13 Aug 2014 14:41:13:  14000000 
INFO  @ Wed, 13 Aug 2014 14:41:15:  15000000 
INFO  @ Wed, 13 Aug 2014 14:41:18:  16000000 
INFO  @ Wed, 13 Aug 2014 14:41:20:  17000000 
INFO  @ Wed, 13 Aug 2014 14:41:23:  18000000 
INFO  @ Wed, 13 Aug 2014 14:41:25:  19000000 
INFO  @ Wed, 13 Aug 2014 14:41:28:  20000000 
INFO  @ Wed, 13 Aug 2014 14:41:30:  21000000 
INFO  @ Wed, 13 Aug 2014 14:41:33:  22000000 
INFO  @ Wed, 13 Aug 2014 14:41:36:  23000000 
INFO  @ Wed, 13 Aug 2014 14:41:38:  24000000 
INFO  @ Wed, 13 Aug 2014 14:41:41:  25000000 
INFO  @ Wed, 13 Aug 2014 14:41:43:  26000000 
INFO  @ Wed, 13 Aug 2014 14:41:46:  27000000 
INFO  @ Wed, 13 Aug 2014 14:41:48:  28000000 
INFO  @ Wed, 13 Aug 2014 14:41:51:  29000000 
INFO  @ Wed, 13 Aug 2014 14:41:54:  30000000 
INFO  @ Wed, 13 Aug 2014 14:41:56:  31000000 
INFO  @ Wed, 13 Aug 2014 14:41:59:  32000000 
INFO  @ Wed, 13 Aug 2014 14:42:01:  33000000 
INFO  @ Wed, 13 Aug 2014 14:42:04:  34000000 
INFO  @ Wed, 13 Aug 2014 14:42:06:  35000000 
INFO  @ Wed, 13 Aug 2014 14:42:09:  36000000 
INFO  @ Wed, 13 Aug 2014 14:42:11:  37000000 
INFO  @ Wed, 13 Aug 2014 14:42:14:  38000000 
INFO  @ Wed, 13 Aug 2014 14:42:17:  39000000 
INFO  @ Wed, 13 Aug 2014 14:42:19:  40000000 
INFO  @ Wed, 13 Aug 2014 14:42:22:  41000000 
INFO  @ Wed, 13 Aug 2014 14:42:24:  42000000 
INFO  @ Wed, 13 Aug 2014 14:42:27:  43000000 
INFO  @ Wed, 13 Aug 2014 14:42:29:  44000000 
INFO  @ Wed, 13 Aug 2014 14:42:32:  45000000 
INFO  @ Wed, 13 Aug 2014 14:42:34:  46000000 
INFO  @ Wed, 13 Aug 2014 14:42:36:  47000000 
INFO  @ Wed, 13 Aug 2014 14:42:39:  48000000 
INFO  @ Wed, 13 Aug 2014 14:42:41:  49000000 
INFO  @ Wed, 13 Aug 2014 14:42:43:  50000000 
INFO  @ Wed, 13 Aug 2014 14:42:45:  51000000 
INFO  @ Wed, 13 Aug 2014 14:42:47:  52000000 
INFO  @ Wed, 13 Aug 2014 14:42:50:  53000000 
INFO  @ Wed, 13 Aug 2014 14:42:52:  54000000 
INFO  @ Wed, 13 Aug 2014 14:42:54:  55000000 
INFO  @ Wed, 13 Aug 2014 14:42:56:  56000000 
INFO  @ Wed, 13 Aug 2014 14:42:59:  57000000 
INFO  @ Wed, 13 Aug 2014 14:43:01:  58000000 
INFO  @ Wed, 13 Aug 2014 14:43:03:  59000000 
INFO  @ Wed, 13 Aug 2014 14:43:05:  60000000 
INFO  @ Wed, 13 Aug 2014 14:43:07: #1 tag size is determined as 50 bps 
INFO  @ Wed, 13 Aug 2014 14:43:07: #1 tag size = 50 
INFO  @ Wed, 13 Aug 2014 14:43:07: #1  total tags in treatment: 10814507 
INFO  @ Wed, 13 Aug 2014 14:43:07: #1 calculate max duplicate tags in single position based on binomial distribution... 
INFO  @ Wed, 13 Aug 2014 14:43:07: #1  max_dup_tags based on binomial = 3 
INFO  @ Wed, 13 Aug 2014 14:43:07: #1 filter out redundant tags at the same location and the same strand by allowing at most 3 tag(s) 
INFO  @ Wed, 13 Aug 2014 14:43:09: #1  tags after filtering in treatment: 9815645 
INFO  @ Wed, 13 Aug 2014 14:43:09: #1  Redundant rate of treatment: 0.09 
INFO  @ Wed, 13 Aug 2014 14:43:09: #1  total tags in control: 46372012 
INFO  @ Wed, 13 Aug 2014 14:43:09: #1  for control, calculate max duplicate tags in single position based on binomial distribution... 
INFO  @ Wed, 13 Aug 2014 14:43:09: #1  max_dup_tags based on binomial = 5 
INFO  @ Wed, 13 Aug 2014 14:43:09: #1 filter out redundant tags at the same location and the same strand by allowing at most 3 tag(s) 
INFO  @ Wed, 13 Aug 2014 14:43:16: #1  tags after filtering in control: 44336693 
INFO  @ Wed, 13 Aug 2014 14:43:16: #1  Redundant rate of control: 0.04 
INFO  @ Wed, 13 Aug 2014 14:43:16: #1 finished! 
INFO  @ Wed, 13 Aug 2014 14:43:16: #2 Build Peak Model... 
INFO  @ Wed, 13 Aug 2014 14:43:18: #2 number of paired peaks: 534 
WARNING @ Wed, 13 Aug 2014 14:43:18: Fewer paired peaks (534) than 1000! Model may not be build well! Lower your MFOLD parameter may erase this warning. Now I will use 534 pairs to build model! 
INFO  @ Wed, 13 Aug 2014 14:43:18: start model_add_line... 
INFO  @ Wed, 13 Aug 2014 14:43:22: start X-correlation... 
INFO  @ Wed, 13 Aug 2014 14:43:22: end of X-cor 
INFO  @ Wed, 13 Aug 2014 14:43:22: #2 finished! 
INFO  @ Wed, 13 Aug 2014 14:43:22: #2 predicted fragment length is 251 bps 
INFO  @ Wed, 13 Aug 2014 14:43:22: #2 alternative fragment length(s) may be 251 bps 
INFO  @ Wed, 13 Aug 2014 14:43:22: #2.2 Generate R script for model : Exp2_Mock_model.r 
INFO  @ Wed, 13 Aug 2014 14:43:22: #3 Call peaks... 
INFO  @ Wed, 13 Aug 2014 14:43:22: #3 Pre-compute pvalue-qvalue table... 
INFO  @ Wed, 13 Aug 2014 14:46:55: #3 In the peak calling step, the following will be performed simultaneously: 
INFO  @ Wed, 13 Aug 2014 14:46:55: #3   Write bedGraph files for treatment pileup (after scaling if necessary)... Exp2_Mock_treat_pileup.bdg 
INFO  @ Wed, 13 Aug 2014 14:46:55: #3   Write bedGraph files for control lambda (after scaling if necessary)... Exp2_Mock_control_lambda.bdg 
INFO  @ Wed, 13 Aug 2014 14:46:55: #3   Pileup will be based on sequencing depth in treatment. 
INFO  @ Wed, 13 Aug 2014 14:46:55: #3 Call peaks for each chromosome... 
INFO  @ Wed, 13 Aug 2014 15:11:48: #4 Write output xls file... Exp2_Mock_peaks.xls 
INFO  @ Wed, 13 Aug 2014 15:11:48: #4 Write peak in narrowPeak format file... Exp2_Mock_peaks.narrowPeak 
INFO  @ Wed, 13 Aug 2014 15:11:48: #4 Write summits bed file... Exp2_Mock_summits.bed 
INFO  @ Wed, 13 Aug 2014 15:11:48: Done! 
