p.name	Primary	Secondary	Tertiary
chr1:10078591-10078791	0	0	8
chr1:10823586-10823786	7	0	0
chr1:11472473-11472673	0	8	0
chr1:11737671-11737871	0	8	0
chr1:11810430-11810630	0	7	0
chr1:11872579-11872779	0	7	0
chr1:12064539-12064739	0	7	0
chr1:12376506-12376706	0	0	6
chr1:12454564-12454764	0	0	8
chr1:12503896-12504096	7	0	0
chr1:12548359-12548559	7	0	0
chr1:12661645-12661845	7	0	0
chr1:12685469-12685669	0	7	0
chr1:13900308-13900508	0	7	0
chr1:14165840-14166040	7	8	0
chr1:158564-158764	0	0	7
chr1:16766241-16766441	7	0	0
chr1:16798429-16798629	0	7	0
chr1:17178853-17179053	0	0	6
chr1:17645118-17645318	0	0	6
chr1:17918801-17919001	0	7	0
chr1:18047256-18047456	7	0	0
chr1:18195442-18195642	0	7	0
chr1:18517700-18517900	0	7	0
chr1:19204129-19204329	0	8	0
chr1:19313557-19313757	7	0	0
chr1:19442388-19442588	7	0	0
chr1:19698122-19698322	0	7	0
chr1:19776547-19776747	0	7	0
chr1:19819756-19819956	0	8	0
chr1:20193166-20193366	7	0	0
chr1:20762975-20763175	0	7	0
chr1:21541151-21541351	0	7	0
chr1:21542793-21542993	0	8	0
chr1:21679398-21679598	0	7	0
chr1:22070465-22070665	0	0	8
chr1:22356258-22356458	0	7	0
chr1:2248894-2249094	7	0	0
chr1:22565635-22565835	7	0	0
chr1:22627492-22627692	0	7	0
chr1:22663940-22664140	7	0	0
chr1:22767241-22767441	0	0	6
chr1:2278075-2278275	0	0	6
chr1:22928564-22928764	7	0	0
chr1:23158175-23158375	7	0	0
chr1:23425834-23426034	0	7	0
chr1:23544581-23544781	0	7	0
chr1:23618777-23618977	0	7	0
chr1:23637076-23637276	7	0	0
chr1:23816650-23816850	0	8	0
chr1:2395623-2395823	7	0	0
chr1:23974024-23974224	0	7	0
chr1:24113659-24113859	0	7	0
chr1:2421547-2421747	0	8	0
chr1:24251910-24252110	0	7	0
chr1:24489718-24489918	0	7	0
chr1:24519248-24519448	0	0	6
chr1:24686899-24687099	0	7	0
chr1:25308048-25308248	0	8	0
chr1:25391915-25392115	0	7	0
chr1:25691804-25692004	0	7	0
chr1:25707322-25707522	0	7	0
chr1:26043413-26043613	0	7	0
chr1:26050235-26050435	0	7	0
chr1:26127600-26127800	7	0	0
chr1:26332333-26332533	7	0	0
chr1:26565760-26565960	7	0	0
chr1:26618732-26618932	7	0	6
chr1:26726118-26726318	0	0	7
chr1:26841682-26841882	0	7	0
chr1:27097656-27097856	0	0	6
chr1:271205-271405	7	8	0
chr1:27258245-27258445	7	0	0
chr1:27318996-27319196	0	0	7
chr1:27390274-27390474	7	0	0
chr1:27430468-27430668	0	7	0
chr1:27632026-27632226	0	0	7
chr1:27647349-27647549	7	0	0
chr1:28027599-28027799	0	7	0
chr1:28052699-28052899	7	0	0
chr1:28143584-28143784	7	0	0
chr1:28171366-28171566	7	0	0
chr1:28281055-28281255	0	7	0
chr1:28394741-28394941	7	0	0
chr1:28431007-28431207	7	0	0
chr1:28668683-28668883	0	7	0
chr1:28863408-28863608	0	0	6
chr1:28906863-28907063	0	7	0
chr1:28999278-28999478	0	0	7
chr1:29247686-29247886	7	0	0
chr1:2929539-2929739	0	0	6
chr1:29780249-29780449	0	0	6
chr1:30035986-30036186	7	0	0
chr1:30098625-30098825	0	7	0
chr1:30216675-30216875	7	0	0
chr1:30358739-30358939	7	0	0
chr1:30400921-30401121	7	0	0
chr1:4495255-4495455	0	0	7
chr1:4526414-4526614	0	7	0
chr1:4631173-4631373	0	7	0
chr1:476483-476683	0	7	0
chr1:4767971-4768171	0	7	7
chr1:4914369-4914569	0	7	0
chr1:5146035-5146235	0	7	0
chr1:5206540-5206740	7	0	0
chr1:5384852-5385052	7	0	0
chr1:5642558-5642758	7	0	0
chr1:6254138-6254338	7	0	0
chr1:6362121-6362321	0	0	6
chr1:6653206-6653406	0	7	0
chr1:6698769-6698969	0	0	6
chr1:6729193-6729393	0	0	6
chr1:6960778-6960978	0	0	6
chr1:7091501-7091701	7	0	0
chr1:7335212-7335412	7	0	0
chr1:7532941-7533141	0	7	0
chr1:7754714-7754914	7	0	7
chr1:7837887-7838087	7	0	0
chr1:7975865-7976065	0	7	0
chr1:7990928-7991128	0	0	6
chr1:8074436-8074636	7	0	0
chr1:8098884-8099084	0	7	0
chr1:8337050-8337250	0	7	0
chr1:8531832-8532032	0	0	6
chr1:8726676-8726876	7	0	0
chr1:8864238-8864438	7	0	0
chr1:8924509-8924709	7	0	0
chr1:904199-904399	0	8	0
chr1:9507907-9508107	7	0	0
chr1:9605577-9605777	7	0	0
chr1:9886554-9886754	0	0	6
chr2:10373962-10374162	0	0	7
chr2:11149848-11150048	0	7	0
chr2:1120398-1120598	7	0	0
chr2:11329929-11330129	7	0	0
chr2:11777007-11777207	0	7	0
chr2:12114248-12114448	0	0	6
chr2:12198957-12199157	0	0	6
chr2:12408583-12408783	0	0	6
chr2:12411609-12411809	0	7	0
chr2:12703630-12703830	0	0	7
chr2:12710932-12711132	7	0	0
chr2:13136541-13136741	7	0	0
chr2:13142898-13143098	0	7	0
chr2:13333278-13333478	7	0	0
chr2:13807462-13807662	7	0	0
chr2:13887282-13887482	0	7	0
chr2:13892061-13892261	0	7	0
chr2:14156205-14156405	0	0	7
chr2:14223613-14223813	0	8	0
chr2:14488837-14489037	0	0	6
chr2:14630574-14630774	7	0	0
chr2:14738045-14738245	0	7	0
chr2:15298625-15298825	0	7	0
chr2:15592970-15593170	0	7	0
chr2:15719209-15719409	0	8	0
chr2:1585713-1585913	0	7	0
chr2:16602702-16602902	7	0	0
chr2:16864410-16864610	0	7	0
chr2:16970287-16970487	0	7	0
chr2:17135801-17136001	0	0	6
chr2:17165131-17165331	0	0	6
chr2:17177005-17177205	7	0	0
chr2:17210977-17211177	7	0	0
chr2:17230870-17231070	7	0	0
chr2:17810021-17810221	7	0	0
chr2:18322513-18322713	0	0	7
chr2:18587815-18588015	7	0	0
chr2:18641781-18641981	0	0	7
chr2:19005286-19005486	7	0	0
chr2:19015944-19016144	0	0	6
chr2:19079184-19079384	0	0	6
chr2:19378149-19378349	7	0	0
chr2:19475904-19476104	0	7	7
chr2:19487739-19487939	7	7	0
chr2:19541314-19541514	0	0	6
chr2:2764051-2764251	0	8	0
chr2:5925653-5925853	0	0	6
chr2:6608743-6608943	0	7	0
chr2:7804420-7804620	0	8	8
chr2:7910611-7910811	0	7	0
chr2:8027607-8027807	0	0	6
chr2:8705958-8706158	0	7	0
chr2:8725547-8725747	7	0	0
chr2:9449492-9449692	0	0	6
chr2:9790654-9790854	0	7	0
chr2:9819453-9819653	0	0	6
chr3:10019212-10019412	7	0	0
chr3:10073294-10073494	0	8	0
chr3:10142349-10142549	7	0	0
chr3:10209917-10210117	7	0	0
chr3:10288035-10288235	0	7	0
chr3:10517478-10517678	0	0	7
chr3:1269280-1269480	0	8	0
chr3:1456637-1456837	0	7	0
chr3:16293568-16293768	0	7	0
chr3:16413179-16413379	7	0	6
chr3:16819078-16819278	0	7	0
chr3:16909481-16909681	0	7	0
chr3:16922780-16922980	7	0	0
chr3:17050992-17051192	0	0	7
chr3:17126318-17126518	7	0	0
chr3:17383601-17383801	0	7	0
chr3:17624447-17624647	0	0	7
chr3:17777814-17778014	7	0	0
chr3:18035264-18035464	0	7	0
chr3:18046577-18046777	7	0	0
chr3:1814418-1814618	7	0	0
chr3:18628387-18628587	0	0	7
chr3:1871910-1872110	0	7	0
chr3:18855720-18855920	0	7	0
chr3:18937467-18937667	0	7	0
chr3:1915284-1915484	0	7	0
chr3:19255167-19255367	7	0	0
chr3:1936055-1936255	7	0	0
chr3:1952016-1952216	0	8	0
chr3:19930490-19930690	0	7	0
chr3:20258886-20259086	0	8	0
chr3:20395640-20395840	7	0	0
chr3:20908916-20909116	7	0	0
chr3:21139812-21140012	0	7	0
chr3:21217325-21217525	0	0	6
chr3:21305316-21305516	0	7	0
chr3:21715744-21715944	0	7	0
chr3:21720250-21720450	0	8	0
chr3:21948645-21948845	0	7	0
chr3:22045552-22045752	7	0	0
chr3:22051691-22051891	7	0	0
chr3:22331845-22332045	0	8	8
chr3:22603372-22603572	0	8	0
chr3:22835553-22835753	7	0	0
chr3:22983886-22984086	7	0	0
chr3:23142645-23142845	0	8	0
chr3:23232596-23232796	0	0	7
chr3:23348697-23348897	7	0	0
chr3:2484142-2484342	7	0	0
chr3:2490593-2490793	7	0	0
chr3:2491095-2491295	7	0	0
chr3:2564968-2565168	7	0	0
chr3:259367-259567	7	0	0
chr3:2863873-2864073	0	0	7
chr3:3303202-3303402	0	0	6
chr3:360587-360787	0	0	7
chr3:363996-364196	0	8	0
chr3:3708983-3709183	7	0	0
chr3:3732985-3733185	0	0	7
chr3:4448480-4448680	0	7	0
chr3:4545027-4545227	7	0	0
chr3:4612863-4613063	7	0	0
chr3:4772533-4772733	0	0	7
chr3:499764-499964	0	0	6
chr3:5186658-5186858	0	0	6
chr3:5615029-5615229	7	0	0
chr3:5891719-5891919	7	0	0
chr3:6440614-6440814	7	0	0
chr3:6796512-6796712	0	0	7
chr3:7065909-7066109	7	7	0
chr3:7305952-7306152	0	7	0
chr3:7312920-7313120	0	7	0
chr3:7593895-7594095	0	7	0
chr3:7816639-7816839	7	0	0
chr3:7833498-7833698	0	0	6
chr3:8086509-8086709	7	0	0
chr3:821220-821420	0	0	7
chr3:8305709-8305909	0	0	6
chr3:8517204-8517404	0	0	7
chr3:8530898-8531098	0	7	0
chr3:8873888-8874088	0	7	0
chr3:8902251-8902451	0	0	7
chr3:9043355-9043555	0	7	0
chr3:9516892-9517092	7	0	0
chr3:9538256-9538456	0	0	6
chr3:9574866-9575066	7	0	0
chr4:10157731-10157931	0	7	0
chr4:1102102-1102302	0	7	0
chr4:11120628-11120828	7	0	0
chr4:11278146-11278346	7	0	0
chr4:11412464-11412664	7	0	0
chr4:11473226-11473426	0	7	0
chr4:11627088-11627288	0	0	6
chr4:11637428-11637628	7	0	0
chr4:1229167-1229367	0	7	0
chr4:12327800-12328000	0	0	6
chr4:12606071-12606271	0	0	7
chr4:12614145-12614345	7	0	0
chr4:12869551-12869751	0	8	0
chr4:1307159-1307359	0	0	6
chr4:13393895-13394095	0	8	0
chr4:13405935-13406135	7	0	0
chr4:13454934-13455134	0	8	0
chr4:13853487-13853687	0	0	6
chr4:13861676-13861876	0	0	6
chr4:13873467-13873667	7	0	0
chr4:14015047-14015247	7	0	0
chr4:14050370-14050570	7	0	0
chr4:14110072-14110272	7	0	0
chr4:14198765-14198965	7	0	0
chr4:1470280-1470480	0	7	0
chr4:14850832-14851032	7	0	0
chr4:14865436-14865636	7	0	0
chr4:15248797-15248997	7	0	0
chr4:15589631-15589831	7	0	0
chr4:1573230-1573430	0	8	0
chr4:15755453-15755653	7	0	0
chr4:15902735-15902935	7	0	0
chr4:16052307-16052507	0	0	6
chr4:16052760-16052960	0	7	0
chr4:16524990-16525190	0	8	0
chr4:16685011-16685211	0	0	6
chr4:16776667-16776867	7	0	0
chr4:16873992-16874192	0	7	0
chr4:17335593-17335793	0	7	0
chr4:17590665-17590865	7	0	0
chr4:18034543-18034743	0	7	0
chr4:18190005-18190205	7	0	0
chr4:18376829-18377029	7	0	0
chr4:18433357-18433557	7	0	0
chr4:2415879-2416079	7	0	0
chr4:2439209-2439409	7	8	0
chr4:2718418-2718618	0	7	0
chr4:332077-332277	7	0	0
chr4:386333-386533	0	7	0
chr4:537738-537938	0	0	7
chr4:5403254-5403454	7	0	0
chr4:638800-639000	0	7	0
chr4:6430434-6430634	0	0	7
chr4:7215024-7215224	0	7	0
chr4:728284-728484	0	0	8
chr4:7369658-7369858	0	7	0
chr4:7490846-7491046	0	7	0
chr4:7719131-7719331	0	8	0
chr4:8188945-8189145	0	8	7
chr4:8716741-8716941	7	0	6
chr4:8875259-8875459	0	8	0
chr4:8880016-8880216	7	0	0
chr4:9132654-9132854	7	0	0
chr4:9133163-9133363	0	8	0
chr4:9905585-9905785	0	0	6
chr4:995332-995532	7	0	0
chr5:10292566-10292766	7	0	0
chr5:1174727-1174927	7	0	0
chr5:1250035-1250235	0	7	6
chr5:13672835-13673035	0	7	0
chr5:13900903-13901103	0	0	6
chr5:1403513-1403713	0	0	6
chr5:1475940-1476140	0	7	0
chr5:1523502-1523702	0	7	0
chr5:1550935-1551135	0	0	6
chr5:15644306-15644506	7	0	7
chr5:15931444-15931644	7	0	0
chr5:15974482-15974682	0	7	0
chr5:15975824-15976024	0	7	0
chr5:16058129-16058329	7	0	0
chr5:16202743-16202943	7	0	0
chr5:16333019-16333219	7	0	0
chr5:16367111-16367311	7	0	0
chr5:16390946-16391146	7	0	0
chr5:16580287-16580487	0	7	0
chr5:17453893-17454093	0	8	0
chr5:17551530-17551730	0	7	0
chr5:17800503-17800703	0	7	0
chr5:17809382-17809582	0	7	0
chr5:18585207-18585407	0	7	0
chr5:18698157-18698357	0	7	0
chr5:18793175-18793375	7	0	0
chr5:19115845-19116045	0	0	6
chr5:1919605-1919805	0	0	7
chr5:19235997-19236197	0	0	7
chr5:19439423-19439623	0	7	0
chr5:19442397-19442597	0	8	0
chr5:19525695-19525895	0	0	6
chr5:19612261-19612461	7	0	0
chr5:19628348-19628548	0	7	0
chr5:20049006-20049206	0	7	0
chr5:207458-207658	0	0	6
chr5:20820121-20820321	0	0	6
chr5:20936205-20936405	7	0	0
chr5:21072149-21072349	0	0	7
chr5:21282525-21282725	7	0	0
chr5:21330201-21330401	7	0	6
chr5:2134132-2134332	7	0	0
chr5:21571451-21571651	7	0	0
chr5:21593682-21593882	0	7	0
chr5:21665171-21665371	0	7	0
chr5:21728737-21728937	0	7	0
chr5:22053923-22054123	7	0	0
chr5:221728-221928	7	0	0
chr5:22226028-22226228	0	8	0
chr5:22227883-22228083	0	8	0
chr5:22459689-22459889	0	8	0
chr5:22777899-22778099	7	0	0
chr5:23051412-23051612	7	0	0
chr5:23280445-23280645	7	0	0
chr5:23384029-23384229	7	0	0
chr5:23421901-23422101	7	0	0
chr5:23450329-23450529	7	0	0
chr5:23841288-23841488	7	0	0
chr5:23934942-23935142	7	0	0
chr5:24000668-24000868	7	0	0
chr5:24317497-24317697	0	7	7
chr5:24643454-24643654	0	7	0
chr5:24763707-24763907	0	7	0
chr5:24772175-24772375	0	7	0
chr5:2501235-2501435	0	7	0
chr5:25081911-25082111	0	7	0
chr5:25089385-25089585	0	7	0
chr5:25417630-25417830	0	7	0
chr5:25749070-25749270	0	7	0
chr5:26004758-26004958	7	0	0
chr5:26227845-26228045	7	0	7
chr5:26310762-26310962	7	0	0
chr5:26362673-26362873	0	7	0
chr5:264114-264314	7	0	6
chr5:26575113-26575313	0	0	6
chr5:26616391-26616591	0	7	0
chr5:2666143-2666343	0	0	6
chr5:26688485-26688685	7	0	0
chr5:26743806-26744006	0	7	0
chr5:26862214-26862414	0	8	0
chr5:26906239-26906439	0	8	0
chr5:26921771-26921971	0	7	0
chr5:26967437-26967637	0	0	6
chr5:27222-27422	0	0	6
chr5:2985819-2986019	0	7	0
chr5:3244201-3244401	0	0	6
chr5:325470-325670	7	0	0
chr5:3336575-3336775	7	8	0
chr5:3423912-3424112	0	7	0
chr5:35228-35428	7	0	0
chr5:4093046-4093246	7	0	0
chr5:4155689-4155889	0	8	0
chr5:4171474-4171674	0	0	6
chr5:4181011-4181211	7	0	0
chr5:4530587-4530787	0	7	0
chr5:4543017-4543217	0	7	0
chr5:4828876-4829076	0	8	0
chr5:4871693-4871893	0	7	0
chr5:5012254-5012454	0	8	0
chr5:5227191-5227391	0	0	6
chr5:5264503-5264703	7	0	0
chr5:5337634-5337834	0	7	0
chr5:5459968-5460168	7	0	0
chr5:5510319-5510519	0	8	0
chr5:5866119-5866319	0	0	6
chr5:6040308-6040508	7	0	0
chr5:6225539-6225739	0	0	6
chr5:657570-657770	0	0	6
chr5:6810951-6811151	7	0	0
chr5:6994676-6994876	0	8	0
chr5:7047298-7047498	7	0	0
chr5:7114075-7114275	7	0	0
chr5:7173841-7174041	7	0	0
chr5:7217118-7217318	7	0	0
chr5:7855612-7855812	7	0	0
chr5:7927289-7927489	7	0	0
chr5:8125761-8125961	7	0	0
chr5:8240018-8240218	0	0	6
chr5:8921050-8921250	0	7	0
chr5:9046107-9046307	0	7	0
chr5:973227-973427	0	0	6
chr5:9987383-9987583	0	0	7
