p.name	Primary	Secondary	Tertiary
Exp1_Rep1_peak_10035,Exp1_Rep2_peak_10421,Exp2_BA_peak_8796	0	0	7
Exp1_Rep1_peak_10058,Exp1_Rep2_peak_10444,Exp2_BA_peak_8822	7	0	0
Exp1_Rep1_peak_10079,Exp1_Rep2_peak_10462,Exp2_BA_peak_8837	7	0	0
Exp1_Rep1_peak_10104,Exp2_BA_peak_8860,Exp1_Rep2_peak_10483	0	0	6
Exp1_Rep1_peak_10116,Exp1_Rep2_peak_10493,Exp2_BA_peak_8872	0	7	0
Exp1_Rep1_peak_1014,Exp1_Rep2_peak_1145,Exp2_BA_peak_941	7	0	0
Exp1_Rep1_peak_1018,Exp1_Rep2_peak_1150,Exp2_BA_peak_944	0	7	0
Exp1_Rep1_peak_10203,Exp1_Rep2_peak_10582,Exp2_BA_peak_8945	0	0	6
Exp1_Rep1_peak_10274,Exp1_Rep2_peak_10651,Exp2_BA_peak_9009	7	7	0
Exp1_Rep1_peak_10293,Exp1_Rep2_peak_10674,Exp2_BA_peak_9026	7	0	0
Exp1_Rep1_peak_10326,Exp1_Rep2_peak_10705,Exp2_BA_peak_9056	7	0	0
Exp1_Rep1_peak_10402,Exp1_Rep2_peak_10785,Exp2_BA_peak_9146	7	0	0
Exp1_Rep1_peak_10420,Exp2_BA_peak_9163,Exp1_Rep2_peak_10807	0	0	6
Exp1_Rep1_peak_10431,Exp1_Rep2_peak_10815,Exp2_BA_peak_9168	7	0	0
Exp1_Rep1_peak_10506,Exp1_Rep2_peak_10913,Exp2_BA_peak_9238	0	0	6
Exp1_Rep1_peak_10515,Exp2_BA_peak_9246,Exp1_Rep2_peak_10920	7	0	0
Exp1_Rep1_peak_10547,Exp1_Rep2_peak_10952,Exp2_BA_peak_9271	0	7	0
Exp1_Rep1_peak_10669,Exp2_BA_peak_9380,Exp1_Rep2_peak_11061	0	8	0
Exp1_Rep1_peak_10697,Exp2_BA_peak_9406,Exp1_Rep2_peak_11088	0	0	8
Exp1_Rep1_peak_10708,Exp2_BA_peak_9416,Exp1_Rep2_peak_11099	0	7	0
Exp1_Rep1_peak_10753,Exp2_BA_peak_9452,Exp1_Rep2_peak_11135	7	0	0
Exp1_Rep1_peak_1079,Exp1_Rep2_peak_1209,Exp2_BA_peak_999	0	0	7
Exp1_Rep1_peak_10898,Exp1_Rep2_peak_11277,Exp2_BA_peak_9582	0	0	6
Exp1_Rep1_peak_10909,Exp1_Rep2_peak_11286,Exp2_BA_peak_9593	7	0	0
Exp1_Rep1_peak_10977,Exp2_BA_peak_9655,Exp1_Rep2_peak_11355	0	8	0
Exp1_Rep1_peak_10993,Exp1_Rep2_peak_11369,Exp2_BA_peak_9668	0	7	0
Exp1_Rep1_peak_11114,Exp1_Rep2_peak_11485,Exp2_BA_peak_9782	0	0	6
Exp1_Rep1_peak_1113,Exp2_BA_peak_1024,Exp1_Rep2_peak_1246	0	7	0
Exp1_Rep1_peak_11303,Exp2_BA_peak_9957,Exp1_Rep2_peak_11678	0	0	7
Exp1_Rep1_peak_1132,Exp1_Rep2_peak_1265,Exp2_BA_peak_1034	7	0	0
Exp1_Rep1_peak_1208,Exp2_BA_peak_1096,Exp1_Rep2_peak_1338	0	0	6
Exp1_Rep1_peak_127,Exp1_Rep2_peak_149,Exp2_BA_peak_106	0	0	6
Exp1_Rep1_peak_1319,Exp1_Rep2_peak_1444,Exp2_BA_peak_1196	7	8	0
Exp1_Rep1_peak_1324,Exp2_BA_peak_1201,Exp1_Rep2_peak_1449	0	7	0
Exp1_Rep1_peak_1390,Exp1_Rep2_peak_1506,Exp2_BA_peak_1249	7	0	0
Exp1_Rep1_peak_1398,Exp2_BA_peak_1255,Exp1_Rep2_peak_1511	0	0	6
Exp1_Rep1_peak_142,Exp1_Rep2_peak_160,Exp2_BA_peak_117	0	7	0
Exp1_Rep1_peak_151,Exp1_Rep2_peak_168,Exp2_BA_peak_124	7	0	0
Exp1_Rep1_peak_1595,Exp1_Rep2_peak_1711,Exp2_BA_peak_1428	0	7	0
Exp1_Rep1_peak_16,Exp1_Rep2_peak_15,Exp2_BA_peak_12	7	0	0
Exp1_Rep1_peak_1601,Exp2_BA_peak_1433,Exp1_Rep2_peak_1715	0	0	7
Exp1_Rep1_peak_1692,Exp1_Rep2_peak_1814,Exp2_BA_peak_1504	0	0	6
Exp1_Rep1_peak_1926,Exp1_Rep2_peak_2029,Exp2_BA_peak_1716	0	0	8
Exp1_Rep1_peak_1963,Exp1_Rep2_peak_2072,Exp2_BA_peak_1751	0	7	0
Exp1_Rep1_peak_2097,Exp1_Rep2_peak_2200,Exp2_BA_peak_1867	0	7	0
Exp1_Rep1_peak_2116,Exp2_BA_peak_1887,Exp1_Rep2_peak_2218	0	7	0
Exp1_Rep1_peak_2148,Exp1_Rep2_peak_2259,Exp2_BA_peak_1921	0	7	0
Exp1_Rep1_peak_2164,Exp1_Rep2_peak_2273,Exp2_BA_peak_1934	7	0	0
Exp1_Rep1_peak_2172,Exp1_Rep2_peak_2282,Exp2_BA_peak_1940	7	0	0
Exp1_Rep1_peak_218,Exp1_Rep2_peak_252,Exp2_BA_peak_189	7	0	0
Exp1_Rep1_peak_2181,Exp2_BA_peak_1947,Exp1_Rep2_peak_2291	0	7	0
Exp1_Rep1_peak_2315,Exp2_BA_peak_2056,Exp1_Rep2_peak_2399	0	7	0
Exp1_Rep1_peak_2319,Exp2_BA_peak_2059,Exp1_Rep2_peak_2404	0	8	0
Exp1_Rep1_peak_2324,Exp1_Rep2_peak_2411,Exp2_BA_peak_2066	0	7	0
Exp1_Rep1_peak_2353,Exp2_BA_peak_2088,Exp1_Rep2_peak_2438	7	0	0
Exp1_Rep1_peak_2499,Exp1_Rep2_peak_2568,Exp2_BA_peak_2219	0	7	0
Exp1_Rep1_peak_2538,Exp2_BA_peak_2251,Exp1_Rep2_peak_2607	7	8	6
Exp1_Rep1_peak_2606,Exp2_BA_peak_2307,Exp1_Rep2_peak_2682	0	8	0
Exp1_Rep1_peak_2665,Exp1_Rep2_peak_2751,Exp2_BA_peak_2356	7	0	0
Exp1_Rep1_peak_2671,Exp1_Rep2_peak_2758,Exp2_BA_peak_2359	0	8	7
Exp1_Rep1_peak_2673,Exp1_Rep2_peak_2762,Exp2_BA_peak_2362	7	0	0
Exp1_Rep1_peak_2701,Exp1_Rep2_peak_2789,Exp2_BA_peak_2384	0	0	6
Exp1_Rep1_peak_2722,Exp2_BA_peak_2402,Exp1_Rep2_peak_2809	0	7	0
Exp1_Rep1_peak_2792,Exp1_Rep2_peak_2885,Exp2_BA_peak_2470	7	7	0
Exp1_Rep1_peak_282,Exp1_Rep2_peak_323,Exp2_BA_peak_245	7	0	0
Exp1_Rep1_peak_2853,Exp2_BA_peak_2525,Exp1_Rep2_peak_2950	7	0	0
Exp1_Rep1_peak_2899,Exp1_Rep2_peak_2994,Exp2_BA_peak_2562	7	0	0
Exp1_Rep1_peak_2925,Exp1_Rep2_peak_3027,Exp2_BA_peak_2588	0	8	0
Exp1_Rep1_peak_303,Exp2_BA_peak_263,Exp1_Rep2_peak_343	7	0	0
Exp1_Rep1_peak_3064,Exp1_Rep2_peak_3173,Exp2_BA_peak_2712	7	0	0
Exp1_Rep1_peak_3111,Exp2_BA_peak_2756,Exp1_Rep2_peak_3234	0	8	0
Exp1_Rep1_peak_3117,Exp1_Rep2_peak_3241,Exp2_BA_peak_2764	7	0	0
Exp1_Rep1_peak_3143,Exp2_BA_peak_2789,Exp1_Rep2_peak_3273	0	0	6
Exp1_Rep1_peak_3195,Exp1_Rep2_peak_3321,Exp2_BA_peak_2834	0	8	8
Exp1_Rep1_peak_3228,Exp2_BA_peak_2862,Exp1_Rep2_peak_3350	0	7	0
Exp1_Rep1_peak_3231,Exp2_BA_peak_2865,Exp1_Rep2_peak_3353	7	0	0
Exp1_Rep1_peak_3235,Exp1_Rep2_peak_3359,Exp2_BA_peak_2868	0	8	0
Exp1_Rep1_peak_3257,Exp1_Rep2_peak_3381,Exp2_BA_peak_2892	0	8	0
Exp1_Rep1_peak_3262,Exp2_BA_peak_2893,Exp1_Rep2_peak_3384	0	7	0
Exp1_Rep1_peak_3291,Exp2_BA_peak_2912,Exp1_Rep2_peak_3408	0	7	0
Exp1_Rep1_peak_3300,Exp1_Rep2_peak_3417,Exp2_BA_peak_2919	7	0	0
Exp1_Rep1_peak_3306,Exp2_BA_peak_2925,Exp1_Rep2_peak_3421	7	0	0
Exp1_Rep1_peak_3324,Exp2_BA_peak_2938,Exp1_Rep2_peak_3439	0	7	0
Exp1_Rep1_peak_3486,Exp1_Rep2_peak_3592,Exp2_BA_peak_3076	0	7	0
Exp1_Rep1_peak_3499,Exp2_BA_peak_3087,Exp1_Rep2_peak_3602	7	0	0
Exp1_Rep1_peak_3516,Exp1_Rep2_peak_3616,Exp2_BA_peak_3097	7	0	0
Exp1_Rep1_peak_3559,Exp1_Rep2_peak_3668,Exp2_BA_peak_3137	0	8	0
Exp1_Rep1_peak_3564,Exp2_BA_peak_3141,Exp1_Rep2_peak_3672	0	0	6
Exp1_Rep1_peak_364,Exp2_BA_peak_324,Exp1_Rep2_peak_416	0	0	8
Exp1_Rep1_peak_3644,Exp2_BA_peak_3214,Exp1_Rep2_peak_3757	7	0	0
Exp1_Rep1_peak_3646,Exp1_Rep2_peak_3759,Exp2_BA_peak_3217	0	0	6
Exp1_Rep1_peak_3807,Exp1_Rep2_peak_3919,Exp2_BA_peak_3337	7	0	0
Exp1_Rep1_peak_3843,Exp2_BA_peak_3362,Exp1_Rep2_peak_3946	7	0	0
Exp1_Rep1_peak_3886,Exp1_Rep2_peak_3980,Exp2_BA_peak_3404	7	0	0
Exp1_Rep1_peak_3905,Exp1_Rep2_peak_3997,Exp2_BA_peak_3425	7	0	0
Exp1_Rep1_peak_3942,Exp2_BA_peak_3452,Exp1_Rep2_peak_4036	7	7	0
Exp1_Rep1_peak_3974,Exp1_Rep2_peak_4072,Exp2_BA_peak_3480	7	0	0
Exp1_Rep1_peak_3978,Exp1_Rep2_peak_4078,Exp2_BA_peak_3484	7	0	0
Exp1_Rep1_peak_3994,Exp1_Rep2_peak_4090,Exp2_BA_peak_3499	0	7	0
Exp1_Rep1_peak_4079,Exp2_BA_peak_3567,Exp1_Rep2_peak_4167	0	0	6
Exp1_Rep1_peak_4136,Exp1_Rep2_peak_4228,Exp2_BA_peak_3610	0	7	0
Exp1_Rep1_peak_4181,Exp1_Rep2_peak_4279,Exp2_BA_peak_3658	7	0	0
Exp1_Rep1_peak_4309,Exp2_BA_peak_3762,Exp1_Rep2_peak_4401	0	7	0
Exp1_Rep1_peak_4461,Exp2_BA_peak_3895,Exp1_Rep2_peak_4551	7	0	0
Exp1_Rep1_peak_4464,Exp2_BA_peak_3899,Exp1_Rep2_peak_4554	7	7	0
Exp1_Rep1_peak_4475,Exp2_BA_peak_3907,Exp1_Rep2_peak_4562	7	0	0
Exp1_Rep1_peak_45,Exp1_Rep2_peak_48,Exp2_BA_peak_35	0	0	7
Exp1_Rep1_peak_4619,Exp1_Rep2_peak_4715,Exp2_BA_peak_4027	0	7	0
Exp1_Rep1_peak_4647,Exp1_Rep2_peak_4745,Exp2_BA_peak_4052	7	0	0
Exp1_Rep1_peak_4777,Exp2_BA_peak_4169,Exp1_Rep2_peak_4882	7	0	0
Exp1_Rep1_peak_4848,Exp2_BA_peak_4239,Exp1_Rep2_peak_4953	0	0	6
Exp1_Rep1_peak_4914,Exp2_BA_peak_4303,Exp1_Rep2_peak_5027	7	0	0
Exp1_Rep1_peak_4943,Exp2_BA_peak_4326,Exp1_Rep2_peak_5056	7	0	0
Exp1_Rep1_peak_4950,Exp1_Rep2_peak_5063,Exp2_BA_peak_4334	7	7	0
Exp1_Rep1_peak_4971,Exp2_BA_peak_4357,Exp1_Rep2_peak_5099	7	0	0
Exp1_Rep1_peak_4990,Exp2_BA_peak_4376,Exp1_Rep2_peak_5122	0	7	0
Exp1_Rep1_peak_4995,Exp1_Rep2_peak_5129,Exp2_BA_peak_4381	7	0	6
Exp1_Rep1_peak_5025,Exp1_Rep2_peak_5158,Exp2_BA_peak_4404	7	0	0
Exp1_Rep1_peak_5029,Exp2_BA_peak_4409,Exp1_Rep2_peak_5162	7	0	0
Exp1_Rep1_peak_5045,Exp1_Rep2_peak_5173,Exp2_BA_peak_4421	0	0	6
Exp1_Rep1_peak_5156,Exp2_BA_peak_4533,Exp1_Rep2_peak_5289	7	0	0
Exp1_Rep1_peak_5264,Exp1_Rep2_peak_5432,Exp2_BA_peak_4636	7	0	0
Exp1_Rep1_peak_5324,Exp2_BA_peak_4690,Exp1_Rep2_peak_5492	7	0	0
Exp1_Rep1_peak_5332,Exp1_Rep2_peak_5504,Exp2_BA_peak_4699	7	0	0
Exp1_Rep1_peak_5363,Exp1_Rep2_peak_5541,Exp2_BA_peak_4730	7	0	0
Exp1_Rep1_peak_5500,Exp2_BA_peak_4853,Exp1_Rep2_peak_5671	0	0	7
Exp1_Rep1_peak_5542,Exp1_Rep2_peak_5712,Exp2_BA_peak_4881	7	0	6
Exp1_Rep1_peak_5550,Exp2_BA_peak_4890,Exp1_Rep2_peak_5723	0	7	0
Exp1_Rep1_peak_5551,Exp1_Rep2_peak_5728,Exp2_BA_peak_4891	0	7	0
Exp1_Rep1_peak_5558,Exp2_BA_peak_4898,Exp1_Rep2_peak_5735	0	7	0
Exp1_Rep1_peak_557,Exp2_BA_peak_515,Exp1_Rep2_peak_649	0	0	7
Exp1_Rep1_peak_5620,Exp1_Rep2_peak_5808,Exp2_BA_peak_4966	0	7	0
Exp1_Rep1_peak_5640,Exp1_Rep2_peak_5826,Exp2_BA_peak_4984	7	0	0
Exp1_Rep1_peak_5654,Exp1_Rep2_peak_5841,Exp2_BA_peak_4994	7	0	0
Exp1_Rep1_peak_5671,Exp2_BA_peak_5006,Exp1_Rep2_peak_5862	7	0	0
Exp1_Rep1_peak_5726,Exp1_Rep2_peak_5931,Exp2_BA_peak_5056	7	0	0
Exp1_Rep1_peak_6051,Exp1_Rep2_peak_6245,Exp2_BA_peak_5342	7	0	0
Exp1_Rep1_peak_6064,Exp2_BA_peak_5349,Exp1_Rep2_peak_6254	7	0	0
Exp1_Rep1_peak_6178,Exp1_Rep2_peak_6353,Exp2_BA_peak_5433	7	0	0
Exp1_Rep1_peak_62,Exp1_Rep2_peak_70,Exp2_BA_peak_53	7	0	0
Exp1_Rep1_peak_6273,Exp1_Rep2_peak_6431,Exp2_BA_peak_5501	0	0	6
Exp1_Rep1_peak_6311,Exp1_Rep2_peak_6474,Exp2_BA_peak_5537	7	0	0
Exp1_Rep1_peak_6327,Exp1_Rep2_peak_6500,Exp2_BA_peak_5555	0	0	6
Exp1_Rep1_peak_6340,Exp1_Rep2_peak_6515,Exp2_BA_peak_5567	7	0	6
Exp1_Rep1_peak_646,Exp2_BA_peak_600,Exp1_Rep2_peak_748	7	0	0
Exp1_Rep1_peak_6495,Exp1_Rep2_peak_6695,Exp2_BA_peak_5715	7	0	0
Exp1_Rep1_peak_6515,Exp2_BA_peak_5731,Exp1_Rep2_peak_6712	7	0	0
Exp1_Rep1_peak_6523,Exp2_BA_peak_5740,Exp1_Rep2_peak_6724	0	0	7
Exp1_Rep1_peak_6524,Exp2_BA_peak_5742,Exp1_Rep2_peak_6726	7	0	0
Exp1_Rep1_peak_6528,Exp1_Rep2_peak_6728,Exp2_BA_peak_5745	0	8	0
Exp1_Rep1_peak_6554,Exp2_BA_peak_5763,Exp1_Rep2_peak_6759	7	0	0
Exp1_Rep1_peak_6577,Exp2_BA_peak_5788,Exp1_Rep2_peak_6788	7	0	0
Exp1_Rep1_peak_659,Exp1_Rep2_peak_768,Exp2_BA_peak_611	7	0	0
Exp1_Rep1_peak_6672,Exp2_BA_peak_5866,Exp1_Rep2_peak_6886	0	0	7
Exp1_Rep1_peak_6681,Exp1_Rep2_peak_6897,Exp2_BA_peak_5872	0	0	6
Exp1_Rep1_peak_6708,Exp2_BA_peak_5897,Exp1_Rep2_peak_6925	7	0	0
Exp1_Rep1_peak_6718,Exp1_Rep2_peak_6938,Exp2_BA_peak_5911	0	0	7
Exp1_Rep1_peak_6776,Exp2_BA_peak_5958,Exp1_Rep2_peak_6996	0	8	0
Exp1_Rep1_peak_6865,Exp1_Rep2_peak_7091,Exp2_BA_peak_6029	7	0	0
Exp1_Rep1_peak_6871,Exp1_Rep2_peak_7099,Exp2_BA_peak_6035	7	0	7
Exp1_Rep1_peak_689,Exp2_BA_peak_635,Exp1_Rep2_peak_800	7	0	0
Exp1_Rep1_peak_6894,Exp1_Rep2_peak_7124,Exp2_BA_peak_6055	7	0	0
Exp1_Rep1_peak_6903,Exp1_Rep2_peak_7132,Exp2_BA_peak_6062	0	7	0
Exp1_Rep1_peak_6941,Exp2_BA_peak_6102,Exp1_Rep2_peak_7179	7	0	0
Exp1_Rep1_peak_6944,Exp1_Rep2_peak_7182,Exp2_BA_peak_6104	0	0	6
Exp1_Rep1_peak_6971,Exp2_BA_peak_6133,Exp1_Rep2_peak_7215	0	7	0
Exp1_Rep1_peak_7063,Exp1_Rep2_peak_7316,Exp2_BA_peak_6210	7	8	0
Exp1_Rep1_peak_7068,Exp1_Rep2_peak_7320,Exp2_BA_peak_6213	7	0	0
Exp1_Rep1_peak_7073,Exp1_Rep2_peak_7328,Exp2_BA_peak_6218	7	7	0
Exp1_Rep1_peak_7082,Exp2_BA_peak_6225,Exp1_Rep2_peak_7345	7	0	0
Exp1_Rep1_peak_7101,Exp1_Rep2_peak_7368,Exp2_BA_peak_6250	0	7	0
Exp1_Rep1_peak_7123,Exp1_Rep2_peak_7391,Exp2_BA_peak_6267	7	0	0
Exp1_Rep1_peak_7146,Exp1_Rep2_peak_7414,Exp2_BA_peak_6281	0	0	6
Exp1_Rep1_peak_7147,Exp1_Rep2_peak_7415,Exp2_BA_peak_6282	7	0	0
Exp1_Rep1_peak_7196,Exp1_Rep2_peak_7467,Exp2_BA_peak_6320	7	0	0
Exp1_Rep1_peak_7228,Exp1_Rep2_peak_7502,Exp2_BA_peak_6352	0	7	0
Exp1_Rep1_peak_7340,Exp1_Rep2_peak_7605,Exp2_BA_peak_6444	0	0	7
Exp1_Rep1_peak_7353,Exp2_BA_peak_6457,Exp1_Rep2_peak_7622	0	0	6
Exp1_Rep1_peak_7458,Exp1_Rep2_peak_7722,Exp2_BA_peak_6534	7	0	0
Exp1_Rep1_peak_7461,Exp2_BA_peak_6538,Exp1_Rep2_peak_7726	0	0	6
Exp1_Rep1_peak_7545,Exp1_Rep2_peak_7816,Exp2_BA_peak_6598	7	0	0
Exp1_Rep1_peak_7624,Exp1_Rep2_peak_7906,Exp2_BA_peak_6659	0	8	0
Exp1_Rep1_peak_7666,Exp1_Rep2_peak_7937,Exp2_BA_peak_6696	0	8	0
Exp1_Rep1_peak_7693,Exp1_Rep2_peak_7961,Exp2_BA_peak_6718	0	0	6
Exp1_Rep1_peak_7717,Exp1_Rep2_peak_7981,Exp2_BA_peak_6740	7	0	0
Exp1_Rep1_peak_7807,Exp2_BA_peak_6823,Exp1_Rep2_peak_8065	0	7	0
Exp1_Rep1_peak_782,Exp2_BA_peak_713,Exp1_Rep2_peak_901	7	0	8
Exp1_Rep1_peak_7826,Exp1_Rep2_peak_8081,Exp2_BA_peak_6845	0	0	6
Exp1_Rep1_peak_7911,Exp1_Rep2_peak_8159,Exp2_BA_peak_6918	0	0	6
Exp1_Rep1_peak_7975,Exp1_Rep2_peak_8230,Exp2_BA_peak_6971	0	7	0
Exp1_Rep1_peak_7978,Exp1_Rep2_peak_8235,Exp2_BA_peak_6975	7	0	0
Exp1_Rep1_peak_7984,Exp1_Rep2_peak_8246,Exp2_BA_peak_6982	0	0	6
Exp1_Rep1_peak_7986,Exp1_Rep2_peak_8248,Exp2_BA_peak_6984	7	0	0
Exp1_Rep1_peak_8009,Exp2_BA_peak_7006,Exp1_Rep2_peak_8275	0	8	0
Exp1_Rep1_peak_8024,Exp1_Rep2_peak_8289,Exp2_BA_peak_7015	7	0	0
Exp1_Rep1_peak_8049,Exp1_Rep2_peak_8322,Exp2_BA_peak_7035	7	0	0
Exp1_Rep1_peak_8064,Exp2_BA_peak_7048,Exp1_Rep2_peak_8338	7	0	0
Exp1_Rep1_peak_8084,Exp2_BA_peak_7065,Exp1_Rep2_peak_8362	7	0	0
Exp1_Rep1_peak_8099,Exp1_Rep2_peak_8377,Exp2_BA_peak_7077	0	0	7
Exp1_Rep1_peak_8136,Exp2_BA_peak_7110,Exp1_Rep2_peak_8413	0	0	6
Exp1_Rep1_peak_8152,Exp2_BA_peak_7128,Exp1_Rep2_peak_8431	7	0	0
Exp1_Rep1_peak_8313,Exp2_BA_peak_7269,Exp1_Rep2_peak_8594	0	0	6
Exp1_Rep1_peak_8352,Exp2_BA_peak_7310,Exp1_Rep2_peak_8644	0	7	0
Exp1_Rep1_peak_8527,Exp2_BA_peak_7458,Exp1_Rep2_peak_8822	7	0	0
Exp1_Rep1_peak_8629,Exp2_BA_peak_7535,Exp1_Rep2_peak_8920	0	7	0
Exp1_Rep1_peak_8630,Exp2_BA_peak_7536,Exp1_Rep2_peak_8921	7	0	0
Exp1_Rep1_peak_8658,Exp1_Rep2_peak_8947,Exp2_BA_peak_7562	7	0	0
Exp1_Rep1_peak_8684,Exp1_Rep2_peak_8974,Exp2_BA_peak_7586	0	8	0
Exp1_Rep1_peak_8695,Exp2_BA_peak_7600,Exp1_Rep2_peak_8986	0	0	6
Exp1_Rep1_peak_8702,Exp1_Rep2_peak_8988,Exp2_BA_peak_7605	7	8	0
Exp1_Rep1_peak_8717,Exp2_BA_peak_7618,Exp1_Rep2_peak_9015	7	0	0
Exp1_Rep1_peak_8735,Exp2_BA_peak_7633,Exp1_Rep2_peak_9036	7	0	0
Exp1_Rep1_peak_8840,Exp1_Rep2_peak_9161,Exp2_BA_peak_7736	7	0	0
Exp1_Rep1_peak_8883,Exp2_BA_peak_7783,Exp1_Rep2_peak_9213	0	0	7
Exp1_Rep1_peak_889,Exp2_BA_peak_810,Exp1_Rep2_peak_1009	7	0	0
Exp1_Rep1_peak_8918,Exp1_Rep2_peak_9249,Exp2_BA_peak_7811	7	0	0
Exp1_Rep1_peak_8938,Exp1_Rep2_peak_9275,Exp2_BA_peak_7836	0	7	0
Exp1_Rep1_peak_9107,Exp2_BA_peak_7992,Exp1_Rep2_peak_9462	7	0	0
Exp1_Rep1_peak_9121,Exp1_Rep2_peak_9473,Exp2_BA_peak_8002	7	0	0
Exp1_Rep1_peak_9181,Exp1_Rep2_peak_9555,Exp2_BA_peak_8057	7	0	0
Exp1_Rep1_peak_9192,Exp2_BA_peak_8072,Exp1_Rep2_peak_9570	0	7	0
Exp1_Rep1_peak_9216,Exp1_Rep2_peak_9604,Exp2_BA_peak_8097	7	0	0
Exp1_Rep1_peak_9238,Exp1_Rep2_peak_9627,Exp2_BA_peak_8120	0	8	0
Exp1_Rep1_peak_9287,Exp2_BA_peak_8161,Exp1_Rep2_peak_9680	7	0	0
Exp1_Rep1_peak_9318,Exp1_Rep2_peak_9707,Exp2_BA_peak_8192	0	7	0
Exp1_Rep1_peak_9325,Exp2_BA_peak_8200,Exp1_Rep2_peak_9715	7	0	0
Exp1_Rep1_peak_9359,Exp1_Rep2_peak_9757,Exp2_BA_peak_8228	0	7	7
Exp1_Rep1_peak_9406,Exp2_BA_peak_8266,Exp1_Rep2_peak_9794	7	0	0
Exp1_Rep1_peak_9422,Exp2_BA_peak_8282,Exp1_Rep2_peak_9816	7	0	0
Exp1_Rep1_peak_9468,Exp2_BA_peak_8317,Exp1_Rep2_peak_9863	7	0	0
Exp1_Rep1_peak_9478,Exp2_BA_peak_8329,Exp1_Rep2_peak_9875	0	0	6
Exp1_Rep1_peak_9521,Exp1_Rep2_peak_9919,Exp2_BA_peak_8365	0	7	0
Exp1_Rep1_peak_9537,Exp2_BA_peak_8379,Exp1_Rep2_peak_9937	7	0	0
Exp1_Rep1_peak_9574,Exp1_Rep2_peak_9984,Exp2_BA_peak_8415	0	0	7
Exp1_Rep1_peak_9608,Exp2_BA_peak_8448,Exp1_Rep2_peak_10028	7	0	0
Exp1_Rep1_peak_9623,Exp2_BA_peak_8458,Exp1_Rep2_peak_10047	0	0	6
Exp1_Rep1_peak_9626,Exp1_Rep2_peak_10050,Exp2_BA_peak_8460	7	0	7
Exp1_Rep1_peak_9639,Exp1_Rep2_peak_10065,Exp2_BA_peak_8470	7	0	0
Exp1_Rep1_peak_9680,Exp1_Rep2_peak_10104,Exp2_BA_peak_8506	0	0	8
Exp1_Rep1_peak_9686,Exp2_BA_peak_8514,Exp1_Rep2_peak_10108	0	7	0
Exp1_Rep1_peak_9749,Exp1_Rep2_peak_10169,Exp2_BA_peak_8564	7	0	0
Exp1_Rep1_peak_9770,Exp2_BA_peak_8581,Exp1_Rep2_peak_10188	0	7	0
Exp1_Rep1_peak_9891,Exp2_BA_peak_8675,Exp1_Rep2_peak_10284	0	7	0
Exp1_Rep1_peak_9908,Exp1_Rep2_peak_10299,Exp2_BA_peak_8689	0	0	6
Exp1_Rep1_peak_9910,Exp1_Rep2_peak_10301,Exp2_BA_peak_8690	7	0	0
Exp1_Rep1_peak_9946,Exp1_Rep2_peak_10330,Exp2_BA_peak_8716	7	0	0
Exp1_Rep1_peak_9951,Exp2_BA_peak_8722,Exp1_Rep2_peak_10338	7	0	0
Exp1_Rep1_peak_9956,Exp2_BA_peak_8727,Exp1_Rep2_peak_10343	7	0	0
Exp1_Rep1_peak_9960,Exp1_Rep2_peak_10347,Exp2_BA_peak_8732	7	0	0
Exp1_Rep1_peak_9965,Exp2_BA_peak_8737,Exp1_Rep2_peak_10350	7	0	0
Exp1_Rep1_peak_9977,Exp2_BA_peak_8752,Exp1_Rep2_peak_10359	7	0	6
Exp1_Rep1_peak_9993,Exp2_BA_peak_8762,Exp1_Rep2_peak_10376	0	7	0
Exp1_Rep2_peak_10060,Exp2_BA_peak_8466,Exp1_Rep1_peak_9632	7	0	0
Exp1_Rep2_peak_10078,Exp1_Rep1_peak_9650,Exp2_BA_peak_8477	0	7	0
Exp1_Rep2_peak_10093,Exp1_Rep1_peak_9665,Exp2_BA_peak_8491	7	0	0
Exp1_Rep2_peak_10119,Exp1_Rep1_peak_9696,Exp2_BA_peak_8518	7	0	0
Exp1_Rep2_peak_102,Exp2_BA_peak_78,Exp1_Rep1_peak_91	0	7	0
Exp1_Rep2_peak_10205,Exp2_BA_peak_8599,Exp1_Rep1_peak_9801	0	0	6
Exp1_Rep2_peak_10212,Exp1_Rep1_peak_9808,Exp2_BA_peak_8604	7	0	0
Exp1_Rep2_peak_1025,Exp2_BA_peak_822,Exp1_Rep1_peak_899	0	7	7
Exp1_Rep2_peak_10258,Exp2_BA_peak_8645,Exp1_Rep1_peak_9858	0	8	0
Exp1_Rep2_peak_10282,Exp1_Rep1_peak_9888,Exp2_BA_peak_8673	0	7	0
Exp1_Rep2_peak_10318,Exp2_BA_peak_8707,Exp1_Rep1_peak_9936	7	0	0
Exp1_Rep2_peak_1033,Exp1_Rep1_peak_909,Exp2_BA_peak_831	0	8	0
Exp1_Rep2_peak_10334,Exp2_BA_peak_8718,Exp1_Rep1_peak_9947	0	0	8
Exp1_Rep2_peak_10413,Exp1_Rep1_peak_10025,Exp2_BA_peak_8787	7	0	0
Exp1_Rep2_peak_10435,Exp1_Rep1_peak_10046,Exp2_BA_peak_8810	0	0	6
Exp1_Rep2_peak_10447,Exp2_BA_peak_8825,Exp1_Rep1_peak_10064	7	0	0
Exp1_Rep2_peak_10463,Exp1_Rep1_peak_10080,Exp2_BA_peak_8838	7	0	0
Exp1_Rep2_peak_10470,Exp2_BA_peak_8847,Exp1_Rep1_peak_10090	7	0	0
Exp1_Rep2_peak_10485,Exp2_BA_peak_8863,Exp1_Rep1_peak_10105	0	8	0
Exp1_Rep2_peak_1050,Exp1_Rep1_peak_926,Exp2_BA_peak_849	0	7	0
Exp1_Rep2_peak_10590,Exp1_Rep1_peak_10209,Exp2_BA_peak_8953	7	0	0
Exp1_Rep2_peak_10628,Exp2_BA_peak_8986,Exp1_Rep1_peak_10249	0	0	6
Exp1_Rep2_peak_1068,Exp1_Rep1_peak_946,Exp2_BA_peak_870	7	0	0
Exp1_Rep2_peak_10696,Exp2_BA_peak_9045,Exp1_Rep1_peak_10312	7	0	0
Exp1_Rep2_peak_1076,Exp1_Rep1_peak_956,Exp2_BA_peak_884	0	7	0
Exp1_Rep2_peak_10836,Exp2_BA_peak_9185,Exp1_Rep1_peak_10446	7	0	0
Exp1_Rep2_peak_10874,Exp1_Rep1_peak_10476,Exp2_BA_peak_9215	7	0	0
Exp1_Rep2_peak_10887,Exp1_Rep1_peak_10485,Exp2_BA_peak_9222	0	0	6
Exp1_Rep2_peak_10975,Exp2_BA_peak_9296,Exp1_Rep1_peak_10572	7	0	8
Exp1_Rep2_peak_11028,Exp1_Rep1_peak_10634,Exp2_BA_peak_9351	7	0	0
Exp1_Rep2_peak_11072,Exp1_Rep1_peak_10679,Exp2_BA_peak_9389	0	0	7
Exp1_Rep2_peak_11163,Exp1_Rep1_peak_10781,Exp2_BA_peak_9481	7	7	0
Exp1_Rep2_peak_11175,Exp2_BA_peak_9491,Exp1_Rep1_peak_10798	7	7	0
Exp1_Rep2_peak_11241,Exp1_Rep1_peak_10866,Exp2_BA_peak_9551	7	0	0
Exp1_Rep2_peak_1128,Exp2_BA_peak_929,Exp1_Rep1_peak_1004	0	7	0
Exp1_Rep2_peak_11288,Exp2_BA_peak_9597,Exp1_Rep1_peak_10912	7	0	0
Exp1_Rep2_peak_11302,Exp2_BA_peak_9606,Exp1_Rep1_peak_10923	7	0	0
Exp1_Rep2_peak_11331,Exp1_Rep1_peak_10954,Exp2_BA_peak_9638	0	7	0
Exp1_Rep2_peak_11400,Exp2_BA_peak_9704,Exp1_Rep1_peak_11027	7	8	0
Exp1_Rep2_peak_11445,Exp1_Rep1_peak_11069,Exp2_BA_peak_9738	7	0	0
Exp1_Rep2_peak_11471,Exp1_Rep1_peak_11099,Exp2_BA_peak_9769	0	8	0
Exp1_Rep2_peak_11494,Exp2_BA_peak_9791,Exp1_Rep1_peak_11123	0	7	0
Exp1_Rep2_peak_11497,Exp1_Rep1_peak_11125,Exp2_BA_peak_9794	7	0	0
Exp1_Rep2_peak_11509,Exp2_BA_peak_9801,Exp1_Rep1_peak_11136	0	0	7
Exp1_Rep2_peak_11511,Exp2_BA_peak_9802,Exp1_Rep1_peak_11137	7	0	0
Exp1_Rep2_peak_11518,Exp1_Rep1_peak_11142,Exp2_BA_peak_9806	0	8	0
Exp1_Rep2_peak_11527,Exp1_Rep1_peak_11152,Exp2_BA_peak_9816	0	0	7
Exp1_Rep2_peak_11570,Exp2_BA_peak_9854,Exp1_Rep1_peak_11193	0	0	8
Exp1_Rep2_peak_11605,Exp1_Rep1_peak_11233,Exp2_BA_peak_9891	7	0	0
Exp1_Rep2_peak_11609,Exp2_BA_peak_9894,Exp1_Rep1_peak_11237	7	0	0
Exp1_Rep2_peak_11706,Exp1_Rep1_peak_11329,Exp2_BA_peak_9981	0	7	0
Exp1_Rep2_peak_11713,Exp1_Rep1_peak_11337,Exp2_BA_peak_9989	7	0	0
Exp1_Rep2_peak_1184,Exp1_Rep1_peak_1053,Exp2_BA_peak_976	7	0	0
Exp1_Rep2_peak_1213,Exp2_BA_peak_1003,Exp1_Rep1_peak_1083	0	0	6
Exp1_Rep2_peak_1239,Exp2_BA_peak_1020,Exp1_Rep1_peak_1107	7	0	0
Exp1_Rep2_peak_1274,Exp2_BA_peak_1047,Exp1_Rep1_peak_1144	0	7	0
Exp1_Rep2_peak_1283,Exp2_BA_peak_1055,Exp1_Rep1_peak_1152	0	7	0
Exp1_Rep2_peak_1309,Exp1_Rep1_peak_1184,Exp2_BA_peak_1077	7	0	0
Exp1_Rep2_peak_1315,Exp1_Rep1_peak_1189,Exp2_BA_peak_1083	7	0	0
Exp1_Rep2_peak_1389,Exp1_Rep1_peak_1260,Exp2_BA_peak_1149	7	0	7
Exp1_Rep2_peak_1412,Exp2_BA_peak_1167,Exp1_Rep1_peak_1287	7	0	0
Exp1_Rep2_peak_1470,Exp1_Rep1_peak_1352,Exp2_BA_peak_1219	0	7	0
Exp1_Rep2_peak_1547,Exp1_Rep1_peak_1440,Exp2_BA_peak_1282	7	0	0
Exp1_Rep2_peak_1576,Exp1_Rep1_peak_1466,Exp2_BA_peak_1307	0	8	0
Exp1_Rep2_peak_1584,Exp1_Rep1_peak_1475,Exp2_BA_peak_1317	0	0	7
Exp1_Rep2_peak_1593,Exp1_Rep1_peak_1484,Exp2_BA_peak_1321	0	0	7
Exp1_Rep2_peak_1601,Exp1_Rep1_peak_1490,Exp2_BA_peak_1327	7	0	0
Exp1_Rep2_peak_1648,Exp1_Rep1_peak_1532,Exp2_BA_peak_1363	0	7	0
Exp1_Rep2_peak_1672,Exp1_Rep1_peak_1558,Exp2_BA_peak_1388	0	7	0
Exp1_Rep2_peak_1678,Exp2_BA_peak_1393,Exp1_Rep1_peak_1565	7	7	0
Exp1_Rep2_peak_1748,Exp1_Rep1_peak_1625,Exp2_BA_peak_1452	7	0	0
Exp1_Rep2_peak_1758,Exp2_BA_peak_1460,Exp1_Rep1_peak_1636	7	0	0
Exp1_Rep2_peak_1971,Exp2_BA_peak_1666,Exp1_Rep1_peak_1863	7	0	0
Exp1_Rep2_peak_2187,Exp1_Rep1_peak_2081,Exp2_BA_peak_1854	7	7	8
Exp1_Rep2_peak_2213,Exp1_Rep1_peak_2113,Exp2_BA_peak_1881	0	7	0
Exp1_Rep2_peak_2255,Exp1_Rep1_peak_2145,Exp2_BA_peak_1918	0	7	0
Exp1_Rep2_peak_226,Exp1_Rep1_peak_201,Exp2_BA_peak_172	7	0	0
Exp1_Rep2_peak_2331,Exp1_Rep1_peak_2236,Exp2_BA_peak_1988	0	0	6
Exp1_Rep2_peak_2463,Exp2_BA_peak_2111,Exp1_Rep1_peak_2379	0	7	0
Exp1_Rep2_peak_2524,Exp2_BA_peak_2170,Exp1_Rep1_peak_2448	7	0	0
Exp1_Rep2_peak_2560,Exp2_BA_peak_2211,Exp1_Rep1_peak_2491	7	0	0
Exp1_Rep2_peak_2565,Exp2_BA_peak_2215,Exp1_Rep1_peak_2495	7	7	7
Exp1_Rep2_peak_2579,Exp1_Rep1_peak_2512,Exp2_BA_peak_2228	7	0	0
Exp1_Rep2_peak_2737,Exp2_BA_peak_2339,Exp1_Rep1_peak_2653	0	7	0
Exp1_Rep2_peak_2771,Exp2_BA_peak_2373,Exp1_Rep1_peak_2685	0	0	6
Exp1_Rep2_peak_2795,Exp2_BA_peak_2389,Exp1_Rep1_peak_2708	7	0	0
Exp1_Rep2_peak_281,Exp2_BA_peak_210,Exp1_Rep1_peak_241	0	7	0
Exp1_Rep2_peak_2840,Exp1_Rep1_peak_2750,Exp2_BA_peak_2428	7	7	0
Exp1_Rep2_peak_2848,Exp2_BA_peak_2434,Exp1_Rep1_peak_2754	0	7	0
Exp1_Rep2_peak_2857,Exp2_BA_peak_2444,Exp1_Rep1_peak_2763	7	0	0
Exp1_Rep2_peak_2894,Exp2_BA_peak_2477,Exp1_Rep1_peak_2802	0	0	6
Exp1_Rep2_peak_2940,Exp1_Rep1_peak_2844,Exp2_BA_peak_2515	0	8	0
Exp1_Rep2_peak_3005,Exp2_BA_peak_2569,Exp1_Rep1_peak_2907	0	8	0
Exp1_Rep2_peak_3037,Exp1_Rep1_peak_2940,Exp2_BA_peak_2601	7	7	0
Exp1_Rep2_peak_3054,Exp1_Rep1_peak_2962,Exp2_BA_peak_2622	7	0	0
Exp1_Rep2_peak_307,Exp1_Rep1_peak_269,Exp2_BA_peak_231	0	7	0
Exp1_Rep2_peak_3107,Exp1_Rep1_peak_3014,Exp2_BA_peak_2667	7	0	0
Exp1_Rep2_peak_3166,Exp2_BA_peak_2708,Exp1_Rep1_peak_3059	0	0	7
Exp1_Rep2_peak_3197,Exp2_BA_peak_2724,Exp1_Rep1_peak_3080	7	0	0
Exp1_Rep2_peak_3224,Exp2_BA_peak_2748,Exp1_Rep1_peak_3104	0	7	0
Exp1_Rep2_peak_3254,Exp2_BA_peak_2774,Exp1_Rep1_peak_3127	7	0	0
Exp1_Rep2_peak_3319,Exp2_BA_peak_2833,Exp1_Rep1_peak_3194	7	0	0
Exp1_Rep2_peak_3379,Exp1_Rep1_peak_3256,Exp2_BA_peak_2891	0	7	0
Exp1_Rep2_peak_3390,Exp1_Rep1_peak_3269,Exp2_BA_peak_2898	0	7	0
Exp1_Rep2_peak_3444,Exp1_Rep1_peak_3327,Exp2_BA_peak_2941	7	0	0
Exp1_Rep2_peak_3448,Exp1_Rep1_peak_3331,Exp2_BA_peak_2943	0	7	0
Exp1_Rep2_peak_3548,Exp2_BA_peak_3027,Exp1_Rep1_peak_3425	0	7	0
Exp1_Rep2_peak_3556,Exp1_Rep1_peak_3437,Exp2_BA_peak_3039	0	7	0
Exp1_Rep2_peak_3626,Exp2_BA_peak_3105,Exp1_Rep1_peak_3527	0	0	7
Exp1_Rep2_peak_3748,Exp2_BA_peak_3206,Exp1_Rep1_peak_3633	7	0	0
Exp1_Rep2_peak_3769,Exp1_Rep1_peak_3660,Exp2_BA_peak_3229	7	0	0
Exp1_Rep2_peak_3853,Exp1_Rep1_peak_3740,Exp2_BA_peak_3283	7	0	0
Exp1_Rep2_peak_3897,Exp2_BA_peak_3319,Exp1_Rep1_peak_3782	7	0	0
Exp1_Rep2_peak_3967,Exp2_BA_peak_3390,Exp1_Rep1_peak_3868	0	7	0
Exp1_Rep2_peak_4014,Exp2_BA_peak_3437,Exp1_Rep1_peak_3923	7	0	0
Exp1_Rep2_peak_4038,Exp1_Rep1_peak_3947,Exp2_BA_peak_3455	0	8	0
Exp1_Rep2_peak_410,Exp1_Rep1_peak_359,Exp2_BA_peak_321	0	8	0
Exp1_Rep2_peak_4198,Exp1_Rep1_peak_4108,Exp2_BA_peak_3591	7	0	0
Exp1_Rep2_peak_4282,Exp2_BA_peak_3660,Exp1_Rep1_peak_4183	7	0	0
Exp1_Rep2_peak_4316,Exp2_BA_peak_3693,Exp1_Rep1_peak_4217	7	0	0
Exp1_Rep2_peak_4348,Exp2_BA_peak_3720,Exp1_Rep1_peak_4253	0	7	7
Exp1_Rep2_peak_4354,Exp1_Rep1_peak_4260,Exp2_BA_peak_3724	7	0	0
Exp1_Rep2_peak_445,Exp1_Rep1_peak_385,Exp2_BA_peak_347	0	0	7
Exp1_Rep2_peak_4494,Exp2_BA_peak_3842,Exp1_Rep1_peak_4396	7	0	0
Exp1_Rep2_peak_4500,Exp2_BA_peak_3848,Exp1_Rep1_peak_4404	0	7	0
Exp1_Rep2_peak_4559,Exp1_Rep1_peak_4470,Exp2_BA_peak_3904	0	0	6
Exp1_Rep2_peak_4597,Exp1_Rep1_peak_4503,Exp2_BA_peak_3931	7	0	0
Exp1_Rep2_peak_4602,Exp1_Rep1_peak_4508,Exp2_BA_peak_3934	0	7	0
Exp1_Rep2_peak_4631,Exp2_BA_peak_3959,Exp1_Rep1_peak_4537	0	7	0
Exp1_Rep2_peak_4633,Exp2_BA_peak_3960,Exp1_Rep1_peak_4539	0	7	0
Exp1_Rep2_peak_4693,Exp1_Rep1_peak_4593,Exp2_BA_peak_4005	0	7	6
Exp1_Rep2_peak_4786,Exp1_Rep1_peak_4688,Exp2_BA_peak_4085	7	0	0
Exp1_Rep2_peak_4801,Exp2_BA_peak_4099,Exp1_Rep1_peak_4701	7	0	0
Exp1_Rep2_peak_4845,Exp1_Rep1_peak_4745,Exp2_BA_peak_4139	0	7	0
Exp1_Rep2_peak_4851,Exp2_BA_peak_4142,Exp1_Rep1_peak_4748	0	0	7
Exp1_Rep2_peak_4889,Exp2_BA_peak_4177,Exp1_Rep1_peak_4787	0	7	0
Exp1_Rep2_peak_4971,Exp2_BA_peak_4255,Exp1_Rep1_peak_4863	7	0	0
Exp1_Rep2_peak_5008,Exp2_BA_peak_4282,Exp1_Rep1_peak_4890	0	0	6
Exp1_Rep2_peak_509,Exp2_BA_peak_392,Exp1_Rep1_peak_438	7	0	0
Exp1_Rep2_peak_5152,Exp2_BA_peak_4401,Exp1_Rep1_peak_5020	0	0	6
Exp1_Rep2_peak_5172,Exp2_BA_peak_4420,Exp1_Rep1_peak_5044	7	0	0
Exp1_Rep2_peak_5182,Exp1_Rep1_peak_5053,Exp2_BA_peak_4430	0	7	0
Exp1_Rep2_peak_5299,Exp1_Rep1_peak_5162,Exp2_BA_peak_4541	7	0	8
Exp1_Rep2_peak_5300,Exp2_BA_peak_4542,Exp1_Rep1_peak_5163	7	0	0
Exp1_Rep2_peak_5380,Exp2_BA_peak_4597,Exp1_Rep1_peak_5229	0	7	0
Exp1_Rep2_peak_539,Exp2_BA_peak_419,Exp1_Rep1_peak_464	0	0	7
Exp1_Rep2_peak_5412,Exp1_Rep1_peak_5253,Exp2_BA_peak_4623	7	0	0
Exp1_Rep2_peak_5425,Exp1_Rep1_peak_5262,Exp2_BA_peak_4632	0	0	7
Exp1_Rep2_peak_5501,Exp1_Rep1_peak_5330,Exp2_BA_peak_4696	7	0	0
Exp1_Rep2_peak_5561,Exp1_Rep1_peak_5382,Exp2_BA_peak_4740	7	0	0
Exp1_Rep2_peak_5586,Exp1_Rep1_peak_5410,Exp2_BA_peak_4765	7	0	0
Exp1_Rep2_peak_5682,Exp2_BA_peak_4861,Exp1_Rep1_peak_5511	0	7	0
Exp1_Rep2_peak_5895,Exp1_Rep1_peak_5698,Exp2_BA_peak_5031	0	7	0
Exp1_Rep2_peak_5927,Exp2_BA_peak_5052,Exp1_Rep1_peak_5722	0	7	0
Exp1_Rep2_peak_5936,Exp1_Rep1_peak_5730,Exp2_BA_peak_5058	0	7	0
Exp1_Rep2_peak_599,Exp2_BA_peak_468,Exp1_Rep1_peak_515	7	0	0
Exp1_Rep2_peak_6047,Exp2_BA_peak_5156,Exp1_Rep1_peak_5837	7	0	0
Exp1_Rep2_peak_6066,Exp1_Rep1_peak_5860,Exp2_BA_peak_5174	0	7	0
Exp1_Rep2_peak_6097,Exp1_Rep1_peak_5900,Exp2_BA_peak_5202	0	0	6
Exp1_Rep2_peak_6145,Exp1_Rep1_peak_5949,Exp2_BA_peak_5250	7	0	0
Exp1_Rep2_peak_617,Exp1_Rep1_peak_531,Exp2_BA_peak_486	7	0	0
Exp1_Rep2_peak_6247,Exp2_BA_peak_5343,Exp1_Rep1_peak_6054	0	0	6
Exp1_Rep2_peak_6248,Exp1_Rep1_peak_6056,Exp2_BA_peak_5345	0	0	6
Exp1_Rep2_peak_6257,Exp1_Rep1_peak_6068,Exp2_BA_peak_5351	7	0	0
Exp1_Rep2_peak_6277,Exp1_Rep1_peak_6087,Exp2_BA_peak_5367	7	0	0
Exp1_Rep2_peak_6318,Exp1_Rep1_peak_6137,Exp2_BA_peak_5402	0	0	8
Exp1_Rep2_peak_6359,Exp1_Rep1_peak_6186,Exp2_BA_peak_5439	7	0	0
Exp1_Rep2_peak_6371,Exp2_BA_peak_5455,Exp1_Rep1_peak_6201	0	7	0
Exp1_Rep2_peak_6378,Exp1_Rep1_peak_6208,Exp2_BA_peak_5461	0	7	0
Exp1_Rep2_peak_6409,Exp1_Rep1_peak_6245,Exp2_BA_peak_5482	0	8	0
Exp1_Rep2_peak_6444,Exp2_BA_peak_5514,Exp1_Rep1_peak_6283	0	0	7
Exp1_Rep2_peak_645,Exp1_Rep1_peak_551,Exp2_BA_peak_510	7	0	0
Exp1_Rep2_peak_6489,Exp2_BA_peak_5547,Exp1_Rep1_peak_6320	7	0	0
Exp1_Rep2_peak_6568,Exp2_BA_peak_5604,Exp1_Rep1_peak_6382	0	7	0
Exp1_Rep2_peak_6594,Exp2_BA_peak_5623,Exp1_Rep1_peak_6403	0	7	0
Exp1_Rep2_peak_66,Exp2_BA_peak_50,Exp1_Rep1_peak_59	7	0	0
Exp1_Rep2_peak_6602,Exp2_BA_peak_5633,Exp1_Rep1_peak_6409	7	0	0
Exp1_Rep2_peak_6616,Exp2_BA_peak_5645,Exp1_Rep1_peak_6422	0	8	0
Exp1_Rep2_peak_6737,Exp1_Rep1_peak_6534,Exp2_BA_peak_5751	7	0	6
Exp1_Rep2_peak_6780,Exp1_Rep1_peak_6573,Exp2_BA_peak_5783	0	8	0
Exp1_Rep2_peak_6790,Exp1_Rep1_peak_6579,Exp2_BA_peak_5790	0	7	0
Exp1_Rep2_peak_6896,Exp1_Rep1_peak_6680,Exp2_BA_peak_5871	0	7	6
Exp1_Rep2_peak_6914,Exp2_BA_peak_5889,Exp1_Rep1_peak_6699	0	0	6
Exp1_Rep2_peak_6985,Exp1_Rep1_peak_6765,Exp2_BA_peak_5950	0	0	6
Exp1_Rep2_peak_7129,Exp2_BA_peak_6060,Exp1_Rep1_peak_6901	7	0	0
Exp1_Rep2_peak_7183,Exp2_BA_peak_6105,Exp1_Rep1_peak_6945	7	0	0
Exp1_Rep2_peak_7276,Exp2_BA_peak_6176,Exp1_Rep1_peak_7030	0	0	6
Exp1_Rep2_peak_7349,Exp2_BA_peak_6228,Exp1_Rep1_peak_7085	7	0	0
Exp1_Rep2_peak_7413,Exp1_Rep1_peak_7143,Exp2_BA_peak_6280	7	0	0
Exp1_Rep2_peak_7486,Exp2_BA_peak_6335,Exp1_Rep1_peak_7214	0	0	6
Exp1_Rep2_peak_7487,Exp1_Rep1_peak_7215,Exp2_BA_peak_6336	0	0	6
Exp1_Rep2_peak_7522,Exp1_Rep1_peak_7253,Exp2_BA_peak_6373	7	0	0
Exp1_Rep2_peak_7541,Exp2_BA_peak_6397,Exp1_Rep1_peak_7279	0	7	0
Exp1_Rep2_peak_7666,Exp1_Rep1_peak_7400,Exp2_BA_peak_6496	7	0	0
Exp1_Rep2_peak_7689,Exp2_BA_peak_6514,Exp1_Rep1_peak_7428	7	0	0
Exp1_Rep2_peak_7701,Exp1_Rep1_peak_7440,Exp2_BA_peak_6520	0	8	0
Exp1_Rep2_peak_7727,Exp2_BA_peak_6539,Exp1_Rep1_peak_7462	0	7	0
Exp1_Rep2_peak_7786,Exp2_BA_peak_6577,Exp1_Rep1_peak_7523	7	0	0
Exp1_Rep2_peak_789,Exp2_BA_peak_628,Exp1_Rep1_peak_679	7	0	0
Exp1_Rep2_peak_790,Exp1_Rep1_peak_680,Exp2_BA_peak_629	7	0	0
Exp1_Rep2_peak_7956,Exp1_Rep1_peak_7688,Exp2_BA_peak_6714	7	0	0
Exp1_Rep2_peak_7969,Exp1_Rep1_peak_7706,Exp2_BA_peak_6729	7	0	0
Exp1_Rep2_peak_8004,Exp1_Rep1_peak_7742,Exp2_BA_peak_6766	0	8	0
Exp1_Rep2_peak_8053,Exp2_BA_peak_6814,Exp1_Rep1_peak_7793	0	7	0
Exp1_Rep2_peak_8091,Exp2_BA_peak_6854,Exp1_Rep1_peak_7837	0	7	0
Exp1_Rep2_peak_815,Exp2_BA_peak_649,Exp1_Rep1_peak_705	7	0	0
Exp1_Rep2_peak_8253,Exp1_Rep1_peak_7992,Exp2_BA_peak_6991	7	7	0
Exp1_Rep2_peak_8332,Exp1_Rep1_peak_8058,Exp2_BA_peak_7043	0	7	0
Exp1_Rep2_peak_836,Exp1_Rep1_peak_726,Exp2_BA_peak_665	7	0	0
Exp1_Rep2_peak_8395,Exp2_BA_peak_7094,Exp1_Rep1_peak_8118	7	0	0
Exp1_Rep2_peak_8412,Exp1_Rep1_peak_8135,Exp2_BA_peak_7109	7	0	0
Exp1_Rep2_peak_8418,Exp1_Rep1_peak_8140,Exp2_BA_peak_7114	0	7	0
Exp1_Rep2_peak_8449,Exp1_Rep1_peak_8177,Exp2_BA_peak_7147	0	8	0
Exp1_Rep2_peak_846,Exp2_BA_peak_674,Exp1_Rep1_peak_736	0	7	0
Exp1_Rep2_peak_8479,Exp1_Rep1_peak_8198,Exp2_BA_peak_7164	0	7	0
Exp1_Rep2_peak_8520,Exp2_BA_peak_7212,Exp1_Rep1_peak_8246	0	0	7
Exp1_Rep2_peak_8599,Exp1_Rep1_peak_8315,Exp2_BA_peak_7275	7	0	0
Exp1_Rep2_peak_8617,Exp1_Rep1_peak_8335,Exp2_BA_peak_7292	7	7	0
Exp1_Rep2_peak_8683,Exp1_Rep1_peak_8385,Exp2_BA_peak_7331	0	8	0
Exp1_Rep2_peak_8751,Exp2_BA_peak_7386,Exp1_Rep1_peak_8447	7	0	0
Exp1_Rep2_peak_8779,Exp2_BA_peak_7411,Exp1_Rep1_peak_8478	7	0	0
Exp1_Rep2_peak_879,Exp1_Rep1_peak_764,Exp2_BA_peak_695	7	0	0
Exp1_Rep2_peak_8890,Exp1_Rep1_peak_8594,Exp2_BA_peak_7503	0	0	6
Exp1_Rep2_peak_9011,Exp1_Rep1_peak_8714,Exp2_BA_peak_7614	7	0	0
Exp1_Rep2_peak_9042,Exp2_BA_peak_7637,Exp1_Rep1_peak_8740	7	0	0
Exp1_Rep2_peak_9065,Exp1_Rep1_peak_8759,Exp2_BA_peak_7655	7	7	0
Exp1_Rep2_peak_9073,Exp1_Rep1_peak_8767,Exp2_BA_peak_7662	7	0	0
Exp1_Rep2_peak_9208,Exp1_Rep1_peak_8878,Exp2_BA_peak_7780	7	0	0
Exp1_Rep2_peak_9216,Exp1_Rep1_peak_8886,Exp2_BA_peak_7786	7	0	0
Exp1_Rep2_peak_9273,Exp2_BA_peak_7831,Exp1_Rep1_peak_8936	0	8	0
Exp1_Rep2_peak_9283,Exp2_BA_peak_7846,Exp1_Rep1_peak_8946	0	7	0
Exp1_Rep2_peak_9342,Exp1_Rep1_peak_9002,Exp2_BA_peak_7903	7	0	0
Exp1_Rep2_peak_9413,Exp1_Rep1_peak_9061,Exp2_BA_peak_7948	0	7	0
Exp1_Rep2_peak_9615,Exp2_BA_peak_8106,Exp1_Rep1_peak_9226	7	0	0
Exp1_Rep2_peak_9622,Exp1_Rep1_peak_9233,Exp2_BA_peak_8116	7	0	0
Exp1_Rep2_peak_968,Exp1_Rep1_peak_850,Exp2_BA_peak_778	7	0	0
Exp1_Rep2_peak_969,Exp2_BA_peak_779,Exp1_Rep1_peak_851	7	0	0
Exp1_Rep2_peak_9764,Exp1_Rep1_peak_9367,Exp2_BA_peak_8235	0	0	8
Exp1_Rep2_peak_9791,Exp2_BA_peak_8265,Exp1_Rep1_peak_9404	7	0	0
Exp1_Rep2_peak_9812,Exp2_BA_peak_8280,Exp1_Rep1_peak_9419	7	0	0
Exp1_Rep2_peak_9858,Exp1_Rep1_peak_9465,Exp2_BA_peak_8316	0	8	0
Exp1_Rep2_peak_9928,Exp1_Rep1_peak_9529,Exp2_BA_peak_8374	0	8	0
Exp1_Rep2_peak_9954,Exp1_Rep1_peak_9550,Exp2_BA_peak_8390	0	7	0
Exp1_Rep2_peak_9960,Exp1_Rep1_peak_9556,Exp2_BA_peak_8396	7	0	0
Exp2_BA_peak_1,Exp1_Rep2_peak_1,Exp1_Rep1_peak_1	7	0	0
Exp2_BA_peak_10026,Exp1_Rep1_peak_11380,Exp1_Rep2_peak_11759	7	0	0
Exp2_BA_peak_1028,Exp1_Rep2_peak_1251,Exp1_Rep1_peak_1119	0	7	0
Exp2_BA_peak_1057,Exp1_Rep2_peak_1284,Exp1_Rep1_peak_1154	0	8	0
Exp2_BA_peak_1150,Exp1_Rep2_peak_1392,Exp1_Rep1_peak_1262	0	7	0
Exp2_BA_peak_1164,Exp1_Rep1_peak_1284,Exp1_Rep2_peak_1410	0	7	0
Exp2_BA_peak_1193,Exp1_Rep2_peak_1439,Exp1_Rep1_peak_1315	7	0	0
Exp2_BA_peak_1207,Exp1_Rep2_peak_1456,Exp1_Rep1_peak_1336	0	7	0
Exp2_BA_peak_1227,Exp1_Rep2_peak_1476,Exp1_Rep1_peak_1362	7	0	0
Exp2_BA_peak_1248,Exp1_Rep2_peak_1504,Exp1_Rep1_peak_1389	0	7	0
Exp2_BA_peak_1288,Exp1_Rep1_peak_1445,Exp1_Rep2_peak_1555	0	0	6
Exp2_BA_peak_1338,Exp1_Rep1_peak_1498,Exp1_Rep2_peak_1610	0	0	6
Exp2_BA_peak_1392,Exp1_Rep1_peak_1563,Exp1_Rep2_peak_1675	0	0	6
Exp2_BA_peak_1397,Exp1_Rep2_peak_1682,Exp1_Rep1_peak_1568	0	8	0
Exp2_BA_peak_1466,Exp1_Rep1_peak_1647,Exp1_Rep2_peak_1767	0	8	0
Exp2_BA_peak_1551,Exp1_Rep1_peak_1741,Exp1_Rep2_peak_1856	0	7	0
Exp2_BA_peak_1566,Exp1_Rep2_peak_1871,Exp1_Rep1_peak_1758	7	0	0
Exp2_BA_peak_1592,Exp1_Rep1_peak_1790,Exp1_Rep2_peak_1896	0	7	0
Exp2_BA_peak_161,Exp1_Rep2_peak_212,Exp1_Rep1_peak_189	0	7	0
Exp2_BA_peak_164,Exp1_Rep2_peak_214,Exp1_Rep1_peak_192	7	0	0
Exp2_BA_peak_1644,Exp1_Rep1_peak_1845,Exp1_Rep2_peak_1952	0	7	0
Exp2_BA_peak_1684,Exp1_Rep2_peak_1988,Exp1_Rep1_peak_1886	0	0	6
Exp2_BA_peak_1723,Exp1_Rep2_peak_2037,Exp1_Rep1_peak_1934	7	0	0
Exp2_BA_peak_1745,Exp1_Rep1_peak_1959,Exp1_Rep2_peak_2068	7	0	0
Exp2_BA_peak_1763,Exp1_Rep1_peak_1978,Exp1_Rep2_peak_2092	0	0	6
Exp2_BA_peak_1788,Exp1_Rep1_peak_2012,Exp1_Rep2_peak_2131	0	7	0
Exp2_BA_peak_1796,Exp1_Rep1_peak_2024,Exp1_Rep2_peak_2145	7	0	0
Exp2_BA_peak_190,Exp1_Rep1_peak_219,Exp1_Rep2_peak_254	0	0	6
Exp2_BA_peak_1916,Exp1_Rep2_peak_2252,Exp1_Rep1_peak_2143	7	0	0
Exp2_BA_peak_2023,Exp1_Rep2_peak_2362,Exp1_Rep1_peak_2276	0	0	6
Exp2_BA_peak_2030,Exp1_Rep1_peak_2283,Exp1_Rep2_peak_2368	0	7	0
Exp2_BA_peak_2051,Exp1_Rep1_peak_2305,Exp1_Rep2_peak_2388	7	0	6
Exp2_BA_peak_2057,Exp1_Rep2_peak_2400,Exp1_Rep1_peak_2316	0	7	0
Exp2_BA_peak_2074,Exp1_Rep1_peak_2335,Exp1_Rep2_peak_2423	7	0	0
Exp2_BA_peak_2122,Exp1_Rep2_peak_2474,Exp1_Rep1_peak_2393	7	0	0
Exp2_BA_peak_2154,Exp1_Rep1_peak_2427,Exp1_Rep2_peak_2506	7	0	0
Exp2_BA_peak_2159,Exp1_Rep2_peak_2513,Exp1_Rep1_peak_2434	0	0	6
Exp2_BA_peak_2182,Exp1_Rep1_peak_2459,Exp1_Rep2_peak_2536	0	7	0
Exp2_BA_peak_2194,Exp1_Rep1_peak_2471,Exp1_Rep2_peak_2546	7	0	0
Exp2_BA_peak_222,Exp1_Rep2_peak_298,Exp1_Rep1_peak_259	0	7	0
Exp2_BA_peak_2272,Exp1_Rep2_peak_2636,Exp1_Rep1_peak_2565	0	7	0
Exp2_BA_peak_2364,Exp1_Rep2_peak_2765,Exp1_Rep1_peak_2675	7	0	0
Exp2_BA_peak_2395,Exp1_Rep1_peak_2716,Exp1_Rep2_peak_2803	0	0	6
Exp2_BA_peak_2439,Exp1_Rep1_peak_2758,Exp1_Rep2_peak_2851	7	0	0
Exp2_BA_peak_244,Exp1_Rep1_peak_281,Exp1_Rep2_peak_320	7	0	0
Exp2_BA_peak_2447,Exp1_Rep1_peak_2766,Exp1_Rep2_peak_2862	7	0	0
Exp2_BA_peak_2565,Exp1_Rep1_peak_2903,Exp1_Rep2_peak_3001	7	0	0
Exp2_BA_peak_264,Exp1_Rep2_peak_344,Exp1_Rep1_peak_304	0	8	0
Exp2_BA_peak_2680,Exp1_Rep2_peak_3127,Exp1_Rep1_peak_3026	7	0	0
Exp2_BA_peak_2703,Exp1_Rep1_peak_3054,Exp1_Rep2_peak_3160	0	8	0
Exp2_BA_peak_2719,Exp1_Rep2_peak_3185,Exp1_Rep1_peak_3075	7	7	0
Exp2_BA_peak_272,Exp1_Rep1_peak_313,Exp1_Rep2_peak_352	7	0	0
Exp2_BA_peak_2738,Exp1_Rep2_peak_3215,Exp1_Rep1_peak_3095	7	0	0
Exp2_BA_peak_2767,Exp1_Rep2_peak_3246,Exp1_Rep1_peak_3122	0	0	7
Exp2_BA_peak_2769,Exp1_Rep2_peak_3249,Exp1_Rep1_peak_3123	0	7	0
Exp2_BA_peak_2792,Exp1_Rep2_peak_3276,Exp1_Rep1_peak_3148	7	0	0
Exp2_BA_peak_2813,Exp1_Rep2_peak_3297,Exp1_Rep1_peak_3170	0	7	0
Exp2_BA_peak_2836,Exp1_Rep1_peak_3197,Exp1_Rep2_peak_3323	0	7	0
Exp2_BA_peak_2866,Exp1_Rep1_peak_3232,Exp1_Rep2_peak_3354	0	0	6
Exp2_BA_peak_2887,Exp1_Rep1_peak_3251,Exp1_Rep2_peak_3374	7	0	0
Exp2_BA_peak_2890,Exp1_Rep2_peak_3378,Exp1_Rep1_peak_3255	0	8	0
Exp2_BA_peak_2904,Exp1_Rep1_peak_3279,Exp1_Rep2_peak_3396	0	7	0
Exp2_BA_peak_2923,Exp1_Rep2_peak_3419,Exp1_Rep1_peak_3304	7	0	0
Exp2_BA_peak_2935,Exp1_Rep1_peak_3317,Exp1_Rep2_peak_3435	0	7	0
Exp2_BA_peak_2982,Exp1_Rep1_peak_3373,Exp1_Rep2_peak_3494	7	0	0
Exp2_BA_peak_2996,Exp1_Rep2_peak_3513,Exp1_Rep1_peak_3390	7	0	0
Exp2_BA_peak_302,Exp1_Rep1_peak_342,Exp1_Rep2_peak_391	7	0	0
Exp2_BA_peak_306,Exp1_Rep1_peak_346,Exp1_Rep2_peak_394	0	0	6
Exp2_BA_peak_3064,Exp1_Rep1_peak_3469,Exp1_Rep2_peak_3581	7	0	7
Exp2_BA_peak_3098,Exp1_Rep2_peak_3617,Exp1_Rep1_peak_3517	0	7	0
Exp2_BA_peak_3133,Exp1_Rep2_peak_3661,Exp1_Rep1_peak_3554	7	0	0
Exp2_BA_peak_3134,Exp1_Rep2_peak_3663,Exp1_Rep1_peak_3556	7	0	0
Exp2_BA_peak_3155,Exp1_Rep2_peak_3689,Exp1_Rep1_peak_3576	7	0	0
Exp2_BA_peak_3196,Exp1_Rep2_peak_3735,Exp1_Rep1_peak_3619	0	7	0
Exp2_BA_peak_3205,Exp1_Rep1_peak_3632,Exp1_Rep2_peak_3747	7	7	0
Exp2_BA_peak_3275,Exp1_Rep2_peak_3838,Exp1_Rep1_peak_3729	0	0	7
Exp2_BA_peak_3279,Exp1_Rep2_peak_3843,Exp1_Rep1_peak_3733	0	8	0
Exp2_BA_peak_3281,Exp1_Rep2_peak_3846,Exp1_Rep1_peak_3736	7	0	0
Exp2_BA_peak_3297,Exp1_Rep1_peak_3757,Exp1_Rep2_peak_3869	0	0	6
Exp2_BA_peak_3338,Exp1_Rep1_peak_3809,Exp1_Rep2_peak_3920	7	0	0
Exp2_BA_peak_337,Exp1_Rep2_peak_431,Exp1_Rep1_peak_378	7	8	0
Exp2_BA_peak_3399,Exp1_Rep2_peak_3974,Exp1_Rep1_peak_3879	7	0	0
Exp2_BA_peak_3400,Exp1_Rep1_peak_3881,Exp1_Rep2_peak_3975	0	8	0
Exp2_BA_peak_3430,Exp1_Rep2_peak_4006,Exp1_Rep1_peak_3914	0	8	0
Exp2_BA_peak_3442,Exp1_Rep2_peak_4019,Exp1_Rep1_peak_3926	0	7	0
Exp2_BA_peak_3460,Exp1_Rep1_peak_3952,Exp1_Rep2_peak_4045	7	0	0
Exp2_BA_peak_3544,Exp1_Rep1_peak_4046,Exp1_Rep2_peak_4135	7	0	0
Exp2_BA_peak_3550,Exp1_Rep2_peak_4146,Exp1_Rep1_peak_4057	7	0	0
Exp2_BA_peak_3654,Exp1_Rep2_peak_4275,Exp1_Rep1_peak_4178	0	0	7
Exp2_BA_peak_3662,Exp1_Rep2_peak_4283,Exp1_Rep1_peak_4184	0	7	0
Exp2_BA_peak_3740,Exp1_Rep2_peak_4377,Exp1_Rep1_peak_4283	0	0	6
Exp2_BA_peak_3803,Exp1_Rep1_peak_4355,Exp1_Rep2_peak_4459	7	0	0
Exp2_BA_peak_386,Exp1_Rep1_peak_432,Exp1_Rep2_peak_502	0	0	6
Exp2_BA_peak_3894,Exp1_Rep1_peak_4460,Exp1_Rep2_peak_4550	7	0	0
Exp2_BA_peak_3929,Exp1_Rep2_peak_4593,Exp1_Rep1_peak_4500	0	8	0
Exp2_BA_peak_3945,Exp1_Rep2_peak_4614,Exp1_Rep1_peak_4520	7	0	0
Exp2_BA_peak_3994,Exp1_Rep2_peak_4676,Exp1_Rep1_peak_4579	0	7	0
Exp2_BA_peak_4008,Exp1_Rep1_peak_4599,Exp1_Rep2_peak_4694	7	0	0
Exp2_BA_peak_4042,Exp1_Rep2_peak_4732,Exp1_Rep1_peak_4637	0	0	6
Exp2_BA_peak_4064,Exp1_Rep1_peak_4663,Exp1_Rep2_peak_4761	7	0	0
Exp2_BA_peak_4113,Exp1_Rep1_peak_4719,Exp1_Rep2_peak_4815	0	7	0
Exp2_BA_peak_4115,Exp1_Rep2_peak_4817,Exp1_Rep1_peak_4721	7	0	0
Exp2_BA_peak_4120,Exp1_Rep2_peak_4822,Exp1_Rep1_peak_4726	7	0	0
Exp2_BA_peak_4129,Exp1_Rep2_peak_4837,Exp1_Rep1_peak_4736	0	7	0
Exp2_BA_peak_414,Exp1_Rep1_peak_457,Exp1_Rep2_peak_531	7	0	0
Exp2_BA_peak_4227,Exp1_Rep2_peak_4938,Exp1_Rep1_peak_4832	0	7	0
Exp2_BA_peak_4288,Exp1_Rep2_peak_5014,Exp1_Rep1_peak_4901	7	0	0
Exp2_BA_peak_4314,Exp1_Rep2_peak_5042,Exp1_Rep1_peak_4928	0	7	6
Exp2_BA_peak_4327,Exp1_Rep2_peak_5057,Exp1_Rep1_peak_4944	7	0	0
Exp2_BA_peak_4345,Exp1_Rep1_peak_4961,Exp1_Rep2_peak_5079	7	0	0
Exp2_BA_peak_4356,Exp1_Rep2_peak_5098,Exp1_Rep1_peak_4970	0	0	6
Exp2_BA_peak_4372,Exp1_Rep2_peak_5116,Exp1_Rep1_peak_4984	7	0	0
Exp2_BA_peak_4389,Exp1_Rep1_peak_5004,Exp1_Rep2_peak_5141	0	0	8
Exp2_BA_peak_446,Exp1_Rep1_peak_493,Exp1_Rep2_peak_573	0	0	7
Exp2_BA_peak_4474,Exp1_Rep2_peak_5220,Exp1_Rep1_peak_5097	0	7	0
Exp2_BA_peak_4490,Exp1_Rep1_peak_5111,Exp1_Rep2_peak_5239	7	0	0
Exp2_BA_peak_4525,Exp1_Rep1_peak_5144,Exp1_Rep2_peak_5280	0	0	8
Exp2_BA_peak_4539,Exp1_Rep1_peak_5160,Exp1_Rep2_peak_5297	0	7	0
Exp2_BA_peak_4662,Exp1_Rep2_peak_5458,Exp1_Rep1_peak_5291	0	0	6
Exp2_BA_peak_4664,Exp1_Rep1_peak_5293,Exp1_Rep2_peak_5462	0	0	7
Exp2_BA_peak_4667,Exp1_Rep1_peak_5298,Exp1_Rep2_peak_5466	7	0	0
Exp2_BA_peak_4717,Exp1_Rep1_peak_5353,Exp1_Rep2_peak_5532	7	0	0
Exp2_BA_peak_4803,Exp1_Rep1_peak_5448,Exp1_Rep2_peak_5624	7	0	0
Exp2_BA_peak_4848,Exp1_Rep1_peak_5495,Exp1_Rep2_peak_5668	0	0	7
Exp2_BA_peak_501,Exp1_Rep2_peak_637,Exp1_Rep1_peak_544	0	0	6
Exp2_BA_peak_5051,Exp1_Rep2_peak_5926,Exp1_Rep1_peak_5720	0	7	0
Exp2_BA_peak_51,Exp1_Rep2_peak_67,Exp1_Rep1_peak_60	0	0	7
Exp2_BA_peak_5123,Exp1_Rep1_peak_5805,Exp1_Rep2_peak_6012	7	0	0
Exp2_BA_peak_5170,Exp1_Rep2_peak_6061,Exp1_Rep1_peak_5855	0	0	8
Exp2_BA_peak_5201,Exp1_Rep2_peak_6096,Exp1_Rep1_peak_5899	7	0	0
Exp2_BA_peak_521,Exp1_Rep1_peak_561,Exp1_Rep2_peak_654	7	0	0
Exp2_BA_peak_5282,Exp1_Rep1_peak_5985,Exp1_Rep2_peak_6175	7	0	6
Exp2_BA_peak_532,Exp1_Rep2_peak_665,Exp1_Rep1_peak_572	7	0	0
Exp2_BA_peak_5348,Exp1_Rep2_peak_6253,Exp1_Rep1_peak_6063	0	7	0
Exp2_BA_peak_5350,Exp1_Rep2_peak_6255,Exp1_Rep1_peak_6066	7	0	0
Exp2_BA_peak_5369,Exp1_Rep1_peak_6090,Exp1_Rep2_peak_6281	0	7	0
Exp2_BA_peak_5407,Exp1_Rep1_peak_6142,Exp1_Rep2_peak_6321	0	0	8
Exp2_BA_peak_544,Exp1_Rep2_peak_676,Exp1_Rep1_peak_588	0	7	0
Exp2_BA_peak_5511,Exp1_Rep1_peak_6280,Exp1_Rep2_peak_6441	0	8	0
Exp2_BA_peak_5545,Exp1_Rep1_peak_6318,Exp1_Rep2_peak_6487	0	0	7
Exp2_BA_peak_5558,Exp1_Rep2_peak_6506,Exp1_Rep1_peak_6331	7	7	0
Exp2_BA_peak_5561,Exp1_Rep2_peak_6511,Exp1_Rep1_peak_6335	7	0	0
Exp2_BA_peak_5575,Exp1_Rep1_peak_6351,Exp1_Rep2_peak_6527	7	0	0
Exp2_BA_peak_5594,Exp1_Rep1_peak_6369,Exp1_Rep2_peak_6556	7	0	0
Exp2_BA_peak_5655,Exp1_Rep2_peak_6625,Exp1_Rep1_peak_6432	7	0	0
Exp2_BA_peak_5656,Exp1_Rep1_peak_6433,Exp1_Rep2_peak_6626	7	0	0
Exp2_BA_peak_5660,Exp1_Rep1_peak_6436,Exp1_Rep2_peak_6632	7	0	0
Exp2_BA_peak_5662,Exp1_Rep2_peak_6634,Exp1_Rep1_peak_6438	7	0	0
Exp2_BA_peak_5695,Exp1_Rep2_peak_6673,Exp1_Rep1_peak_6473	0	0	7
Exp2_BA_peak_5696,Exp1_Rep1_peak_6474,Exp1_Rep2_peak_6674	0	7	0
Exp2_BA_peak_5729,Exp1_Rep1_peak_6513,Exp1_Rep2_peak_6710	7	0	0
Exp2_BA_peak_5773,Exp1_Rep2_peak_6768,Exp1_Rep1_peak_6563	0	8	0
Exp2_BA_peak_5823,Exp1_Rep2_peak_6826,Exp1_Rep1_peak_6619	7	0	0
Exp2_BA_peak_5867,Exp1_Rep1_peak_6674,Exp1_Rep2_peak_6888	7	0	0
Exp2_BA_peak_5868,Exp1_Rep1_peak_6676,Exp1_Rep2_peak_6892	7	0	0
Exp2_BA_peak_5953,Exp1_Rep2_peak_6987,Exp1_Rep1_peak_6770	0	7	0
Exp2_BA_peak_5975,Exp1_Rep1_peak_6792,Exp1_Rep2_peak_7008	7	0	7
Exp2_BA_peak_5984,Exp1_Rep1_peak_6803,Exp1_Rep2_peak_7021	0	0	7
Exp2_BA_peak_6073,Exp1_Rep1_peak_6914,Exp1_Rep2_peak_7142	7	7	0
Exp2_BA_peak_6119,Exp1_Rep1_peak_6959,Exp1_Rep2_peak_7199	0	0	6
Exp2_BA_peak_6166,Exp1_Rep2_peak_7263,Exp1_Rep1_peak_7016	7	0	0
Exp2_BA_peak_6172,Exp1_Rep2_peak_7271,Exp1_Rep1_peak_7028	0	8	0
Exp2_BA_peak_6212,Exp1_Rep1_peak_7066,Exp1_Rep2_peak_7319	7	0	0
Exp2_BA_peak_6253,Exp1_Rep2_peak_7374,Exp1_Rep1_peak_7106	0	7	0
Exp2_BA_peak_6272,Exp1_Rep1_peak_7129,Exp1_Rep2_peak_7400	0	7	0
Exp2_BA_peak_6275,Exp1_Rep2_peak_7407,Exp1_Rep1_peak_7135	0	7	0
Exp2_BA_peak_636,Exp1_Rep2_peak_801,Exp1_Rep1_peak_690	0	0	6
Exp2_BA_peak_6372,Exp1_Rep2_peak_7521,Exp1_Rep1_peak_7252	7	0	0
Exp2_BA_peak_6394,Exp1_Rep1_peak_7276,Exp1_Rep2_peak_7537	0	8	0
Exp2_BA_peak_643,Exp1_Rep1_peak_695,Exp1_Rep2_peak_808	7	0	0
Exp2_BA_peak_6438,Exp1_Rep1_peak_7331,Exp1_Rep2_peak_7598	0	7	0
Exp2_BA_peak_647,Exp1_Rep1_peak_700,Exp1_Rep2_peak_812	7	0	0
Exp2_BA_peak_6513,Exp1_Rep1_peak_7427,Exp1_Rep2_peak_7688	7	0	0
Exp2_BA_peak_6567,Exp1_Rep1_peak_7511,Exp1_Rep2_peak_7775	7	0	0
Exp2_BA_peak_6607,Exp1_Rep2_peak_7833,Exp1_Rep1_peak_7557	7	0	0
Exp2_BA_peak_6624,Exp1_Rep1_peak_7582,Exp1_Rep2_peak_7860	0	7	0
Exp2_BA_peak_664,Exp1_Rep2_peak_835,Exp1_Rep1_peak_725	0	0	6
Exp2_BA_peak_6668,Exp1_Rep1_peak_7635,Exp1_Rep2_peak_7913	7	0	0
Exp2_BA_peak_6678,Exp1_Rep1_peak_7647,Exp1_Rep2_peak_7921	0	8	0
Exp2_BA_peak_6702,Exp1_Rep1_peak_7670,Exp1_Rep2_peak_7939	0	0	7
Exp2_BA_peak_6756,Exp1_Rep1_peak_7733,Exp1_Rep2_peak_7996	0	0	6
Exp2_BA_peak_6757,Exp1_Rep1_peak_7734,Exp1_Rep2_peak_7997	0	7	0
Exp2_BA_peak_6786,Exp1_Rep1_peak_7761,Exp1_Rep2_peak_8026	0	7	0
Exp2_BA_peak_6805,Exp1_Rep2_peak_8042,Exp1_Rep1_peak_7786	7	0	0
Exp2_BA_peak_6859,Exp1_Rep1_peak_7846,Exp1_Rep2_peak_8098	0	0	6
Exp2_BA_peak_6869,Exp1_Rep1_peak_7859,Exp1_Rep2_peak_8106	0	0	6
Exp2_BA_peak_690,Exp1_Rep2_peak_869,Exp1_Rep1_peak_758	0	8	0
Exp2_BA_peak_6902,Exp1_Rep2_peak_8144,Exp1_Rep1_peak_7897	7	0	0
Exp2_BA_peak_6921,Exp1_Rep2_peak_8162,Exp1_Rep1_peak_7917	0	7	0
Exp2_BA_peak_6938,Exp1_Rep1_peak_7934,Exp1_Rep2_peak_8180	7	0	0
Exp2_BA_peak_694,Exp1_Rep1_peak_763,Exp1_Rep2_peak_878	0	7	0
Exp2_BA_peak_699,Exp1_Rep2_peak_883,Exp1_Rep1_peak_768	7	0	0
Exp2_BA_peak_6998,Exp1_Rep2_peak_8263,Exp1_Rep1_peak_8000	0	7	0
Exp2_BA_peak_7062,Exp1_Rep1_peak_8080,Exp1_Rep2_peak_8356	7	0	0
Exp2_BA_peak_7138,Exp1_Rep2_peak_8440,Exp1_Rep1_peak_8167	7	0	0
Exp2_BA_peak_7258,Exp1_Rep1_peak_8299,Exp1_Rep2_peak_8576	0	8	0
Exp2_BA_peak_7391,Exp1_Rep1_peak_8457,Exp1_Rep2_peak_8756	0	8	0
Exp2_BA_peak_7393,Exp1_Rep1_peak_8460,Exp1_Rep2_peak_8759	0	7	0
Exp2_BA_peak_7431,Exp1_Rep2_peak_8789,Exp1_Rep1_peak_8498	7	0	0
Exp2_BA_peak_7513,Exp1_Rep1_peak_8609,Exp1_Rep2_peak_8902	0	7	0
Exp2_BA_peak_7534,Exp1_Rep1_peak_8628,Exp1_Rep2_peak_8919	7	0	0
Exp2_BA_peak_7567,Exp1_Rep2_peak_8952,Exp1_Rep1_peak_8663	7	0	0
Exp2_BA_peak_7579,Exp1_Rep1_peak_8675,Exp1_Rep2_peak_8965	0	0	6
Exp2_BA_peak_7597,Exp1_Rep2_peak_8983,Exp1_Rep1_peak_8692	7	0	0
Exp2_BA_peak_7607,Exp1_Rep1_peak_8706,Exp1_Rep2_peak_8992	7	7	0
Exp2_BA_peak_771,Exp1_Rep2_peak_962,Exp1_Rep1_peak_843	7	0	7
Exp2_BA_peak_7751,Exp1_Rep1_peak_8852,Exp1_Rep2_peak_9176	7	0	0
Exp2_BA_peak_7963,Exp1_Rep2_peak_9426,Exp1_Rep1_peak_9078	7	0	0
Exp2_BA_peak_8003,Exp1_Rep2_peak_9474,Exp1_Rep1_peak_9122	0	0	6
Exp2_BA_peak_8037,Exp1_Rep1_peak_9155,Exp1_Rep2_peak_9521	0	7	0
Exp2_BA_peak_8047,Exp1_Rep2_peak_9542,Exp1_Rep1_peak_9169	7	0	7
Exp2_BA_peak_8080,Exp1_Rep2_peak_9577,Exp1_Rep1_peak_9200	7	0	0
Exp2_BA_peak_8131,Exp1_Rep2_peak_9644,Exp1_Rep1_peak_9257	7	0	0
Exp2_BA_peak_815,Exp1_Rep1_peak_893,Exp1_Rep2_peak_1018	7	0	0
Exp2_BA_peak_827,Exp1_Rep1_peak_904,Exp1_Rep2_peak_1029	0	0	7
Exp2_BA_peak_828,Exp1_Rep1_peak_907,Exp1_Rep2_peak_1031	7	0	0
Exp2_BA_peak_8293,Exp1_Rep1_peak_9435,Exp1_Rep2_peak_9827	0	0	6
Exp2_BA_peak_8303,Exp1_Rep2_peak_9843,Exp1_Rep1_peak_9447	0	0	6
Exp2_BA_peak_8376,Exp1_Rep1_peak_9532,Exp1_Rep2_peak_9930	7	0	0
Exp2_BA_peak_8427,Exp1_Rep2_peak_10000,Exp1_Rep1_peak_9587	7	7	0
Exp2_BA_peak_8432,Exp1_Rep1_peak_9592,Exp1_Rep2_peak_10008	7	0	0
Exp2_BA_peak_8479,Exp1_Rep1_peak_9652,Exp1_Rep2_peak_10080	7	0	0
Exp2_BA_peak_8492,Exp1_Rep1_peak_9666,Exp1_Rep2_peak_10094	7	0	0
Exp2_BA_peak_8573,Exp1_Rep1_peak_9759,Exp1_Rep2_peak_10179	7	0	0
Exp2_BA_peak_8594,Exp1_Rep2_peak_10201,Exp1_Rep1_peak_9792	7	0	0
Exp2_BA_peak_8607,Exp1_Rep2_peak_10217,Exp1_Rep1_peak_9815	7	0	0
Exp2_BA_peak_8663,Exp1_Rep2_peak_10273,Exp1_Rep1_peak_9879	7	0	0
Exp2_BA_peak_8672,Exp1_Rep2_peak_10280,Exp1_Rep1_peak_9887	0	8	0
Exp2_BA_peak_8738,Exp1_Rep1_peak_9966,Exp1_Rep2_peak_10351	0	7	0
Exp2_BA_peak_8780,Exp1_Rep1_peak_10016,Exp1_Rep2_peak_10403	7	0	0
Exp2_BA_peak_8819,Exp1_Rep2_peak_10442,Exp1_Rep1_peak_10055	7	0	0
Exp2_BA_peak_8829,Exp1_Rep1_peak_10071,Exp1_Rep2_peak_10450	7	0	0
Exp2_BA_peak_8882,Exp1_Rep1_peak_10127,Exp1_Rep2_peak_10506	7	0	0
Exp2_BA_peak_8895,Exp1_Rep1_peak_10142,Exp1_Rep2_peak_10519	0	7	0
Exp2_BA_peak_8897,Exp1_Rep2_peak_10520,Exp1_Rep1_peak_10145	0	0	6
Exp2_BA_peak_8940,Exp1_Rep2_peak_10574,Exp1_Rep1_peak_10197	0	0	6
Exp2_BA_peak_8971,Exp1_Rep2_peak_10612,Exp1_Rep1_peak_10230	7	0	0
Exp2_BA_peak_898,Exp1_Rep1_peak_973,Exp1_Rep2_peak_1098	0	0	6
Exp2_BA_peak_8982,Exp1_Rep2_peak_10624,Exp1_Rep1_peak_10245	7	0	0
Exp2_BA_peak_8983,Exp1_Rep1_peak_10246,Exp1_Rep2_peak_10625	7	0	0
Exp2_BA_peak_8987,Exp1_Rep1_peak_10250,Exp1_Rep2_peak_10629	7	0	0
Exp2_BA_peak_8995,Exp1_Rep1_peak_10257,Exp1_Rep2_peak_10641	0	7	0
Exp2_BA_peak_910,Exp1_Rep2_peak_1113,Exp1_Rep1_peak_984	0	7	0
Exp2_BA_peak_92,Exp1_Rep1_peak_107,Exp1_Rep2_peak_125	7	0	0
Exp2_BA_peak_9305,Exp1_Rep2_peak_10980,Exp1_Rep1_peak_10580	7	0	0
Exp2_BA_peak_9325,Exp1_Rep1_peak_10605,Exp1_Rep2_peak_10999	0	7	0
Exp2_BA_peak_9340,Exp1_Rep1_peak_10625,Exp1_Rep2_peak_11018	7	0	0
Exp2_BA_peak_9408,Exp1_Rep1_peak_10699,Exp1_Rep2_peak_11090	7	0	8
Exp2_BA_peak_9451,Exp1_Rep1_peak_10752,Exp1_Rep2_peak_11134	7	0	0
Exp2_BA_peak_9456,Exp1_Rep1_peak_10758,Exp1_Rep2_peak_11140	7	0	0
Exp2_BA_peak_9462,Exp1_Rep2_peak_11147,Exp1_Rep1_peak_10765	0	0	6
Exp2_BA_peak_9577,Exp1_Rep2_peak_11275,Exp1_Rep1_peak_10894	0	7	0
Exp2_BA_peak_9586,Exp1_Rep1_peak_10903,Exp1_Rep2_peak_11281	0	0	8
Exp2_BA_peak_9621,Exp1_Rep1_peak_10937,Exp1_Rep2_peak_11317	7	0	0
Exp2_BA_peak_9682,Exp1_Rep1_peak_11007,Exp1_Rep2_peak_11380	0	7	0
Exp2_BA_peak_969,Exp1_Rep1_peak_1047,Exp1_Rep2_peak_1177	0	7	0
Exp2_BA_peak_9712,Exp1_Rep1_peak_11035,Exp1_Rep2_peak_11411	0	0	6
Exp2_BA_peak_9734,Exp1_Rep2_peak_11440,Exp1_Rep1_peak_11065	0	8	0
Exp2_BA_peak_9757,Exp1_Rep2_peak_11460,Exp1_Rep1_peak_11088	7	0	0
Exp2_BA_peak_9910,Exp1_Rep2_peak_11623,Exp1_Rep1_peak_11253	0	7	0
