PeakSet	Exp1_Rep1_Input	Exp1_Rep2_Input	Exp2_BA_Input	Exp2_Mock_Input
BASharedSuperSummits	2.28025237466056	2.22069873642717	1.76596644900322	1.91090479317568
Exp1_Rep1	8.96216939747646	8.90036198644782	7.28158309636385	7.36291105936917
Exp1_Rep2	8.52721568134286	8.15265310733265	7.25377450159911	7.76002559474883
Exp2_BA	8.1000754078362	7.9944576669084	6.52513585987612	6.75046189498959
Exp2_Mock	11.2118797900229	11.1296077088988	10.8914742111837	11.4373148182572
