PeakSet	Exp1_Rep1_ratio	Exp1_Rep2_ratio	Exp2_BA_ratio	Exp2_Mock_ratio
BASharedSuperSummits	3.04060152870765	2.6016634952143	3.00978366212506	1.52802062837103
Exp1_Rep1	2.25803563799728	1.84893691515873	2.15833179379216	1.30233303518689
Exp1_Rep2	2.10107689021987	2.04434969421213	1.99372334938195	1.57997205985138
Exp2_BA	2.20768716653957	1.86497560911453	2.35192128667688	1.32403475669896
Exp2_Mock	1.13000591420293	1.27268525670946	1.08827681454227	1.7324478052257
